%!PS-Adobe-3.0 EPSF-3.0
%%Creator: cairo 1.10.2 (http://cairographics.org)
%%CreationDate: Mon Jun 22 18:13:27 2015
%%Pages: 1
%%BoundingBox: 0 0 768 576
%%DocumentData: Clean7Bit
%%LanguageLevel: 2
%%EndComments
%%BeginProlog
/cairo_eps_state save def
/dict_count countdictstack def
/op_count count 1 sub def
userdict begin
/q { gsave } bind def
/Q { grestore } bind def
/cm { 6 array astore concat } bind def
/w { setlinewidth } bind def
/J { setlinecap } bind def
/j { setlinejoin } bind def
/M { setmiterlimit } bind def
/d { setdash } bind def
/m { moveto } bind def
/l { lineto } bind def
/c { curveto } bind def
/h { closepath } bind def
/re { exch dup neg 3 1 roll 5 3 roll moveto 0 rlineto
      0 exch rlineto 0 rlineto closepath } bind def
/S { stroke } bind def
/f { fill } bind def
/f* { eofill } bind def
/n { newpath } bind def
/W { clip } bind def
/W* { eoclip } bind def
/BT { } bind def
/ET { } bind def
/pdfmark where { pop globaldict /?pdfmark /exec load put }
    { globaldict begin /?pdfmark /pop load def /pdfmark
    /cleartomark load def end } ifelse
/BDC { mark 3 1 roll /BDC pdfmark } bind def
/EMC { mark /EMC pdfmark } bind def
/cairo_store_point { /cairo_point_y exch def /cairo_point_x exch def } def
/Tj { show currentpoint cairo_store_point } bind def
/TJ {
  {
    dup
    type /stringtype eq
    { show } { -0.001 mul 0 cairo_font_matrix dtransform rmoveto } ifelse
  } forall
  currentpoint cairo_store_point
} bind def
/cairo_selectfont { cairo_font_matrix aload pop pop pop 0 0 6 array astore
    cairo_font exch selectfont cairo_point_x cairo_point_y moveto } bind def
/Tf { pop /cairo_font exch def /cairo_font_matrix where
      { pop cairo_selectfont } if } bind def
/Td { matrix translate cairo_font_matrix matrix concatmatrix dup
      /cairo_font_matrix exch def dup 4 get exch 5 get cairo_store_point
      /cairo_font where { pop cairo_selectfont } if } bind def
/Tm { 2 copy 8 2 roll 6 array astore /cairo_font_matrix exch def
      cairo_store_point /cairo_font where { pop cairo_selectfont } if } bind def
/g { setgray } bind def
/rg { setrgbcolor } bind def
/d1 { setcachedevice } bind def
%%EndProlog
%%Page: 1 1
%%BeginPageSetup
%%PageBoundingBox: 0 0 768 576
%%EndPageSetup
q 0 0 768 576 rectclip q
q
0 576 768 -576 re W n
  q
Q q
0 g
0.8 w
0 J
1 j
[] 0.0 d
10 M q 1 0 0 -1 0 576 cm
61.75 34.395 m 736.723 34.395 l S Q
32.336 537.992 m 32.336 544.867 l 33.262 544.867 l 36.875 539.465 l 
36.875 544.867 l 37.75 544.867 l 37.75 537.992 l 36.812 537.992 l 
33.199 543.391 l 33.199 537.992 l h
38.855 540.477 m 38.855 541.402 39.109 542.086 39.621 542.527 c 40.043 
542.895 40.566 543.078 41.184 543.078 c 41.863 543.078 42.422 542.852 
42.855 542.402 c 43.297 541.961 43.52 541.344 43.52 540.555 c 43.52 
539.91 43.422 539.406 43.23 539.039 c 43.039 538.672 42.758 538.387 
42.383 538.18 c 42.016 537.977 41.613 537.879 41.184 537.879 c 40.488 
537.879 39.926 538.098 39.496 538.539 c 39.07 538.992 38.855 539.637 
38.855 540.477 c h
39.719 540.477 m 39.719 539.844 39.855 539.371 40.133 539.055 c 40.414 
538.734 40.766 538.578 41.184 538.578 c 41.605 538.578 41.957 538.734 
42.23 539.055 c 42.508 539.371 42.645 539.852 42.645 540.504 c 42.645 
541.121 42.504 541.586 42.219 541.902 c 41.945 542.219 41.598 542.379 
41.184 542.379 c 40.766 542.379 40.414 542.219 40.133 541.902 c 39.855 
541.594 39.719 541.121 39.719 540.477 c h
47.734 537.992 m 47.734 538.617 l 47.418 538.125 46.953 537.879 46.348 
537.879 c 45.945 537.879 45.578 537.984 45.246 538.203 c 44.914 538.43 
44.652 538.734 44.473 539.129 c 44.289 539.52 44.195 539.969 44.195 
540.477 c 44.195 540.969 44.277 541.418 44.445 541.828 c 44.613 542.234 
44.863 542.543 45.195 542.754 c 45.527 542.969 45.898 543.078 46.309 
543.078 c 46.609 543.078 46.875 543.016 47.109 542.891 c 47.34 542.766 
47.535 542.602 47.684 542.402 c 47.684 544.867 l 48.52 544.867 l 48.52 
537.992 l h
45.07 540.477 m 45.07 539.836 45.203 539.355 45.473 539.039 c 45.738 
538.73 46.055 538.578 46.422 538.578 c 46.789 538.578 47.102 538.727 
47.359 539.027 c 47.617 539.328 47.746 539.785 47.746 540.402 c 47.746 
541.086 47.613 541.586 47.348 541.902 c 47.086 542.219 46.766 542.379 
46.383 542.379 c 46.008 542.379 45.695 542.223 45.445 541.914 c 45.195 
541.617 45.07 541.137 45.07 540.477 c h
53.246 539.59 m 54.121 539.492 l 53.988 538.98 53.734 538.586 53.359 
538.305 c 52.984 538.02 52.512 537.879 51.934 537.879 c 51.211 537.879 
50.629 538.102 50.199 538.555 c 49.773 539.004 49.559 539.633 49.559 
540.441 c 49.559 541.273 49.777 541.918 50.211 542.379 c 50.645 542.844 
51.203 543.078 51.887 543.078 c 52.551 543.078 53.094 542.852 53.512 
542.402 c 53.934 541.953 54.148 541.316 54.148 540.492 c 54.148 540.266 
l 50.434 540.266 l 50.469 539.715 50.621 539.293 50.898 539.004 c 
51.172 538.719 51.52 538.578 51.934 538.578 c 52.242 538.578 52.504 
538.656 52.723 538.816 c 52.949 538.98 53.121 539.242 53.246 539.59 c h
50.484 540.953 m 53.262 540.953 l 53.227 541.379 53.121 541.695 52.949 
541.902 c 52.672 542.227 52.324 542.391 51.898 542.391 c 51.504 542.391 
51.176 542.262 50.91 542.004 c 50.652 541.746 50.512 541.395 50.484 
540.953 c h
50.484 540.953 m f
q 1 0 0 -1 0 576 cm
61.75 94.527 m 736.723 94.527 l S Q
8.102 477.855 m 8.102 484.73 l 9 484.73 l 9 477.855 l h
10.504 477.855 m 10.504 482.832 l 11.254 482.832 l 11.254 482.133 l 
11.621 482.672 12.152 482.945 12.844 482.945 c 13.141 482.945 13.418 
482.891 13.668 482.781 c 13.926 482.672 14.117 482.531 14.242 482.355 c 
14.367 482.18 14.453 481.977 14.504 481.742 c 14.531 481.586 14.543 
481.309 14.543 480.918 c 14.543 477.855 l 13.703 477.855 l 13.703 
480.883 l 13.703 481.23 13.672 481.488 13.605 481.656 c 13.539 481.824 
13.422 481.957 13.254 482.055 c 13.09 482.164 12.891 482.219 12.668 
482.219 c 12.309 482.219 11.996 482.102 11.73 481.867 c 11.473 481.645 
11.344 481.215 11.344 480.582 c 11.344 477.855 l h
17.68 478.605 m 17.805 477.867 l 17.566 477.82 17.352 477.793 17.168 
477.793 c 16.859 477.793 16.621 477.84 16.457 477.93 c 16.289 478.031 
16.168 478.16 16.094 478.32 c 16.027 478.477 15.992 478.809 15.992 
479.32 c 15.992 482.18 l 15.383 482.18 l 15.383 482.832 l 15.992 
482.832 l 15.992 484.07 l 16.832 484.57 l 16.832 482.832 l 17.68 
482.832 l 17.68 482.18 l 16.832 482.18 l 16.832 479.27 l 16.832 479.027 
16.844 478.871 16.867 478.805 c 16.902 478.738 16.953 478.684 17.02 
478.645 c 17.086 478.602 17.18 478.582 17.305 478.582 c 17.406 478.582 
17.531 478.59 17.68 478.605 c h
21.91 479.457 m 22.785 479.355 l 22.652 478.848 22.398 478.453 22.023 
478.168 c 21.648 477.887 21.172 477.742 20.598 477.742 c 19.875 477.742 
19.293 477.969 18.859 478.418 c 18.438 478.867 18.223 479.496 18.223 
480.305 c 18.223 481.141 18.441 481.785 18.875 482.242 c 19.309 482.711 
19.863 482.945 20.547 482.945 c 21.215 482.945 21.758 482.719 22.172 
482.27 c 22.598 481.82 22.812 481.18 22.812 480.355 c 22.812 480.133 l 
19.098 480.133 l 19.133 479.582 19.285 479.16 19.562 478.867 c 19.836 
478.586 20.184 478.445 20.598 478.445 c 20.906 478.445 21.168 478.523 
21.387 478.68 c 21.609 478.848 21.785 479.105 21.91 479.457 c h
19.148 480.82 m 21.922 480.82 l 21.891 481.242 21.785 481.559 21.609 
481.77 c 21.336 482.094 20.984 482.258 20.562 482.258 c 20.168 482.258 
19.84 482.125 19.574 481.867 c 19.316 481.609 19.172 481.262 19.148 
480.82 c h
23.836 477.855 m 23.836 482.832 l 24.602 482.832 l 24.602 482.082 l 
24.793 482.43 24.965 482.66 25.125 482.77 c 25.293 482.887 25.477 
482.945 25.676 482.945 c 25.957 482.945 26.246 482.855 26.539 482.68 c 
26.25 481.895 l 26.043 482.02 25.836 482.082 25.637 482.082 c 25.445 
482.082 25.273 482.023 25.125 481.906 c 24.984 481.797 24.883 481.645 
24.824 481.445 c 24.727 481.145 24.676 480.82 24.676 480.469 c 24.676 
477.855 l h
27.246 477.855 m 27.246 482.18 l 26.496 482.18 l 26.496 482.832 l 
27.246 482.832 l 27.246 483.367 l 27.246 483.703 27.277 483.949 27.336 
484.105 c 27.418 484.332 27.559 484.512 27.758 484.645 c 27.969 484.777 
28.254 484.844 28.621 484.844 c 28.863 484.844 29.125 484.812 29.41 
484.758 c 29.285 484.031 l 29.109 484.055 28.941 484.07 28.785 484.07 c 
28.527 484.07 28.344 484.016 28.234 483.906 c 28.133 483.797 28.086 
483.594 28.086 483.293 c 28.086 482.832 l 29.059 482.832 l 29.059 
482.18 l 28.086 482.18 l 28.086 477.855 l h
33.113 479.457 m 33.988 479.355 l 33.855 478.848 33.602 478.453 33.227 
478.168 c 32.852 477.887 32.375 477.742 31.801 477.742 c 31.078 477.742 
30.496 477.969 30.062 478.418 c 29.641 478.867 29.426 479.496 29.426 
480.305 c 29.426 481.141 29.645 481.785 30.078 482.242 c 30.512 482.711 
31.066 482.945 31.75 482.945 c 32.418 482.945 32.961 482.719 33.375 
482.27 c 33.801 481.82 34.016 481.18 34.016 480.355 c 34.016 480.133 l 
30.301 480.133 l 30.336 479.582 30.488 479.16 30.766 478.867 c 31.039 
478.586 31.387 478.445 31.801 478.445 c 32.109 478.445 32.371 478.523 
32.59 478.68 c 32.812 478.848 32.988 479.105 33.113 479.457 c h
30.352 480.82 m 33.125 480.82 l 33.094 481.242 32.988 481.559 32.812 
481.77 c 32.539 482.094 32.188 482.258 31.766 482.258 c 31.371 482.258 
31.043 482.125 30.777 481.867 c 30.52 481.609 30.375 481.262 30.352 
480.82 c h
35.039 477.855 m 35.039 482.832 l 35.805 482.832 l 35.805 482.082 l 
35.996 482.43 36.168 482.66 36.328 482.77 c 36.496 482.887 36.68 
482.945 36.879 482.945 c 37.16 482.945 37.449 482.855 37.742 482.68 c 
37.453 481.895 l 37.246 482.02 37.039 482.082 36.84 482.082 c 36.648 
482.082 36.477 482.023 36.328 481.906 c 36.188 481.797 36.086 481.645 
36.027 481.445 c 35.93 481.145 35.879 480.82 35.879 480.469 c 35.879 
477.855 l h
41.648 479.457 m 42.523 479.355 l 42.391 478.848 42.137 478.453 41.762 
478.168 c 41.387 477.887 40.914 477.742 40.336 477.742 c 39.613 477.742 
39.035 477.969 38.602 478.418 c 38.176 478.867 37.961 479.496 37.961 
480.305 c 37.961 481.141 38.18 481.785 38.613 482.242 c 39.047 482.711 
39.605 482.945 40.289 482.945 c 40.953 482.945 41.496 482.719 41.914 
482.27 c 42.336 481.82 42.551 481.18 42.551 480.355 c 42.551 480.133 l 
38.836 480.133 l 38.871 479.582 39.023 479.16 39.301 478.867 c 39.574 
478.586 39.922 478.445 40.336 478.445 c 40.645 478.445 40.91 478.523 
41.125 478.68 c 41.352 478.848 41.523 479.105 41.648 479.457 c h
38.887 480.82 m 41.664 480.82 l 41.629 481.242 41.523 481.559 41.352 
481.77 c 41.074 482.094 40.727 482.258 40.301 482.258 c 39.91 482.258 
39.578 482.125 39.312 481.867 c 39.055 481.609 38.914 481.262 38.887 
480.82 c h
43.578 477.855 m 43.578 482.832 l 44.34 482.832 l 44.34 482.082 l 
44.531 482.43 44.707 482.66 44.863 482.77 c 45.031 482.887 45.215 
482.945 45.414 482.945 c 45.699 482.945 45.984 482.855 46.277 482.68 c 
45.988 481.895 l 45.781 482.02 45.578 482.082 45.375 482.082 c 45.184 
482.082 45.016 482.023 44.863 481.906 c 44.723 481.797 44.621 481.645 
44.562 481.445 c 44.465 481.145 44.414 480.82 44.414 480.469 c 44.414 
477.855 l h
43.578 477.855 m f
0.811765 0.886275 0.952941 rg
76.086 565.164 13 -23.559 re f
0 g
q 1 0 0 -1 0 576 cm
76.086 10.836 13 23.559 re S Q
440.273 505.031 18.898 -23.559 re f
q 1 0 0 -1 0 576 cm
440.273 70.969 18.898 23.559 re S Q
0.811765 0.886275 0.952941 rg
446.172 565.168 13 -23.559 re f
0 g
q 1 0 0 -1 0 576 cm
446.172 10.832 13 23.559 re S Q
0.956863 0.8 0.8 rg
459.172 565.164 176.934 -23.559 re f
0 g
q 1 0 0 -1 0 576 cm
459.172 10.836 176.934 23.559 re S Q
0.811765 0.886275 0.952941 rg
261.129 565.164 13 -23.559 re f
0 g
q 1 0 0 -1 0 576 cm
261.129 10.836 13 23.559 re S Q
163.191 505.031 18.895 -23.559 re f
q 1 0 0 -1 0 576 cm
163.191 70.969 18.895 23.559 re S Q
0.811765 0.886275 0.952941 rg
287.652 471.289 66.191 -19.023 re f
0 g
q 1 0 0 -1 0 576 cm
287.652 104.711 66.191 19.023 re S Q
300.027 461 m 300.863 460.785 l 300.688 460.102 300.371 459.578 299.914 
459.211 c 299.465 458.852 298.91 458.676 298.25 458.676 c 297.566 
458.676 297.016 458.812 296.59 459.086 c 296.164 459.371 295.84 459.773 
295.613 460.301 c 295.398 460.824 295.289 461.387 295.289 461.988 c 
295.289 462.637 295.414 463.207 295.664 463.699 c 295.914 464.191 
296.27 464.562 296.727 464.812 c 297.191 465.07 297.707 465.199 298.266 
465.199 c 298.898 465.199 299.426 465.035 299.852 464.711 c 300.285 
464.395 300.586 463.945 300.75 463.363 c 299.926 463.16 l 299.785 
463.621 299.574 463.953 299.289 464.16 c 299.016 464.371 298.668 
464.473 298.25 464.473 c 297.762 464.473 297.352 464.355 297.027 
464.125 c 296.703 463.898 296.473 463.59 296.34 463.199 c 296.215 
462.809 296.152 462.402 296.152 461.988 c 296.152 461.453 296.227 
460.988 296.375 460.586 c 296.535 460.188 296.777 459.887 297.102 
459.688 c 297.434 459.488 297.793 459.387 298.176 459.387 c 298.645 
459.387 299.039 459.52 299.363 459.785 c 299.688 460.062 299.91 460.465 
300.027 461 c h
306.184 461 m 307.02 460.785 l 306.844 460.102 306.527 459.578 306.07 
459.211 c 305.621 458.852 305.066 458.676 304.406 458.676 c 303.723 
458.676 303.172 458.812 302.746 459.086 c 302.32 459.371 301.996 
459.773 301.77 460.301 c 301.555 460.824 301.445 461.387 301.445 
461.988 c 301.445 462.637 301.57 463.207 301.82 463.699 c 302.07 
464.191 302.426 464.562 302.883 464.812 c 303.348 465.07 303.863 
465.199 304.422 465.199 c 305.055 465.199 305.582 465.035 306.008 
464.711 c 306.441 464.395 306.742 463.945 306.906 463.363 c 306.082 
463.16 l 305.941 463.621 305.73 463.953 305.445 464.16 c 305.172 
464.371 304.824 464.473 304.406 464.473 c 303.918 464.473 303.508 
464.355 303.184 464.125 c 302.859 463.898 302.629 463.59 302.496 
463.199 c 302.371 462.809 302.309 462.402 302.309 461.988 c 302.309 
461.453 302.383 460.988 302.531 460.586 c 302.691 460.188 302.934 
459.887 303.258 459.688 c 303.59 459.488 303.949 459.387 304.332 
459.387 c 304.801 459.387 305.195 459.52 305.52 459.785 c 305.844 
460.062 306.066 460.465 306.184 461 c h
307.152 458.785 m 309.578 465.086 l 310.465 465.086 l 313.051 458.785 l 
312.102 458.785 l 311.363 460.699 l 308.727 460.699 l 308.039 458.785 l 
h
308.965 461.375 m 311.102 461.375 l 310.453 463.125 l 310.25 463.648 
310.102 464.082 310 464.426 c 309.918 464.023 309.805 463.625 309.664 
463.223 c h
320.395 461 m 321.23 460.785 l 321.055 460.102 320.738 459.578 320.281 
459.211 c 319.832 458.852 319.277 458.676 318.617 458.676 c 317.938 
458.676 317.383 458.812 316.957 459.086 c 316.531 459.371 316.207 
459.773 315.98 460.301 c 315.766 460.824 315.656 461.387 315.656 
461.988 c 315.656 462.637 315.781 463.207 316.031 463.699 c 316.281 
464.191 316.637 464.562 317.094 464.812 c 317.562 465.07 318.074 
465.199 318.633 465.199 c 319.266 465.199 319.793 465.035 320.219 
464.711 c 320.652 464.395 320.953 463.945 321.117 463.363 c 320.293 
463.16 l 320.152 463.621 319.941 463.953 319.656 464.16 c 319.383 
464.371 319.035 464.473 318.617 464.473 c 318.129 464.473 317.719 
464.355 317.395 464.125 c 317.07 463.898 316.84 463.59 316.707 463.199 
c 316.582 462.809 316.52 462.402 316.52 461.988 c 316.52 461.453 
316.594 460.988 316.742 460.586 c 316.902 460.188 317.145 459.887 
317.469 459.688 c 317.801 459.488 318.16 459.387 318.543 459.387 c 
319.012 459.387 319.406 459.52 319.73 459.785 c 320.055 460.062 320.277 
460.465 320.395 461 c h
321.949 458.785 m 321.949 465.086 l 322.727 465.086 l 322.727 462.824 l 
323.094 463.242 323.551 463.449 324.102 463.449 c 324.434 463.449 
324.727 463.383 324.977 463.25 c 325.227 463.117 325.406 462.934 
325.512 462.699 c 325.621 462.465 325.676 462.125 325.676 461.676 c 
325.676 458.785 l 324.902 458.785 l 324.902 461.676 l 324.902 462.066 
324.816 462.348 324.652 462.523 c 324.484 462.699 324.246 462.785 
323.938 462.785 c 323.703 462.785 323.488 462.727 323.289 462.613 c 
323.09 462.496 322.941 462.332 322.852 462.125 c 322.766 461.926 
322.727 461.645 322.727 461.285 c 322.727 458.785 l h
329.816 460.262 m 330.617 460.16 l 330.492 459.695 330.258 459.332 
329.918 459.074 c 329.574 458.816 329.141 458.688 328.617 458.688 c 
327.949 458.688 327.422 458.891 327.027 459.301 c 326.637 459.707 
326.441 460.281 326.441 461.023 c 326.441 461.801 326.637 462.395 
327.027 462.812 c 327.43 463.238 327.941 463.449 328.566 463.449 c 
329.184 463.449 329.684 463.242 330.066 462.824 c 330.449 462.414 
330.641 461.832 330.641 461.074 c 330.641 460.875 l 327.242 460.875 l 
327.266 460.375 327.402 459.992 327.652 459.723 c 327.914 459.457 
328.234 459.324 328.617 459.324 c 328.898 459.324 329.141 459.395 
329.34 459.535 c 329.543 459.688 329.699 459.93 329.816 460.262 c h
327.277 461.512 m 329.828 461.512 l 329.797 461.895 329.699 462.184 
329.543 462.375 c 329.293 462.664 328.973 462.812 328.578 462.812 c 
328.223 462.812 327.922 462.691 327.68 462.449 c 327.438 462.215 
327.305 461.902 327.277 461.512 c h
334.422 460.461 m 335.172 460.363 l 335.094 459.836 334.883 459.426 
334.531 459.125 c 334.191 458.832 333.773 458.688 333.281 458.688 c 
332.656 458.688 332.152 458.891 331.77 459.301 c 331.395 459.707 
331.207 460.289 331.207 461.051 c 331.207 461.539 331.285 461.969 
331.445 462.336 c 331.613 462.711 331.863 462.992 332.195 463.176 c 
332.527 463.355 332.891 463.449 333.281 463.449 c 333.773 463.449 
334.18 463.324 334.496 463.074 c 334.812 462.824 335.016 462.469 
335.109 462.012 c 334.344 461.898 l 334.277 462.199 334.152 462.426 
333.969 462.574 c 333.785 462.73 333.566 462.812 333.309 462.812 c 
332.926 462.812 332.609 462.668 332.359 462.387 c 332.117 462.113 
331.996 461.676 331.996 461.074 c 331.996 460.457 332.113 460.012 
332.344 459.738 c 332.578 459.461 332.887 459.324 333.27 459.324 c 
333.57 459.324 333.82 459.414 334.02 459.598 c 334.23 459.781 334.363 
460.07 334.422 460.461 c h
335.707 458.785 m 335.707 465.086 l 336.484 465.086 l 336.484 461.5 l 
338.309 463.348 l 339.309 463.348 l 337.57 461.66 l 339.484 458.785 l 
338.531 458.785 l 337.02 461.125 l 336.484 460.598 l 336.484 458.785 l 
h
339.656 460.148 m 340.422 460.273 l 340.461 459.965 340.578 459.727 
340.77 459.562 c 340.969 459.402 341.246 459.324 341.594 459.324 c 
341.953 459.324 342.215 459.395 342.383 459.535 c 342.559 459.68 
342.645 459.848 342.645 460.051 c 342.645 460.223 342.57 460.363 
342.422 460.461 c 342.312 460.527 342.051 460.617 341.633 460.723 c 
341.066 460.867 340.672 460.988 340.445 461.086 c 340.23 461.195 
340.062 461.34 339.945 461.523 c 339.836 461.707 339.781 461.91 339.781 
462.137 c 339.781 462.344 339.828 462.531 339.922 462.699 c 340.012 
462.875 340.141 463.02 340.309 463.137 c 340.426 463.227 340.586 
463.305 340.797 463.363 c 341.004 463.418 341.223 463.449 341.457 
463.449 c 341.816 463.449 342.129 463.398 342.395 463.301 c 342.672 
463.199 342.871 463.059 342.996 462.875 c 343.129 462.699 343.219 
462.465 343.27 462.176 c 342.52 462.074 l 342.48 462.309 342.375 
462.488 342.207 462.613 c 342.051 462.746 341.82 462.812 341.52 462.812 
c 341.16 462.812 340.906 462.754 340.758 462.637 c 340.609 462.52 
340.531 462.383 340.531 462.223 c 340.531 462.125 340.562 462.035 
340.621 461.961 c 340.688 461.879 340.785 461.809 340.922 461.75 c 
340.996 461.723 341.223 461.656 341.609 461.551 c 342.148 461.406 
342.527 461.289 342.746 461.199 c 342.961 461.105 343.133 460.969 
343.258 460.785 c 343.383 460.613 343.445 460.391 343.445 460.125 c 
343.445 459.867 343.371 459.625 343.219 459.398 c 343.07 459.176 
342.855 459 342.57 458.875 c 342.285 458.75 341.965 458.688 341.609 
458.688 c 341.016 458.688 340.562 458.809 340.246 459.051 c 339.938 
459.301 339.742 459.664 339.656 460.148 c h
339.656 460.148 m f
359.992 471.289 66.191 -19.023 re f
q 1 0 0 -1 0 576 cm
359.992 104.711 66.191 19.023 re S Q
1 g
368.016 458.785 m 368.016 465.086 l 368.84 465.086 l 368.84 458.785 l h
370.137 458.785 m 370.137 463.348 l 370.836 463.348 l 370.836 462.699 l 
371.168 463.199 371.652 463.449 372.285 463.449 c 372.559 463.449 
372.812 463.398 373.047 463.301 c 373.281 463.207 373.453 463.078 
373.559 462.91 c 373.676 462.754 373.762 462.566 373.809 462.348 c 
373.836 462.199 373.848 461.945 373.848 461.586 c 373.848 458.785 l 
373.074 458.785 l 373.074 461.562 l 373.074 461.879 373.043 462.113 
372.984 462.262 c 372.926 462.418 372.82 462.543 372.66 462.637 c 
372.512 462.738 372.332 462.785 372.121 462.785 c 371.797 462.785 
371.516 462.684 371.273 462.473 c 371.031 462.266 370.91 461.867 370.91 
461.273 c 370.91 458.785 l h
376.578 459.473 m 376.676 458.801 l 376.461 458.75 376.27 458.723 
376.102 458.723 c 375.816 458.723 375.598 458.77 375.438 458.863 c 
375.289 458.953 375.18 459.07 375.113 459.211 c 375.055 459.352 375.027 
459.656 375.027 460.125 c 375.027 462.75 l 374.453 462.75 l 374.453 
463.348 l 375.027 463.348 l 375.027 464.473 l 375.789 464.949 l 375.789 
463.348 l 376.578 463.348 l 376.578 462.75 l 375.789 462.75 l 375.789 
460.074 l 375.789 459.855 375.801 459.715 375.828 459.648 c 375.859 
459.59 375.906 459.539 375.965 459.5 c 376.031 459.465 376.117 459.449 
376.227 459.449 c 376.316 459.449 376.434 459.457 376.578 459.473 c h
380.371 460.262 m 381.168 460.16 l 381.043 459.695 380.812 459.332 
380.469 459.074 c 380.129 458.816 379.695 458.688 379.168 458.688 c 
378.504 458.688 377.973 458.891 377.582 459.301 c 377.191 459.707 
376.996 460.281 376.996 461.023 c 376.996 461.801 377.191 462.395 
377.582 462.812 c 377.98 463.238 378.496 463.449 379.121 463.449 c 
379.738 463.449 380.238 463.242 380.621 462.824 c 381.004 462.414 
381.195 461.832 381.195 461.074 c 381.195 460.875 l 377.793 460.875 l 
377.82 460.375 377.957 459.992 378.207 459.723 c 378.465 459.457 
378.785 459.324 379.168 459.324 c 379.453 459.324 379.695 459.395 
379.895 459.535 c 380.094 459.688 380.254 459.93 380.371 460.262 c h
377.832 461.512 m 380.383 461.512 l 380.348 461.895 380.254 462.184 
380.094 462.375 c 379.844 462.664 379.523 462.812 379.133 462.812 c 
378.773 462.812 378.473 462.691 378.23 462.449 c 377.992 462.215 
377.855 461.902 377.832 461.512 c h
381.984 458.785 m 381.984 463.348 l 382.672 463.348 l 382.672 462.66 l 
382.855 462.988 383.023 463.199 383.172 463.301 c 383.324 463.398 
383.484 463.449 383.66 463.449 c 383.926 463.449 384.195 463.367 
384.461 463.199 c 384.199 462.488 l 384.008 462.594 383.816 462.648 
383.625 462.648 c 383.457 462.648 383.309 462.598 383.172 462.5 c 
383.039 462.398 382.945 462.258 382.887 462.074 c 382.801 461.801 
382.762 461.5 382.762 461.176 c 382.762 458.785 l h
385.012 458.785 m 385.012 462.75 l 384.336 462.75 l 384.336 463.348 l 
385.012 463.348 l 385.012 463.836 l 385.012 464.145 385.043 464.375 
385.102 464.523 c 385.176 464.723 385.305 464.887 385.488 465.012 c 
385.68 465.137 385.941 465.199 386.273 465.199 c 386.492 465.199 
386.734 465.168 387 465.113 c 386.887 464.438 l 386.723 464.469 386.566 
464.488 386.426 464.488 c 386.191 464.488 386.023 464.438 385.926 
464.336 c 385.832 464.238 385.789 464.051 385.789 463.773 c 385.789 
463.348 l 386.676 463.348 l 386.676 462.75 l 385.789 462.75 l 385.789 
458.785 l h
390.32 460.262 m 391.117 460.16 l 390.992 459.695 390.762 459.332 
390.418 459.074 c 390.078 458.816 389.645 458.688 389.117 458.688 c 
388.453 458.688 387.922 458.891 387.531 459.301 c 387.141 459.707 
386.945 460.281 386.945 461.023 c 386.945 461.801 387.141 462.395 
387.531 462.812 c 387.93 463.238 388.445 463.449 389.07 463.449 c 
389.684 463.449 390.184 463.242 390.57 462.824 c 390.953 462.414 
391.145 461.832 391.145 461.074 c 391.145 460.875 l 387.742 460.875 l 
387.77 460.375 387.906 459.992 388.156 459.723 c 388.414 459.457 
388.734 459.324 389.117 459.324 c 389.402 459.324 389.645 459.395 
389.844 459.535 c 390.043 459.688 390.203 459.93 390.32 460.262 c h
387.781 461.512 m 390.332 461.512 l 390.297 461.895 390.203 462.184 
390.043 462.375 c 389.793 462.664 389.473 462.812 389.082 462.812 c 
388.723 462.812 388.422 462.691 388.18 462.449 c 387.938 462.215 
387.805 461.902 387.781 461.512 c h
391.934 458.785 m 391.934 463.348 l 392.621 463.348 l 392.621 462.66 l 
392.805 462.988 392.973 463.199 393.121 463.301 c 393.273 463.398 
393.434 463.449 393.609 463.449 c 393.875 463.449 394.145 463.367 
394.41 463.199 c 394.148 462.488 l 393.957 462.594 393.766 462.648 
393.57 462.648 c 393.406 462.648 393.254 462.598 393.121 462.5 c 
392.988 462.398 392.895 462.258 392.836 462.074 c 392.75 461.801 
392.711 461.5 392.711 461.176 c 392.711 458.785 l h
397.898 460.262 m 398.699 460.16 l 398.574 459.695 398.34 459.332 398 
459.074 c 397.656 458.816 397.223 458.688 396.699 458.688 c 396.031 
458.688 395.504 458.891 395.109 459.301 c 394.719 459.707 394.523 
460.281 394.523 461.023 c 394.523 461.801 394.719 462.395 395.109 
462.812 c 395.512 463.238 396.023 463.449 396.648 463.449 c 397.266 
463.449 397.766 463.242 398.148 462.824 c 398.531 462.414 398.723 
461.832 398.723 461.074 c 398.723 460.875 l 395.324 460.875 l 395.348 
460.375 395.484 459.992 395.734 459.723 c 395.996 459.457 396.316 
459.324 396.699 459.324 c 396.98 459.324 397.223 459.395 397.422 
459.535 c 397.625 459.688 397.781 459.93 397.898 460.262 c h
395.359 461.512 m 397.91 461.512 l 397.879 461.895 397.781 462.184 
397.625 462.375 c 397.375 462.664 397.051 462.812 396.66 462.812 c 
396.301 462.812 396.004 462.691 395.762 462.449 c 395.52 462.215 
395.387 461.902 395.359 461.512 c h
399.516 458.785 m 399.516 463.348 l 400.215 463.348 l 400.215 462.699 l 
400.547 463.199 401.031 463.449 401.664 463.449 c 401.941 463.449 
402.195 463.398 402.426 463.301 c 402.66 463.207 402.832 463.078 
402.941 462.91 c 403.055 462.754 403.141 462.566 403.191 462.348 c 
403.215 462.199 403.227 461.945 403.227 461.586 c 403.227 458.785 l 
402.453 458.785 l 402.453 461.562 l 402.453 461.879 402.422 462.113 
402.363 462.262 c 402.305 462.418 402.199 462.543 402.039 462.637 c 
401.891 462.738 401.711 462.785 401.504 462.785 c 401.176 462.785 
400.895 462.684 400.652 462.473 c 400.41 462.266 400.289 461.867 
400.289 461.273 c 400.289 458.785 l h
407.242 460.461 m 407.992 460.363 l 407.918 459.836 407.707 459.426 
407.355 459.125 c 407.016 458.832 406.598 458.688 406.105 458.688 c 
405.48 458.688 404.977 458.891 404.594 459.301 c 404.219 459.707 
404.031 460.289 404.031 461.051 c 404.031 461.539 404.109 461.969 
404.27 462.336 c 404.434 462.711 404.684 462.992 405.02 463.176 c 
405.352 463.355 405.715 463.449 406.105 463.449 c 406.598 463.449 407 
463.324 407.32 463.074 c 407.637 462.824 407.84 462.469 407.93 462.012 
c 407.168 461.898 l 407.102 462.199 406.977 462.426 406.793 462.574 c 
406.609 462.73 406.391 462.812 406.133 462.812 c 405.746 462.812 405.43 
462.668 405.18 462.387 c 404.938 462.113 404.82 461.676 404.82 461.074 
c 404.82 460.457 404.934 460.012 405.168 459.738 c 405.402 459.461 
405.711 459.324 406.094 459.324 c 406.395 459.324 406.645 459.414 
406.844 459.598 c 407.051 459.781 407.184 460.07 407.242 460.461 c h
411.645 460.262 m 412.445 460.16 l 412.32 459.695 412.086 459.332 
411.742 459.074 c 411.402 458.816 410.969 458.688 410.445 458.688 c 
409.777 458.688 409.246 458.891 408.855 459.301 c 408.465 459.707 
408.27 460.281 408.27 461.023 c 408.27 461.801 408.465 462.395 408.855 
462.812 c 409.258 463.238 409.77 463.449 410.395 463.449 c 411.012 
463.449 411.512 463.242 411.895 462.824 c 412.277 462.414 412.469 
461.832 412.469 461.074 c 412.469 460.875 l 409.07 460.875 l 409.094 
460.375 409.23 459.992 409.48 459.723 c 409.738 459.457 410.059 459.324 
410.445 459.324 c 410.727 459.324 410.969 459.395 411.168 459.535 c 
411.367 459.688 411.527 459.93 411.645 460.262 c h
409.105 461.512 m 411.656 461.512 l 411.621 461.895 411.527 462.184 
411.367 462.375 c 411.117 462.664 410.797 462.812 410.406 462.812 c 
410.047 462.812 409.746 462.691 409.508 462.449 c 409.266 462.215 
409.133 461.902 409.105 461.512 c h
409.105 461.512 m f
0.956863 0.8 0.8 rg
432.332 471.289 78.488 -19.023 re f
0 g
q 1 0 0 -1 0 576 cm
432.332 104.711 78.488 19.023 re S Q
440.219 458.785 m 440.219 465.086 l 443.02 465.086 l 443.578 465.086 
444.004 465.027 444.293 464.91 c 444.586 464.805 444.82 464.602 444.996 
464.312 c 445.168 464.027 445.258 463.711 445.258 463.363 c 445.258 
462.918 445.109 462.543 444.82 462.238 c 444.535 461.93 444.09 461.73 
443.48 461.648 c 443.707 461.551 443.875 461.445 443.98 461.336 c 
444.23 461.113 444.465 460.832 444.684 460.5 c 445.77 458.785 l 444.73 
458.785 l 443.895 460.098 l 443.652 460.473 443.453 460.762 443.293 
460.961 c 443.137 461.16 442.996 461.305 442.871 461.387 c 442.746 
461.469 442.621 461.523 442.496 461.551 c 442.395 461.574 442.234 
461.586 442.02 461.586 c 441.059 461.586 l 441.059 458.785 l h
441.059 462.312 m 442.844 462.312 l 443.227 462.312 443.527 462.348 
443.746 462.426 c 443.961 462.5 444.125 462.625 444.23 462.801 c 444.34 
462.973 444.395 463.16 444.395 463.363 c 444.395 463.66 444.285 463.906 
444.07 464.098 c 443.859 464.289 443.523 464.387 443.059 464.387 c 
441.059 464.387 l h
449.25 459.348 m 448.961 459.105 448.68 458.938 448.414 458.836 c 
448.156 458.738 447.871 458.688 447.562 458.688 c 447.062 458.688 
446.676 458.809 446.402 459.051 c 446.133 459.301 446 459.613 446 
459.988 c 446 460.211 446.051 460.414 446.152 460.598 c 446.258 460.781 
446.391 460.93 446.551 461.035 c 446.719 461.152 446.906 461.242 
447.113 461.301 c 447.262 461.34 447.492 461.379 447.801 461.41 c 
448.426 461.488 448.883 461.578 449.176 461.688 c 449.184 461.785 
449.188 461.852 449.188 461.887 c 449.188 462.203 449.113 462.426 
448.965 462.551 c 448.773 462.723 448.48 462.812 448.09 462.812 c 
447.723 462.812 447.449 462.75 447.277 462.625 c 447.109 462.5 446.984 
462.273 446.902 461.949 c 446.137 462.051 l 446.203 462.375 446.316 
462.637 446.477 462.836 c 446.633 463.035 446.863 463.188 447.164 
463.285 c 447.465 463.395 447.809 463.449 448.199 463.449 c 448.594 
463.449 448.91 463.402 449.152 463.312 c 449.391 463.219 449.566 
463.102 449.676 462.961 c 449.793 462.828 449.875 462.656 449.926 
462.449 c 449.949 462.316 449.965 462.074 449.965 461.723 c 449.965 
460.699 l 449.965 459.98 449.98 459.527 450.012 459.336 c 450.047 
459.145 450.113 458.961 450.215 458.785 c 449.402 458.785 l 449.316 
458.945 449.266 459.133 449.25 459.348 c h
449.176 461.074 m 448.902 460.957 448.48 460.863 447.914 460.785 c 
447.598 460.738 447.371 460.684 447.238 460.625 c 447.113 460.574 
447.012 460.492 446.938 460.375 c 446.863 460.266 446.824 460.145 
446.824 460.012 c 446.824 459.805 446.906 459.629 447.062 459.488 c 
447.223 459.352 447.449 459.285 447.75 459.285 c 448.051 459.285 
448.312 459.352 448.539 459.488 c 448.773 459.621 448.945 459.801 
449.062 460.023 c 449.137 460.199 449.176 460.457 449.176 460.801 c h
453.969 458.785 m 453.969 459.363 l 453.684 458.91 453.258 458.688 
452.691 458.688 c 452.332 458.688 452 458.785 451.691 458.988 c 451.383 
459.188 451.145 459.465 450.98 459.824 c 450.812 460.184 450.73 460.594 
450.73 461.062 c 450.73 461.52 450.805 461.934 450.953 462.301 c 
451.113 462.676 451.344 462.957 451.641 463.148 c 451.941 463.348 
452.281 463.449 452.656 463.449 c 452.93 463.449 453.176 463.391 
453.391 463.273 c 453.609 463.156 453.785 463.008 453.918 462.824 c 
453.918 465.086 l 454.691 465.086 l 454.691 458.785 l h
451.531 461.062 m 451.531 460.477 451.648 460.039 451.891 459.75 c 
452.141 459.465 452.434 459.324 452.766 459.324 c 453.109 459.324 
453.395 459.461 453.629 459.738 c 453.863 460.012 453.98 460.434 453.98 
461 c 453.98 461.625 453.859 462.082 453.617 462.375 c 453.383 462.664 
453.086 462.812 452.73 462.812 c 452.387 462.812 452.102 462.668 
451.867 462.387 c 451.641 462.113 451.531 461.668 451.531 461.062 c h
455.758 464.199 m 455.758 465.086 l 456.531 465.086 l 456.531 464.199 l 
h
455.758 458.785 m 455.758 463.348 l 456.531 463.348 l 456.531 458.785 l 
h
457.352 461.074 m 457.352 461.914 457.59 462.539 458.066 462.949 c 
458.457 463.281 458.934 463.449 459.504 463.449 c 460.129 463.449 
460.637 463.246 461.027 462.836 c 461.426 462.43 461.629 461.863 
461.629 461.137 c 461.629 460.543 461.539 460.078 461.363 459.738 c 
461.191 459.402 460.93 459.145 460.59 458.961 c 460.258 458.777 459.895 
458.688 459.504 458.688 c 458.859 458.688 458.34 458.891 457.941 
459.301 c 457.547 459.707 457.352 460.301 457.352 461.074 c h
458.152 461.074 m 458.152 460.48 458.277 460.039 458.527 459.75 c 
458.785 459.465 459.109 459.324 459.504 459.324 c 459.887 459.324 
460.203 459.469 460.453 459.762 c 460.711 460.055 460.84 460.5 460.84 
461.098 c 460.84 461.656 460.711 462.082 460.453 462.375 c 460.195 
462.664 459.879 462.812 459.504 462.812 c 459.109 462.812 458.785 
462.664 458.527 462.375 c 458.277 462.09 458.152 461.656 458.152 
461.074 c h
464.863 458.785 m 464.863 465.086 l 467.66 465.086 l 468.219 465.086 
468.645 465.027 468.938 464.91 c 469.227 464.805 469.461 464.602 
469.637 464.312 c 469.812 464.027 469.898 463.711 469.898 463.363 c 
469.898 462.918 469.754 462.543 469.461 462.238 c 469.18 461.93 468.734 
461.73 468.125 461.648 c 468.348 461.551 468.516 461.445 468.625 
461.336 c 468.875 461.113 469.109 460.832 469.324 460.5 c 470.41 
458.785 l 469.375 458.785 l 468.535 460.098 l 468.297 460.473 468.094 
460.762 467.938 460.961 c 467.777 461.16 467.637 461.305 467.512 
461.387 c 467.387 461.469 467.262 461.523 467.137 461.551 c 467.035 
461.574 466.879 461.586 466.66 461.586 c 465.699 461.586 l 465.699 
458.785 l h
465.699 462.312 m 467.488 462.312 l 467.871 462.312 468.172 462.348 
468.387 462.426 c 468.602 462.5 468.766 462.625 468.875 462.801 c 
468.984 462.973 469.035 463.16 469.035 463.363 c 469.035 463.66 468.93 
463.906 468.711 464.098 c 468.504 464.289 468.164 464.387 467.699 
464.387 c 465.699 464.387 l h
474.031 460.262 m 474.832 460.16 l 474.707 459.695 474.473 459.332 
474.129 459.074 c 473.789 458.816 473.355 458.688 472.832 458.688 c 
472.164 458.688 471.637 458.891 471.242 459.301 c 470.852 459.707 
470.656 460.281 470.656 461.023 c 470.656 461.801 470.852 462.395 
471.242 462.812 c 471.645 463.238 472.156 463.449 472.781 463.449 c 
473.398 463.449 473.898 463.242 474.281 462.824 c 474.664 462.414 
474.855 461.832 474.855 461.074 c 474.855 460.875 l 471.457 460.875 l 
471.48 460.375 471.617 459.992 471.867 459.723 c 472.125 459.457 
472.449 459.324 472.832 459.324 c 473.113 459.324 473.355 459.395 
473.555 459.535 c 473.754 459.688 473.914 459.93 474.031 460.262 c h
471.492 461.512 m 474.043 461.512 l 474.012 461.895 473.914 462.184 
473.754 462.375 c 473.504 462.664 473.184 462.812 472.793 462.812 c 
472.434 462.812 472.137 462.691 471.895 462.449 c 471.652 462.215 
471.52 461.902 471.492 461.512 c h
478.633 460.461 m 479.383 460.363 l 479.309 459.836 479.098 459.426 
478.746 459.125 c 478.406 458.832 477.988 458.688 477.496 458.688 c 
476.871 458.688 476.367 458.891 475.984 459.301 c 475.609 459.707 
475.422 460.289 475.422 461.051 c 475.422 461.539 475.5 461.969 475.66 
462.336 c 475.828 462.711 476.078 462.992 476.41 463.176 c 476.742 
463.355 477.105 463.449 477.496 463.449 c 477.988 463.449 478.395 
463.324 478.711 463.074 c 479.027 462.824 479.23 462.469 479.32 462.012 
c 478.559 461.898 l 478.492 462.199 478.367 462.426 478.184 462.574 c 
478 462.73 477.781 462.812 477.523 462.812 c 477.141 462.812 476.82 
462.668 476.57 462.387 c 476.332 462.113 476.211 461.676 476.211 
461.074 c 476.211 460.457 476.328 460.012 476.559 459.738 c 476.793 
459.461 477.102 459.324 477.484 459.324 c 477.785 459.324 478.035 
459.414 478.234 459.598 c 478.441 459.781 478.578 460.07 478.633 
460.461 c h
483.035 460.262 m 483.836 460.16 l 483.711 459.695 483.477 459.332 
483.133 459.074 c 482.793 458.816 482.359 458.688 481.836 458.688 c 
481.168 458.688 480.641 458.891 480.246 459.301 c 479.855 459.707 
479.66 460.281 479.66 461.023 c 479.66 461.801 479.855 462.395 480.246 
462.812 c 480.648 463.238 481.16 463.449 481.785 463.449 c 482.402 
463.449 482.902 463.242 483.285 462.824 c 483.668 462.414 483.859 
461.832 483.859 461.074 c 483.859 460.875 l 480.461 460.875 l 480.484 
460.375 480.621 459.992 480.871 459.723 c 481.129 459.457 481.453 
459.324 481.836 459.324 c 482.117 459.324 482.359 459.395 482.559 
459.535 c 482.758 459.688 482.918 459.93 483.035 460.262 c h
480.496 461.512 m 483.047 461.512 l 483.016 461.895 482.918 462.184 
482.758 462.375 c 482.508 462.664 482.188 462.812 481.797 462.812 c 
481.438 462.812 481.141 462.691 480.898 462.449 c 480.656 462.215 
480.523 461.902 480.496 461.512 c h
484.664 464.199 m 484.664 465.086 l 485.438 465.086 l 485.438 464.199 l 
h
484.664 458.785 m 484.664 463.348 l 485.438 463.348 l 485.438 458.785 l 
h
487.82 458.785 m 486.082 463.348 l 486.895 463.348 l 487.883 460.613 l 
487.98 460.32 488.078 460.016 488.168 459.699 c 488.238 459.941 488.332 
460.227 488.457 460.562 c 489.469 463.348 l 490.27 463.348 l 488.543 
458.785 l h
490.82 464.199 m 490.82 465.086 l 491.594 465.086 l 491.594 464.199 l h
490.82 458.785 m 490.82 463.348 l 491.594 463.348 l 491.594 458.785 l h
492.703 458.785 m 492.703 463.348 l 493.402 463.348 l 493.402 462.699 l 
493.734 463.199 494.219 463.449 494.852 463.449 c 495.125 463.449 
495.379 463.398 495.613 463.301 c 495.848 463.207 496.02 463.078 
496.125 462.91 c 496.242 462.754 496.328 462.566 496.375 462.348 c 
496.402 462.199 496.414 461.945 496.414 461.586 c 496.414 458.785 l 
495.641 458.785 l 495.641 461.562 l 495.641 461.879 495.609 462.113 
495.551 462.262 c 495.492 462.418 495.383 462.543 495.227 462.637 c 
495.078 462.738 494.898 462.785 494.688 462.785 c 494.363 462.785 
494.082 462.684 493.84 462.473 c 493.598 462.266 493.477 461.867 
493.477 461.273 c 493.477 458.785 l h
497.305 458.41 m 498.055 458.301 l 498.09 458.066 498.176 457.895 
498.316 457.785 c 498.508 457.645 498.773 457.574 499.105 457.574 c 
499.465 457.574 499.738 457.645 499.93 457.785 c 500.129 457.93 500.262 
458.129 500.328 458.387 c 500.371 458.543 500.391 458.879 500.391 
459.387 c 500.051 458.988 499.625 458.785 499.117 458.785 c 498.492 
458.785 498.008 459.012 497.668 459.461 c 497.324 459.918 497.156 
460.465 497.156 461.098 c 497.156 461.531 497.234 461.934 497.391 
462.301 c 497.551 462.664 497.777 462.949 498.066 463.148 c 498.367 
463.348 498.723 463.449 499.129 463.449 c 499.664 463.449 500.105 
463.23 500.453 462.801 c 500.453 463.348 l 501.168 463.348 l 501.168 
459.41 l 501.168 458.695 501.098 458.191 500.953 457.898 c 500.812 
457.598 500.586 457.367 500.266 457.199 c 499.949 457.023 499.562 
456.938 499.105 456.938 c 498.562 456.938 498.125 457.062 497.793 
457.312 c 497.461 457.555 497.297 457.918 497.305 458.41 c h
497.941 461.148 m 497.941 460.551 498.059 460.113 498.293 459.836 c 
498.535 459.562 498.836 459.426 499.191 459.426 c 499.551 459.426 
499.852 459.562 500.094 459.836 c 500.336 460.113 500.453 460.539 
500.453 461.125 c 500.453 461.684 500.328 462.102 500.078 462.387 c 
499.828 462.668 499.531 462.812 499.18 462.812 c 498.84 462.812 498.547 
462.668 498.305 462.387 c 498.062 462.113 497.941 461.699 497.941 
461.148 c h
497.941 461.148 m f
[ 3.2 2.4] 0 d
q 1 0 0 -1 0 576 cm
93.887 22.613 m 256.328 22.613 l S Q
93.887 554.707 m 90.254 553.387 l 93.887 552.062 l h
93.887 554.707 m f*
0 j
[] 0.0 d
q 1 0 0 -1 0 576 cm
93.887 21.293 m 90.254 22.613 l 93.887 23.938 l h
93.887 21.293 m S Q
256.328 552.062 m 259.961 553.387 l 256.328 554.707 l h
256.328 552.062 m f*
q 1 0 0 -1 0 576 cm
256.328 23.938 m 259.961 22.613 l 256.328 21.293 l h
256.328 23.938 m S Q
144.266 564.172 m 144.266 570.473 l 146.441 570.473 l 146.934 570.473 
147.309 570.445 147.566 570.387 c 147.926 570.301 148.234 570.152 
148.492 569.938 c 148.816 569.652 149.062 569.289 149.23 568.848 c 
149.398 568.414 149.48 567.918 149.48 567.359 c 149.48 566.879 149.422 
566.453 149.305 566.086 c 149.195 565.719 149.055 565.414 148.879 
565.172 c 148.703 564.934 148.512 564.738 148.305 564.598 c 148.098 
564.457 147.848 564.348 147.555 564.273 c 147.262 564.207 146.926 
564.172 146.543 564.172 c h
145.105 564.91 m 146.453 564.91 l 146.863 564.91 147.184 564.949 
147.418 565.023 c 147.66 565.105 147.852 565.219 147.992 565.359 c 
148.191 565.562 148.348 565.828 148.453 566.16 c 148.562 566.496 
148.617 566.898 148.617 567.375 c 148.617 568.031 148.508 568.535 
148.293 568.887 c 148.074 569.246 147.812 569.48 147.504 569.598 c 
147.281 569.684 146.922 569.723 146.43 569.723 c 145.105 569.723 l h
153.324 564.172 m 153.324 564.848 l 152.965 564.332 152.48 564.074 
151.875 564.074 c 151.605 564.074 151.352 564.125 151.113 564.223 c 
150.879 564.332 150.703 564.461 150.586 564.609 c 150.477 564.77 
150.402 564.961 150.363 565.188 c 150.328 565.336 150.312 565.578 
150.312 565.91 c 150.312 568.734 l 151.086 568.734 l 151.086 566.211 l 
151.086 565.801 151.102 565.527 151.137 565.387 c 151.188 565.188 
151.285 565.027 151.438 564.91 c 151.594 564.793 151.789 564.734 
152.023 564.734 c 152.258 564.734 152.473 564.793 152.676 564.91 c 
152.883 565.035 153.027 565.199 153.113 565.398 c 153.195 565.605 
153.238 565.902 153.238 566.285 c 153.238 568.734 l 154.012 568.734 l 
154.012 564.172 l h
156.766 564.859 m 156.863 564.188 l 156.648 564.137 156.457 564.109 
156.289 564.109 c 156.008 564.109 155.785 564.156 155.629 564.25 c 
155.477 564.34 155.371 564.457 155.301 564.598 c 155.246 564.738 
155.215 565.043 155.215 565.512 c 155.215 568.137 l 154.641 568.137 l 
154.641 568.734 l 155.215 568.734 l 155.215 569.859 l 155.977 570.336 l 
155.977 568.734 l 156.766 568.734 l 156.766 568.137 l 155.977 568.137 l 
155.977 565.461 l 155.977 565.246 155.988 565.102 156.016 565.035 c 
156.047 564.977 156.094 564.926 156.152 564.887 c 156.219 564.852 
156.309 564.836 156.414 564.836 c 156.508 564.836 156.625 564.844 
156.766 564.859 c h
157.41 562.41 m 157.32 563.137 l 157.488 563.094 157.633 563.074 
157.758 563.074 c 157.934 563.074 158.07 563.102 158.172 563.16 c 
158.281 563.219 158.363 563.297 158.422 563.398 c 158.473 563.473 
158.551 563.664 158.66 563.973 c 158.734 564.16 l 156.996 568.734 l 
157.832 568.734 l 158.785 566.098 l 158.91 565.758 159.016 565.402 
159.109 565.035 c 159.199 565.395 159.309 565.738 159.434 566.074 c 
160.41 568.734 l 161.184 568.734 l 159.445 564.098 l 159.262 563.598 
159.117 563.254 159.008 563.062 c 158.875 562.801 158.719 562.613 
158.535 562.5 c 158.359 562.383 158.148 562.324 157.91 562.324 c 
157.758 562.324 157.594 562.352 157.41 562.41 c h
168.664 566.387 m 169.504 566.172 l 169.328 565.488 169.012 564.965 
168.551 564.598 c 168.102 564.238 167.547 564.062 166.891 564.062 c 
166.207 564.062 165.652 564.199 165.227 564.473 c 164.801 564.758 
164.477 565.16 164.254 565.688 c 164.035 566.211 163.926 566.773 
163.926 567.375 c 163.926 568.023 164.051 568.594 164.301 569.086 c 
164.551 569.578 164.906 569.949 165.363 570.199 c 165.832 570.457 
166.344 570.586 166.902 570.586 c 167.535 570.586 168.066 570.422 
168.488 570.098 c 168.922 569.781 169.223 569.332 169.391 568.75 c 
168.566 568.547 l 168.422 569.008 168.211 569.34 167.926 569.547 c 
167.652 569.758 167.305 569.859 166.891 569.859 c 166.398 569.859 
165.988 569.746 165.664 569.512 c 165.34 569.285 165.109 568.977 
164.977 568.586 c 164.852 568.195 164.789 567.789 164.789 567.375 c 
164.789 566.84 164.863 566.375 165.016 565.973 c 165.172 565.574 
165.414 565.273 165.738 565.074 c 166.074 564.875 166.43 564.773 
166.816 564.773 c 167.281 564.773 167.676 564.906 168.004 565.172 c 
168.328 565.449 168.547 565.852 168.664 566.387 c h
170.195 562.41 m 170.109 563.137 l 170.273 563.094 170.422 563.074 
170.547 563.074 c 170.723 563.074 170.859 563.102 170.957 563.16 c 
171.066 563.219 171.148 563.297 171.207 563.398 c 171.258 563.473 
171.336 563.664 171.445 563.973 c 171.52 564.16 l 169.785 568.734 l 
170.621 568.734 l 171.57 566.098 l 171.695 565.758 171.805 565.402 
171.895 565.035 c 171.988 565.395 172.098 565.738 172.223 566.074 c 
173.195 568.734 l 173.973 568.734 l 172.234 564.098 l 172.051 563.598 
171.906 563.254 171.797 563.062 c 171.664 562.801 171.504 562.613 
171.32 562.5 c 171.145 562.383 170.938 562.324 170.695 562.324 c 
170.547 562.324 170.379 562.352 170.195 562.41 c h
177.473 565.848 m 178.223 565.75 l 178.145 565.223 177.934 564.812 
177.582 564.512 c 177.242 564.219 176.824 564.074 176.332 564.074 c 
175.707 564.074 175.203 564.277 174.82 564.688 c 174.445 565.094 
174.258 565.676 174.258 566.438 c 174.258 566.926 174.336 567.355 
174.496 567.723 c 174.664 568.098 174.914 568.379 175.246 568.562 c 
175.578 568.746 175.941 568.836 176.332 568.836 c 176.824 568.836 
177.23 568.711 177.547 568.461 c 177.863 568.211 178.066 567.855 178.16 
567.398 c 177.395 567.285 l 177.328 567.586 177.203 567.812 177.02 
567.961 c 176.836 568.121 176.617 568.199 176.359 568.199 c 175.977 
568.199 175.66 568.059 175.41 567.773 c 175.168 567.5 175.047 567.062 
175.047 566.461 c 175.047 565.844 175.164 565.398 175.395 565.125 c 
175.629 564.848 175.938 564.711 176.32 564.711 c 176.621 564.711 
176.871 564.801 177.07 564.984 c 177.281 565.168 177.414 565.457 
177.473 565.848 c h
178.734 564.172 m 178.734 570.473 l 179.508 570.473 l 179.508 564.172 l 
h
183.766 565.648 m 184.566 565.547 l 184.441 565.082 184.207 564.719 
183.863 564.461 c 183.523 564.203 183.09 564.074 182.566 564.074 c 
181.898 564.074 181.371 564.277 180.977 564.688 c 180.586 565.094 
180.391 565.668 180.391 566.41 c 180.391 567.188 180.586 567.781 
180.977 568.199 c 181.379 568.625 181.891 568.836 182.516 568.836 c 
183.133 568.836 183.633 568.629 184.016 568.211 c 184.398 567.801 
184.59 567.219 184.59 566.461 c 184.59 566.262 l 181.191 566.262 l 
181.215 565.762 181.352 565.379 181.602 565.109 c 181.859 564.844 
182.184 564.711 182.566 564.711 c 182.848 564.711 183.09 564.781 
183.289 564.922 c 183.488 565.074 183.648 565.316 183.766 565.648 c h
181.227 566.898 m 183.777 566.898 l 183.746 567.281 183.648 567.57 
183.488 567.762 c 183.238 568.051 182.918 568.199 182.527 568.199 c 
182.168 568.199 181.871 568.078 181.629 567.836 c 181.387 567.602 
181.254 567.289 181.227 566.898 c h
187.852 564.172 m 187.852 570.473 l 190.227 570.473 l 190.648 570.473 
190.973 570.453 191.188 570.41 c 191.496 570.359 191.754 570.262 
191.961 570.109 c 192.172 569.969 192.336 569.77 192.461 569.512 c 
192.598 569.254 192.664 568.965 192.664 568.648 c 192.664 568.113 
192.492 567.66 192.148 567.285 c 191.809 566.918 191.191 566.734 
190.301 566.734 c 188.688 566.734 l 188.688 564.172 l h
188.688 567.473 m 190.312 567.473 l 190.855 567.473 191.238 567.574 
191.461 567.773 c 191.688 567.973 191.801 568.258 191.801 568.625 c 
191.801 568.891 191.734 569.113 191.602 569.297 c 191.465 569.488 
191.293 569.613 191.074 569.672 c 190.934 569.707 190.676 569.723 
190.301 569.723 c 188.688 569.723 l h
196.562 565.648 m 197.359 565.547 l 197.234 565.082 197.004 564.719 
196.66 564.461 c 196.32 564.203 195.887 564.074 195.359 564.074 c 
194.695 564.074 194.164 564.277 193.773 564.688 c 193.383 565.094 
193.188 565.668 193.188 566.41 c 193.188 567.188 193.383 567.781 
193.773 568.199 c 194.172 568.625 194.688 568.836 195.312 568.836 c 
195.926 568.836 196.426 568.629 196.812 568.211 c 197.195 567.801 
197.387 567.219 197.387 566.461 c 197.387 566.262 l 193.984 566.262 l 
194.012 565.762 194.148 565.379 194.398 565.109 c 194.656 564.844 
194.977 564.711 195.359 564.711 c 195.645 564.711 195.887 564.781 
196.086 564.922 c 196.285 565.074 196.445 565.316 196.562 565.648 c h
194.023 566.898 m 196.574 566.898 l 196.539 567.281 196.445 567.57 
196.285 567.762 c 196.035 568.051 195.715 568.199 195.324 568.199 c 
194.965 568.199 194.664 568.078 194.422 567.836 c 194.184 567.602 
194.047 567.289 194.023 566.898 c h
198.176 564.172 m 198.176 568.734 l 198.863 568.734 l 198.863 568.047 l 
199.047 568.375 199.215 568.586 199.363 568.688 c 199.516 568.785 
199.676 568.836 199.852 568.836 c 200.117 568.836 200.387 568.754 
200.652 568.586 c 200.391 567.875 l 200.199 567.98 200.008 568.035 
199.816 568.035 c 199.648 568.035 199.496 567.984 199.363 567.887 c 
199.23 567.785 199.137 567.645 199.078 567.461 c 198.992 567.188 
198.953 566.887 198.953 566.562 c 198.953 564.172 l h
201.027 569.586 m 201.027 570.473 l 201.805 570.473 l 201.805 569.586 l 
h
201.027 564.172 m 201.027 568.734 l 201.805 568.734 l 201.805 564.172 l 
h
202.621 566.461 m 202.621 567.301 202.859 567.926 203.336 568.336 c 
203.727 568.668 204.207 568.836 204.773 568.836 c 205.398 568.836 
205.906 568.633 206.297 568.223 c 206.699 567.816 206.898 567.25 
206.898 566.523 c 206.898 565.934 206.809 565.465 206.637 565.125 c 
206.461 564.789 206.203 564.531 205.859 564.348 c 205.527 564.164 
205.164 564.074 204.773 564.074 c 204.133 564.074 203.609 564.277 
203.211 564.688 c 202.82 565.094 202.621 565.688 202.621 566.461 c h
203.422 566.461 m 203.422 565.871 203.547 565.426 203.797 565.137 c 
204.055 564.852 204.383 564.711 204.773 564.711 c 205.156 564.711 
205.473 564.855 205.723 565.148 c 205.98 565.441 206.109 565.887 
206.109 566.484 c 206.109 567.043 205.98 567.469 205.723 567.762 c 
205.465 568.051 205.148 568.199 204.773 568.199 c 204.383 568.199 
204.055 568.051 203.797 567.762 c 203.547 567.477 203.422 567.043 
203.422 566.461 c h
210.613 564.172 m 210.613 564.75 l 210.332 564.297 209.906 564.074 
209.34 564.074 c 208.98 564.074 208.648 564.172 208.34 564.375 c 
208.031 564.574 207.793 564.852 207.625 565.211 c 207.461 565.57 
207.375 565.98 207.375 566.449 c 207.375 566.906 207.453 567.32 207.602 
567.688 c 207.758 568.062 207.988 568.344 208.289 568.535 c 208.59 
568.734 208.926 568.836 209.301 568.836 c 209.578 568.836 209.82 
568.777 210.039 568.66 c 210.254 568.543 210.43 568.395 210.562 568.211 
c 210.562 570.473 l 211.34 570.473 l 211.34 564.172 l h
208.176 566.449 m 208.176 565.863 208.297 565.426 208.539 565.137 c 
208.789 564.852 209.082 564.711 209.414 564.711 c 209.754 564.711 
210.043 564.848 210.277 565.125 c 210.508 565.398 210.625 565.82 
210.625 566.387 c 210.625 567.012 210.504 567.469 210.266 567.762 c 
210.031 568.051 209.734 568.199 209.375 568.199 c 209.035 568.199 
208.746 568.059 208.516 567.773 c 208.289 567.5 208.176 567.059 208.176 
566.449 c h
208.176 566.449 m f
0.835294 0.65098 0.741176 rg
48.352 563.168 m 48.352 563.168 l 48.352 568.566 52.785 572.945 58.254 
572.945 c 60.883 572.945 63.398 571.914 65.258 570.082 c 67.113 568.246 
68.156 565.762 68.156 563.168 c 68.156 557.77 63.723 553.391 58.254 
553.391 c 52.785 553.391 48.352 557.77 48.352 563.168 c h
48.352 563.168 m f
0 g
1.6 w
1 j
q 1 0 0 -1 0 576 cm
48.352 12.832 m 48.352 7.434 52.785 3.055 58.254 3.055 c 60.883 3.055 
63.398 4.086 65.258 5.918 c 67.113 7.754 68.156 10.238 68.156 12.832 c 
68.156 18.23 63.723 22.609 58.254 22.609 c 52.785 22.609 48.352 18.23 
48.352 12.832 c h
48.352 12.832 m S Q
59.16 559.551 m 58.324 559.551 l 58.324 564.926 l 58.113 564.734 57.844 
564.539 57.512 564.34 c 57.188 564.148 56.895 564.008 56.637 563.914 c 
56.637 564.727 l 57.102 564.953 57.512 565.219 57.859 565.527 c 58.219 
565.844 58.473 566.152 58.625 566.453 c 59.16 566.453 l h
59.16 559.551 m f
0.835294 0.65098 0.741176 rg
191.25 495.254 m 191.25 495.254 l 191.25 500.652 195.684 505.031 
201.152 505.031 c 203.777 505.031 206.297 504 208.152 502.168 c 210.008 
500.336 211.055 497.848 211.055 495.254 c 211.055 489.855 206.621 
485.477 201.152 485.477 c 195.684 485.477 191.25 489.855 191.25 495.254 
c h
191.25 495.254 m f
0 g
q 1 0 0 -1 0 576 cm
191.25 80.746 m 191.25 75.348 195.684 70.969 201.152 70.969 c 203.777 
70.969 206.297 72 208.152 73.832 c 210.008 75.664 211.055 78.152 
211.055 80.746 c 211.055 86.145 206.621 90.523 201.152 90.523 c 195.684 
90.523 191.25 86.145 191.25 80.746 c h
191.25 80.746 m S Q
203.32 492.449 m 203.32 491.637 l 198.77 491.637 l 198.77 491.84 
198.801 492.035 198.867 492.227 c 198.984 492.535 199.168 492.84 
199.418 493.137 c 199.676 493.438 200.047 493.785 200.531 494.176 c 
201.281 494.793 201.785 495.281 202.043 495.637 c 202.309 495.996 
202.445 496.336 202.445 496.652 c 202.445 496.984 202.324 497.262 
202.082 497.488 c 201.84 497.723 201.527 497.84 201.145 497.84 c 
200.734 497.84 200.41 497.719 200.168 497.477 c 199.926 497.234 199.801 
496.898 199.793 496.465 c 198.93 496.551 l 198.988 497.199 199.211 
497.691 199.594 498.027 c 199.984 498.367 200.512 498.539 201.168 
498.539 c 201.828 498.539 202.348 498.355 202.73 497.988 c 203.113 
497.621 203.305 497.168 203.305 496.625 c 203.305 496.352 203.246 
496.082 203.133 495.812 c 203.023 495.555 202.836 495.277 202.57 
494.977 c 202.309 494.684 201.883 494.285 201.281 493.777 c 200.773 
493.352 200.445 493.059 200.293 492.902 c 200.152 492.75 200.035 
492.602 199.945 492.449 c h
203.32 492.449 m f
0.835294 0.65098 0.741176 rg
469.422 495.254 m 469.422 495.254 l 469.422 500.652 473.855 505.031 
479.324 505.031 c 481.953 505.031 484.473 504 486.328 502.168 c 488.184 
500.336 489.227 497.848 489.227 495.254 c 489.227 489.855 484.793 
485.477 479.324 485.477 c 473.855 485.477 469.422 489.855 469.422 
495.254 c h
469.422 495.254 m f
0 g
q 1 0 0 -1 0 576 cm
469.422 80.746 m 469.422 75.348 473.855 70.969 479.324 70.969 c 481.953 
70.969 484.473 72 486.328 73.832 c 488.184 75.664 489.227 78.152 
489.227 80.746 c 489.227 86.145 484.793 90.523 479.324 90.523 c 473.855 
90.523 469.422 86.145 469.422 80.746 c h
469.422 80.746 m S Q
477.055 493.449 m 477.906 493.562 l 478 493.09 478.16 492.742 478.395 
492.527 c 478.629 492.316 478.91 492.215 479.242 492.215 c 479.645 
492.215 479.98 492.352 480.258 492.625 c 480.531 492.902 480.668 
493.242 480.668 493.652 c 480.668 494.035 480.539 494.352 480.281 
494.602 c 480.031 494.859 479.711 494.988 479.32 494.988 c 479.16 
494.988 478.961 494.957 478.719 494.887 c 478.82 495.637 l 478.879 
495.629 478.922 495.625 478.957 495.625 c 479.316 495.625 479.637 
495.719 479.918 495.902 c 480.211 496.094 480.355 496.383 480.355 
496.777 c 480.355 497.086 480.254 497.34 480.043 497.539 c 479.836 
497.746 479.566 497.852 479.23 497.852 c 478.906 497.852 478.633 
497.746 478.406 497.539 c 478.191 497.332 478.051 497.023 477.992 
496.613 c 477.145 496.762 l 477.242 497.32 477.477 497.754 477.844 
498.062 c 478.211 498.379 478.664 498.539 479.207 498.539 c 479.582 
498.539 479.926 498.457 480.242 498.289 c 480.562 498.129 480.801 
497.914 480.969 497.637 c 481.137 497.363 481.219 497.066 481.219 
496.75 c 481.219 496.461 481.141 496.188 480.98 495.938 c 480.824 
495.695 480.59 495.504 480.281 495.363 c 480.68 495.273 480.992 495.074 
481.219 494.777 c 481.445 494.484 481.555 494.113 481.555 493.664 c 
481.555 493.062 481.336 492.555 480.895 492.137 c 480.461 491.723 
479.91 491.512 479.242 491.512 c 478.645 491.512 478.145 491.691 
477.742 492.051 c 477.344 492.418 477.113 492.883 477.055 493.449 c h
477.055 493.449 m f
  Q
Q
Q Q
showpage
%%Trailer
count op_count sub {pop} repeat
countdictstack dict_count sub {end} repeat
cairo_eps_state restore
%%EOF
