digraph {
	node [ shape="box" ]

	RadioStart [ label="Power radio 192us", bgcolor="grey", style="filled"]
	IdleSleep1 [ label="Sleep" peripheries=2 ]
	IdleSleep3 [ label="Sleep" peripheries=2 ]
	GetPacket [ label="Receive Packet" peripheries=2 ]

	Wake [ label="Wake" style="rounded" ]
	MaxIsTen [ label="(Max++) > 9?" shape="diamond" ]
	CSIsBusy [ label="CCA 3" shape="diamond" ]
	SilIsFive [ label="(Sil++) > 4?" shape="diamond" ]
	IsPacket [ label="Packet Data?" shape="diamond" ]
	Wait1 [label="Wait 500us", bgcolor="grey", style="filled"]
	Wait2 [label="Wait 620us", bgcolor="grey", style="filled"]

	CCA1 [ label="CCA 1" shape="diamond" ]
	CCA2 [ label="CCA 2" shape="diamond" ]

	subgraph phase1 {
		color=lightgrey
		style=filled
		label="Phase One (~300uS)"

		Wake -> RadioStart -> CCA1
		CCA1 -> Wait1 -> CCA2 [ label="idle" ]
		CCA2 -> IdleSleep1 [ label="idle" ]
	}


	subgraph phase2 {
		color=lightgrey
		style=filled
		label="Phase Two (~620uS)"

		CCA2 -> "Max = 0; Sil = 0" [ label="busy" ]
		CCA1 -> "Max = 0; Sil = 0" [ label="busy" ]

		"Max = 0; Sil = 0" -> MaxIsTen

		MaxIsTen -> IdleSleep1 [ label="yes" ]
		MaxIsTen -> CSIsBusy [ label="no" ]

//		CSIsBusy -> "Sil = Sil + 1" [ label="no" ]
		CSIsBusy -> SilIsFive [ label="no" ]
		CSIsBusy -> IsPacket [ label="yes" ]

		IsPacket -> GetPacket [ label="yes" ]
		IsPacket -> "Sil = 0" [ label="no" ]
		
		"Sil = 0" -> Wait2
//		"Sil = Sil + 1" -> SilIsFive
		Wait2 -> MaxIsTen
		SilIsFive -> Wait2 [ label="no" ]
		SilIsFive -> IdleSleep3 [ label="yes" ]
	}

}
