%!PS-Adobe-3.0 EPSF-3.0
%%Creator: cairo 1.14.6 (http://cairographics.org)
%%CreationDate: Sun Sep 25 14:35:37 2016
%%Pages: 1
%%DocumentData: Clean7Bit
%%LanguageLevel: 2
%%BoundingBox: 0 -1 503 156
%%EndComments
%%BeginProlog
save
50 dict begin
/q { gsave } bind def
/Q { grestore } bind def
/cm { 6 array astore concat } bind def
/w { setlinewidth } bind def
/J { setlinecap } bind def
/j { setlinejoin } bind def
/M { setmiterlimit } bind def
/d { setdash } bind def
/m { moveto } bind def
/l { lineto } bind def
/c { curveto } bind def
/h { closepath } bind def
/re { exch dup neg 3 1 roll 5 3 roll moveto 0 rlineto
      0 exch rlineto 0 rlineto closepath } bind def
/S { stroke } bind def
/f { fill } bind def
/f* { eofill } bind def
/n { newpath } bind def
/W { clip } bind def
/W* { eoclip } bind def
/BT { } bind def
/ET { } bind def
/pdfmark where { pop globaldict /?pdfmark /exec load put }
    { globaldict begin /?pdfmark /pop load def /pdfmark
    /cleartomark load def end } ifelse
/BDC { mark 3 1 roll /BDC pdfmark } bind def
/EMC { mark /EMC pdfmark } bind def
/cairo_store_point { /cairo_point_y exch def /cairo_point_x exch def } def
/Tj { show currentpoint cairo_store_point } bind def
/TJ {
  {
    dup
    type /stringtype eq
    { show } { -0.001 mul 0 cairo_font_matrix dtransform rmoveto } ifelse
  } forall
  currentpoint cairo_store_point
} bind def
/cairo_selectfont { cairo_font_matrix aload pop pop pop 0 0 6 array astore
    cairo_font exch selectfont cairo_point_x cairo_point_y moveto } bind def
/Tf { pop /cairo_font exch def /cairo_font_matrix where
      { pop cairo_selectfont } if } bind def
/Td { matrix translate cairo_font_matrix matrix concatmatrix dup
      /cairo_font_matrix exch def dup 4 get exch 5 get cairo_store_point
      /cairo_font where { pop cairo_selectfont } if } bind def
/Tm { 2 copy 8 2 roll 6 array astore /cairo_font_matrix exch def
      cairo_store_point /cairo_font where { pop cairo_selectfont } if } bind def
/g { setgray } bind def
/rg { setrgbcolor } bind def
/d1 { setcachedevice } bind def
%%EndProlog
%%BeginSetup
%%EndSetup
%%Page: 1 1
%%BeginPageSetup
%%PageBoundingBox: 0 -1 503 156
%%EndPageSetup
q 0 -1 503 157 rectclip q
Q q
0 155.152 502.004 -155.152 re W n
q
0 155.152 503 -156 re W n
[ 1 0 0 1 0 -0.848297 ] concat
  q
1 g
143.551 140.051 120.113 -29.531 re f
0 g
0.8 w
0 J
1 j
[] 0.0 d
10 M q 1 0 0 -1 0 156 cm
143.551 15.949 120.113 29.531 re S Q
q 1 0 0 -1 0 156 cm
77.91 45.48 m 490.688 45.48 l S Q
q 1 0 0 -1 0 156 cm
113.555 22.258 m 113.555 43.227 l S Q
113.555 112.773 m 112.652 113.676 l 113.555 111.203 l 114.453 113.676 l
 h
113.555 112.773 m f*
0 j
q 1 0 0 -1 0 156 cm
113.555 43.227 m 112.652 42.324 l 113.555 44.797 l 114.453 42.324 l h
113.555 43.227 m S Q
1 j
q 1 0 0 -1 0 156 cm
134.609 22.258 m 134.609 43.227 l S Q
134.609 112.773 m 133.711 113.676 l 134.609 111.203 l 135.508 113.676 l
 h
134.609 112.773 m f*
0 j
q 1 0 0 -1 0 156 cm
134.609 43.227 m 133.711 42.324 l 134.609 44.797 l 135.508 42.324 l h
134.609 43.227 m S Q
304.781 53.871 m 304.781 59.934 l 302.52 59.934 l 302.52 60.746 l 307.969
 60.746 l 307.969 59.934 l 305.695 59.934 l 305.695 53.871 l h
308.234 53.871 m 310.047 56.457 l 308.371 58.844 l 309.422 58.844 l 310.184
 57.684 l 310.324 57.457 310.441 57.27 310.531 57.121 c 310.668 57.328 310.793
 57.512 310.906 57.672 c 311.746 58.844 l 312.758 58.844 l 311.031 56.508
 l 312.883 53.871 l 311.859 53.871 l 310.832 55.422 l 310.559 55.832 l 309.246
 53.871 l h
308.234 53.871 m f
290.5 42.672 m 290.5 49.547 l 293.547 49.547 l 294.164 49.547 294.633 49.484
 294.949 49.359 c 295.266 49.234 295.52 49.012 295.711 48.695 c 295.902 
48.387 296 48.047 296 47.672 c 296 47.18 295.84 46.766 295.523 46.434 c 
295.207 46.102 294.719 45.887 294.062 45.797 c 294.301 45.68 294.484 45.566
 294.609 45.457 c 294.879 45.215 295.129 44.914 295.359 44.547 c 296.562
 42.672 l 295.41 42.672 l 294.512 44.094 l 294.242 44.512 294.023 44.828
 293.848 45.047 c 293.68 45.262 293.527 45.414 293.387 45.496 c 293.254 
45.586 293.113 45.652 292.973 45.695 c 292.875 45.711 292.707 45.719 292.473
 45.719 c 291.41 45.719 l 291.41 42.672 l h
291.41 46.508 m 293.375 46.508 l 293.781 46.508 294.102 46.551 294.336 
46.633 c 294.578 46.727 294.758 46.863 294.875 47.047 c 295 47.238 295.062
 47.445 295.062 47.672 c 295.062 47.996 294.941 48.262 294.699 48.469 c 
294.465 48.68 294.094 48.781 293.586 48.781 c 291.41 48.781 l h
300.719 44.27 m 301.594 44.172 l 301.461 43.664 301.207 43.266 300.832 
42.984 c 300.457 42.699 299.98 42.559 299.406 42.559 c 298.68 42.559 298.102
 42.781 297.668 43.234 c 297.242 43.684 297.031 44.312 297.031 45.121 c 
297.031 45.953 297.246 46.602 297.68 47.059 c 298.113 47.523 298.672 47.758
 299.355 47.758 c 300.023 47.758 300.562 47.531 300.98 47.082 c 301.406 
46.633 301.617 45.996 301.617 45.172 c 301.617 44.945 l 297.906 44.945 l
 297.938 44.395 298.094 43.977 298.367 43.684 c 298.645 43.398 298.988 43.258
 299.406 43.258 c 299.715 43.258 299.977 43.336 300.195 43.496 c 300.418
 43.664 300.594 43.922 300.719 44.27 c h
297.957 45.633 m 300.73 45.633 l 300.699 46.059 300.594 46.375 300.418 
46.582 c 300.145 46.906 299.793 47.07 299.367 47.07 c 298.977 47.07 298.648
 46.941 298.383 46.684 c 298.121 46.426 297.98 46.074 297.957 45.633 c h
305.832 40.758 m 305.832 43.195 l 305.699 43.012 305.512 42.859 305.27 
42.734 c 305.035 42.617 304.785 42.559 304.52 42.559 c 303.93 42.559 303.422
 42.793 302.996 43.258 c 302.57 43.734 302.359 44.383 302.359 45.207 c 302.359
 45.707 302.445 46.152 302.621 46.547 c 302.797 46.945 303.047 47.246 303.371
 47.445 c 303.703 47.652 304.066 47.758 304.457 47.758 c 305.074 47.758 
305.559 47.5 305.906 46.984 c 305.906 47.645 l 306.672 47.645 l 306.672 
40.758 l h
303.219 45.172 m 303.219 44.527 303.352 44.051 303.621 43.734 c 303.895
 43.418 304.219 43.258 304.594 43.258 c 304.953 43.258 305.262 43.406 305.52
 43.707 c 305.777 44.016 305.906 44.48 305.906 45.094 c 305.906 45.762 305.77
 46.262 305.496 46.594 c 305.227 46.93 304.906 47.094 304.531 47.094 c 304.176
 47.094 303.867 46.938 303.609 46.621 c 303.348 46.312 303.219 45.828 303.219
 45.172 c h
311.258 42.672 m 311.258 43.406 l 310.867 42.84 310.34 42.559 309.672 42.559
 c 309.379 42.559 309.105 42.613 308.848 42.719 c 308.598 42.836 308.41 
42.98 308.285 43.145 c 308.16 43.32 308.07 43.531 308.023 43.781 c 307.988
 43.941 307.973 44.203 307.973 44.57 c 307.973 47.645 l 308.82 47.645 l 
308.82 44.883 l 308.82 44.449 308.84 44.152 308.871 43.996 c 308.922 43.777
 309.031 43.605 309.195 43.469 c 309.371 43.344 309.59 43.281 309.848 43.281
 c 310.098 43.281 310.328 43.344 310.547 43.469 c 310.773 43.605 310.93 
43.781 311.023 44.008 c 311.121 44.234 311.172 44.559 311.172 44.984 c 311.172
 47.645 l 312.008 47.645 l 312.008 42.672 l h
316.734 44.27 m 317.609 44.172 l 317.477 43.664 317.223 43.266 316.848 
42.984 c 316.473 42.699 316 42.559 315.422 42.559 c 314.699 42.559 314.117
 42.781 313.688 43.234 c 313.262 43.684 313.047 44.312 313.047 45.121 c 
313.047 45.953 313.266 46.602 313.699 47.059 c 314.133 47.523 314.691 47.758
 315.375 47.758 c 316.039 47.758 316.582 47.531 317 47.082 c 317.422 46.633
 317.637 45.996 317.637 45.172 c 317.637 44.945 l 313.922 44.945 l 313.957
 44.395 314.109 43.977 314.387 43.684 c 314.66 43.398 315.008 43.258 315.422
 43.258 c 315.73 43.258 315.992 43.336 316.211 43.496 c 316.438 43.664 316.609
 43.922 316.734 44.27 c h
313.973 45.633 m 316.75 45.633 l 316.715 46.059 316.609 46.375 316.438 
46.582 c 316.16 46.906 315.812 47.07 315.387 47.07 c 314.992 47.07 314.664
 46.941 314.398 46.684 c 314.141 46.426 314 46.074 313.973 45.633 c h
318.336 44.156 m 319.164 44.281 l 319.211 43.949 319.34 43.695 319.551 
43.52 c 319.766 43.344 320.07 43.258 320.461 43.258 c 320.844 43.258 321.129
 43.332 321.312 43.484 c 321.504 43.641 321.602 43.828 321.602 44.047 c 
321.602 44.238 321.516 44.387 321.352 44.496 c 321.234 44.57 320.945 44.668
 320.488 44.781 c 319.871 44.941 319.441 45.074 319.199 45.184 c 318.965
 45.301 318.789 45.457 318.664 45.656 c 318.539 45.859 318.477 46.082 318.477
 46.332 c 318.477 46.551 318.523 46.754 318.625 46.945 c 318.727 47.137 
318.863 47.297 319.039 47.422 c 319.172 47.512 319.352 47.59 319.574 47.656
 c 319.801 47.727 320.047 47.758 320.312 47.758 c 320.695 47.758 321.031
 47.699 321.324 47.582 c 321.625 47.477 321.844 47.324 321.988 47.133 c 
322.129 46.941 322.227 46.688 322.273 46.371 c 321.449 46.258 l 321.418 
46.508 321.309 46.703 321.125 46.844 c 320.949 46.996 320.695 47.07 320.363
 47.07 c 319.98 47.07 319.703 47.004 319.539 46.871 c 319.371 46.746 319.289
 46.594 319.289 46.422 c 319.289 46.312 319.32 46.215 319.387 46.133 c 319.461
 46.043 319.57 45.965 319.711 45.906 c 319.797 45.875 320.047 45.805 320.461
 45.695 c 321.062 45.527 321.48 45.395 321.711 45.297 c 321.945 45.195 322.129
 45.051 322.262 44.859 c 322.395 44.668 322.461 44.426 322.461 44.133 c 
322.461 43.852 322.379 43.582 322.211 43.332 c 322.055 43.09 321.82 42.898
 321.512 42.758 c 321.203 42.625 320.855 42.559 320.461 42.559 c 319.812
 42.559 319.316 42.691 318.977 42.957 c 318.641 43.234 318.43 43.633 318.336
 44.156 c h
325.312 43.422 m 325.438 42.684 l 325.195 42.633 324.984 42.609 324.801
 42.609 c 324.492 42.609 324.254 42.652 324.086 42.746 c 323.922 42.844 
323.801 42.977 323.727 43.133 c 323.656 43.293 323.625 43.625 323.625 44.133
 c 323.625 46.996 l 323.012 46.996 l 323.012 47.645 l 323.625 47.645 l 323.625
 48.883 l 324.461 49.383 l 324.461 47.645 l 325.312 47.645 l 325.312 46.996
 l 324.461 46.996 l 324.461 44.082 l 324.461 43.84 324.477 43.688 324.5 
43.621 c 324.531 43.555 324.582 43.5 324.648 43.457 c 324.715 43.418 324.812
 43.395 324.938 43.395 c 325.039 43.395 325.164 43.402 325.312 43.422 c 
h
325.312 43.422 m f
1 j
q 1 0 0 -1 0 156 cm
307.625 118.98 m 307.625 141.234 l S Q
307.625 14.766 m 306.723 15.664 l 307.625 13.191 l 308.523 15.664 l h
307.625 14.766 m f*
0 j
q 1 0 0 -1 0 156 cm
307.625 141.234 m 306.723 140.336 l 307.625 142.809 l 308.523 140.336 l
 h
307.625 141.234 m S Q
1 j
q 1 0 0 -1 0 156 cm
391.797 90.191 m 391.797 110.23 l S Q
391.797 45.77 m 390.898 46.672 l 391.797 44.199 l 392.699 46.672 l h
391.797 45.77 m f*
0 j
q 1 0 0 -1 0 156 cm
391.797 110.23 m 390.898 109.328 l 391.797 111.801 l 392.699 109.328 l 
h
391.797 110.23 m S Q
1 j
q 1 0 0 -1 0 156 cm
447 91.129 m 447 111.168 l S Q
447 44.832 m 446.098 45.734 l 447 43.262 l 447.898 45.734 l h
447 44.832 m f*
0 j
q 1 0 0 -1 0 156 cm
447 111.168 m 446.098 110.266 l 447 112.738 l 447.898 110.266 l h
447 111.168 m S Q
29.699 106.68 m 29.699 114.129 l 33 114.129 l 33.668 114.129 34.172 114.059
 34.512 113.918 c 34.863 113.785 35.141 113.547 35.352 113.207 c 35.559 
112.871 35.664 112.5 35.664 112.094 c 35.664 111.566 35.488 111.121 35.137
 110.754 c 34.797 110.398 34.27 110.168 33.562 110.066 c 33.82 109.941 34.016
 109.816 34.148 109.691 c 34.441 109.434 34.715 109.105 34.977 108.707 c
 36.262 106.68 l 35.023 106.68 l 34.039 108.23 l 33.754 108.68 33.516 109.023
 33.324 109.254 c 33.141 109.488 32.977 109.652 32.824 109.742 c 32.684 
109.844 32.539 109.914 32.387 109.957 c 32.27 109.973 32.086 109.98 31.836
 109.98 c 30.688 109.98 l 30.688 106.68 l h
30.688 110.844 m 32.812 110.844 l 33.262 110.844 33.613 110.891 33.863 
110.98 c 34.121 111.074 34.312 111.219 34.438 111.418 c 34.57 111.625 34.637
 111.852 34.637 112.094 c 34.637 112.441 34.508 112.73 34.25 112.957 c 34
 113.188 33.602 113.305 33.051 113.305 c 30.688 113.305 l h
40.961 108.418 m 41.914 108.305 l 41.762 107.746 41.484 107.312 41.074 
107.004 c 40.676 106.707 40.164 106.555 39.539 106.555 c 38.746 106.555 
38.117 106.797 37.648 107.281 c 37.191 107.773 36.961 108.457 36.961 109.332
 c 36.961 110.238 37.195 110.941 37.664 111.441 c 38.137 111.941 38.746 
112.191 39.488 112.191 c 40.211 112.191 40.801 111.949 41.25 111.457 c 41.707
 110.965 41.938 110.277 41.938 109.395 c 41.938 109.145 l 37.914 109.145
 l 37.945 108.551 38.113 108.098 38.414 107.781 c 38.711 107.465 39.086 
107.305 39.539 107.305 c 39.879 107.305 40.168 107.395 40.398 107.566 c 
40.641 107.75 40.828 108.035 40.961 108.418 c h
37.961 109.895 m 40.977 109.895 l 40.934 110.352 40.816 110.691 40.625 
110.918 c 40.332 111.27 39.957 111.441 39.5 111.441 c 39.074 111.441 38.723
 111.301 38.438 111.02 c 38.152 110.742 37.996 110.367 37.961 109.895 c 
h
46.719 108.656 m 47.617 108.543 l 47.527 107.918 47.277 107.43 46.867 107.082
 c 46.461 106.73 45.965 106.555 45.379 106.555 c 44.637 106.555 44.043 106.797
 43.594 107.281 c 43.152 107.766 42.93 108.457 42.93 109.355 c 42.93 109.938
 43.027 110.449 43.219 110.879 c 43.41 111.324 43.699 111.652 44.094 111.867
 c 44.484 112.086 44.914 112.191 45.379 112.191 c 45.965 112.191 46.441 
112.043 46.816 111.742 c 47.191 111.453 47.43 111.035 47.531 110.492 c 46.641
 110.355 l 46.559 110.715 46.41 110.984 46.191 111.168 c 45.984 111.352 
45.727 111.441 45.418 111.441 c 44.961 111.441 44.586 111.277 44.293 110.941
 c 44.008 110.617 43.867 110.098 43.867 109.379 c 43.867 108.656 44.004 
108.125 44.281 107.793 c 44.555 107.469 44.918 107.305 45.367 107.305 c 
45.727 107.305 46.027 107.414 46.266 107.629 c 46.508 107.855 46.66 108.199
 46.719 108.656 c h
52.223 108.418 m 53.172 108.305 l 53.023 107.746 52.746 107.312 52.336 
107.004 c 51.938 106.707 51.422 106.555 50.797 106.555 c 50.008 106.555 
49.379 106.797 48.91 107.281 c 48.453 107.773 48.223 108.457 48.223 109.332
 c 48.223 110.238 48.457 110.941 48.922 111.441 c 49.398 111.941 50.008 
112.191 50.75 112.191 c 51.473 112.191 52.062 111.949 52.512 111.457 c 52.969
 110.965 53.199 110.277 53.199 109.395 c 53.199 109.145 l 49.172 109.145
 l 49.207 108.551 49.375 108.098 49.672 107.781 c 49.973 107.465 50.348 
107.305 50.797 107.305 c 51.141 107.305 51.43 107.395 51.66 107.566 c 51.902
 107.75 52.09 108.035 52.223 108.418 c h
49.223 109.895 m 52.234 109.895 l 52.195 110.352 52.078 110.691 51.887 
110.918 c 51.594 111.27 51.219 111.441 50.762 111.441 c 50.336 111.441 49.98
 111.301 49.699 111.02 c 49.414 110.742 49.258 110.367 49.223 109.895 c 
h
54.465 113.066 m 54.465 114.129 l 55.379 114.129 l 55.379 113.066 l h
54.465 106.68 m 54.465 112.066 l 55.379 112.066 l 55.379 106.68 l h
58.336 106.68 m 56.285 112.066 l 57.246 112.066 l 58.398 108.844 l 58.523
 108.492 58.641 108.129 58.746 107.754 c 58.832 108.039 58.945 108.379 59.086
 108.781 c 60.285 112.066 l 61.223 112.066 l 59.184 106.68 l h
65.855 108.418 m 66.805 108.305 l 66.652 107.746 66.375 107.312 65.965 
107.004 c 65.566 106.707 65.055 106.555 64.43 106.555 c 63.637 106.555 63.008
 106.797 62.543 107.281 c 62.082 107.773 61.855 108.457 61.855 109.332 c
 61.855 110.238 62.086 110.941 62.555 111.441 c 63.027 111.941 63.637 112.191
 64.379 112.191 c 65.105 112.191 65.691 111.949 66.141 111.457 c 66.602 
110.965 66.828 110.277 66.828 109.395 c 66.828 109.145 l 62.805 109.145 
l 62.836 108.551 63.004 108.098 63.305 107.781 c 63.605 107.465 63.98 107.305
 64.43 107.305 c 64.77 107.305 65.059 107.395 65.293 107.566 c 65.531 107.75
 65.719 108.035 65.855 108.418 c h
62.855 109.895 m 65.867 109.895 l 65.824 110.352 65.707 110.691 65.516 
110.918 c 65.227 111.27 64.852 111.441 64.391 111.441 c 63.965 111.441 63.613
 111.301 63.328 111.02 c 63.047 110.742 62.887 110.367 62.855 109.895 c 
h
68.082 106.68 m 68.082 112.066 l 68.91 112.066 l 68.91 111.254 l 69.117
 111.641 69.309 111.891 69.484 112.004 c 69.668 112.129 69.863 112.191 70.07
 112.191 c 70.379 112.191 70.691 112.098 71.008 111.906 c 70.695 111.055
 l 70.473 111.188 70.25 111.254 70.035 111.254 c 69.832 111.254 69.652 111.191
 69.484 111.066 c 69.324 110.953 69.215 110.785 69.145 110.566 c 69.047 
110.242 68.996 109.891 68.996 109.504 c 68.996 106.68 l h
68.082 106.68 m f
21.457 8.242 m 21.457 14.805 l 19.008 14.805 l 19.008 15.691 l 24.906 15.691
 l 24.906 14.805 l 22.445 14.805 l 22.445 8.242 l h
25.945 8.242 m 25.945 13.629 l 26.77 13.629 l 26.77 12.816 l 26.977 13.203
 27.168 13.453 27.344 13.566 c 27.527 13.691 27.723 13.754 27.934 13.754
 c 28.242 13.754 28.555 13.66 28.871 13.469 c 28.559 12.617 l 28.332 12.75
 28.113 12.816 27.895 12.816 c 27.695 12.816 27.512 12.754 27.344 12.629
 c 27.188 12.516 27.074 12.348 27.008 12.129 c 26.906 11.805 26.855 11.453
 26.855 11.066 c 26.855 8.242 l h
33.02 8.906 m 32.688 8.621 32.363 8.418 32.047 8.293 c 31.738 8.176 31.402
 8.117 31.047 8.117 c 30.445 8.117 29.988 8.266 29.672 8.555 c 29.355 8.848
 29.195 9.219 29.195 9.668 c 29.195 9.926 29.254 10.164 29.371 10.379 c 
29.496 10.605 29.652 10.785 29.844 10.918 c 30.047 11.051 30.266 11.152 
30.508 11.219 c 30.684 11.258 30.953 11.305 31.32 11.355 c 32.055 11.438
 32.594 11.543 32.945 11.668 c 32.953 11.793 32.957 11.871 32.957 11.906
 c 32.957 12.281 32.871 12.543 32.695 12.691 c 32.461 12.902 32.117 13.004
 31.656 13.004 c 31.223 13.004 30.902 12.93 30.695 12.781 c 30.496 12.629
 30.344 12.363 30.246 11.98 c 29.359 12.094 l 29.434 12.477 29.562 12.785
 29.746 13.02 c 29.938 13.258 30.207 13.441 30.559 13.566 c 30.918 13.691
 31.324 13.754 31.781 13.754 c 32.25 13.754 32.625 13.703 32.906 13.594 
c 33.199 13.484 33.41 13.348 33.547 13.18 c 33.68 13.023 33.773 12.816 33.832
 12.566 c 33.859 12.41 33.871 12.125 33.871 11.719 c 33.871 10.504 l 33.871
 9.656 33.891 9.117 33.934 8.895 c 33.973 8.668 34.051 8.453 34.156 8.242
 c 33.207 8.242 l 33.117 8.434 33.055 8.656 33.02 8.906 c h
32.945 10.957 m 32.613 10.812 32.117 10.695 31.457 10.605 c 31.082 10.547
 30.816 10.484 30.656 10.418 c 30.5 10.352 30.379 10.25 30.297 10.117 c 
30.211 9.992 30.172 9.852 30.172 9.691 c 30.172 9.453 30.262 9.246 30.445
 9.082 c 30.629 8.922 30.898 8.844 31.258 8.844 c 31.609 8.844 31.922 8.918
 32.195 9.066 c 32.469 9.227 32.676 9.438 32.809 9.707 c 32.898 9.906 32.945
 10.211 32.945 10.617 c h
35.438 8.242 m 35.438 13.629 l 36.262 13.629 l 36.262 12.867 l 36.656 13.461
 37.227 13.754 37.977 13.754 c 38.301 13.754 38.598 13.695 38.863 13.582
 c 39.137 13.465 39.344 13.309 39.477 13.117 c 39.617 12.934 39.711 12.711
 39.762 12.441 c 39.797 12.277 39.812 11.98 39.812 11.555 c 39.812 8.242
 l 38.898 8.242 l 38.898 11.52 l 38.898 11.895 38.863 12.172 38.789 12.355
 c 38.723 12.539 38.598 12.684 38.414 12.793 c 38.238 12.91 38.031 12.969
 37.789 12.969 c 37.395 12.969 37.059 12.844 36.773 12.594 c 36.492 12.352
 36.352 11.883 36.352 11.191 c 36.352 8.242 l h
41.004 9.855 m 41.906 9.992 l 41.957 9.633 42.098 9.355 42.332 9.156 c 
42.562 8.965 42.887 8.867 43.305 8.867 c 43.723 8.867 44.031 8.953 44.23
 9.117 c 44.438 9.293 44.543 9.496 44.543 9.73 c 44.543 9.938 44.449 10.102
 44.27 10.219 c 44.145 10.301 43.832 10.406 43.332 10.531 c 42.664 10.695
 42.199 10.844 41.941 10.969 c 41.684 11.094 41.488 11.266 41.355 11.48 
c 41.223 11.695 41.156 11.938 41.156 12.207 c 41.156 12.445 41.211 12.668
 41.316 12.867 c 41.426 13.078 41.574 13.246 41.77 13.379 c 41.91 13.488
 42.102 13.578 42.344 13.645 c 42.594 13.719 42.859 13.754 43.145 13.754
 c 43.559 13.754 43.926 13.691 44.242 13.566 c 44.566 13.453 44.805 13.289
 44.957 13.082 c 45.113 12.871 45.223 12.594 45.281 12.242 c 44.379 12.117
 l 44.34 12.402 44.223 12.617 44.031 12.77 c 43.84 12.926 43.562 13.004 
43.207 13.004 c 42.789 13.004 42.488 12.934 42.305 12.793 c 42.121 12.66
 42.031 12.496 42.031 12.305 c 42.031 12.188 42.066 12.086 42.145 11.992
 c 42.219 11.895 42.336 11.809 42.492 11.742 c 42.586 11.711 42.855 11.633
 43.305 11.52 c 43.957 11.344 44.406 11.203 44.656 11.094 c 44.914 10.984
 45.113 10.82 45.254 10.605 c 45.406 10.398 45.48 10.141 45.48 9.832 c 45.48
 9.523 45.387 9.234 45.207 8.969 c 45.031 8.703 44.777 8.492 44.441 8.344
 c 44.109 8.191 43.73 8.117 43.305 8.117 c 42.605 8.117 42.07 8.266 41.707
 8.555 c 41.34 8.848 41.105 9.281 41.004 9.855 c h
46.699 8.242 m 46.699 13.629 l 47.512 13.629 l 47.512 12.879 l 47.688 13.148
 47.91 13.359 48.188 13.52 c 48.469 13.676 48.789 13.754 49.148 13.754 c
 49.551 13.754 49.875 13.672 50.125 13.504 c 50.383 13.34 50.566 13.109 
50.676 12.816 c 51.098 13.441 51.652 13.754 52.336 13.754 c 52.871 13.754
 53.277 13.605 53.562 13.305 c 53.852 13.016 54 12.559 54 11.941 c 54 8.242
 l 53.098 8.242 l 53.098 11.645 l 53.098 12.008 53.07 12.273 53.012 12.43
 c 52.953 12.59 52.844 12.719 52.688 12.816 c 52.527 12.918 52.344 12.969
 52.137 12.969 c 51.754 12.969 51.438 12.84 51.188 12.582 c 50.938 12.332
 50.812 11.93 50.812 11.379 c 50.812 8.242 l 49.898 8.242 l 49.898 11.742
 l 49.898 12.152 49.824 12.457 49.676 12.656 c 49.523 12.863 49.281 12.969
 48.949 12.969 c 48.691 12.969 48.453 12.898 48.238 12.754 c 48.02 12.621
 47.863 12.426 47.762 12.168 c 47.66 11.91 47.613 11.535 47.613 11.043 c
 47.613 8.242 l h
55.582 14.629 m 55.582 15.691 l 56.492 15.691 l 56.492 14.629 l h
55.582 8.242 m 55.582 13.629 l 56.492 13.629 l 56.492 8.242 l h
59.949 9.055 m 60.074 8.254 l 59.816 8.195 59.586 8.168 59.387 8.168 c 
59.055 8.168 58.797 8.223 58.613 8.332 c 58.43 8.438 58.301 8.578 58.227
 8.742 c 58.148 8.918 58.113 9.277 58.113 9.816 c 58.113 12.93 l 57.449 
12.93 l 57.449 13.629 l 58.113 13.629 l 58.113 14.969 l 59.023 15.52 l 59.023
 13.629 l 59.949 13.629 l 59.949 12.93 l 59.023 12.93 l 59.023 9.77 l 59.023
 9.508 59.043 9.344 59.074 9.27 c 59.109 9.191 59.16 9.133 59.227 9.094 
c 59.301 9.051 59.402 9.031 59.539 9.031 c 59.645 9.031 59.785 9.039 59.949
 9.055 c h
62.914 9.055 m 63.039 8.254 l 62.777 8.195 62.551 8.168 62.352 8.168 c 
62.016 8.168 61.758 8.223 61.574 8.332 c 61.391 8.438 61.262 8.578 61.188
 8.742 c 61.113 8.918 61.074 9.277 61.074 9.816 c 61.074 12.93 l 60.414 
12.93 l 60.414 13.629 l 61.074 13.629 l 61.074 14.969 l 61.988 15.52 l 61.988
 13.629 l 62.914 13.629 l 62.914 12.93 l 61.988 12.93 l 61.988 9.77 l 61.988
 9.508 62.004 9.344 62.039 9.27 c 62.07 9.191 62.121 9.133 62.188 9.094 
c 62.262 9.051 62.367 9.031 62.5 9.031 c 62.609 9.031 62.746 9.039 62.914
 9.055 c h
67.562 9.98 m 68.512 9.867 l 68.363 9.309 68.082 8.875 67.676 8.566 c 67.273
 8.27 66.762 8.117 66.137 8.117 c 65.344 8.117 64.715 8.359 64.25 8.844 
c 63.793 9.336 63.562 10.02 63.562 10.895 c 63.562 11.801 63.797 12.504 
64.262 13.004 c 64.738 13.504 65.344 13.754 66.086 13.754 c 66.812 13.754
 67.398 13.508 67.852 13.02 c 68.309 12.527 68.539 11.84 68.539 10.957 c
 68.539 10.707 l 64.512 10.707 l 64.547 10.113 64.711 9.66 65.012 9.344 
c 65.312 9.027 65.688 8.867 66.137 8.867 c 66.48 8.867 66.766 8.957 67 9.129
 c 67.242 9.312 67.43 9.598 67.562 9.98 c h
64.562 11.457 m 67.574 11.457 l 67.531 11.914 67.418 12.254 67.227 12.48
 c 66.934 12.832 66.559 13.004 66.102 13.004 c 65.676 13.004 65.32 12.863
 65.039 12.582 c 64.754 12.305 64.594 11.93 64.562 11.457 c h
69.793 8.242 m 69.793 13.629 l 70.617 13.629 l 70.617 12.816 l 70.824 13.203
 71.016 13.453 71.191 13.566 c 71.375 13.691 71.57 13.754 71.781 13.754 
c 72.09 13.754 72.402 13.66 72.719 13.469 c 72.406 12.617 l 72.18 12.75 
71.957 12.816 71.742 12.816 c 71.543 12.816 71.359 12.754 71.191 12.629 
c 71.035 12.516 70.922 12.348 70.855 12.129 c 70.754 11.805 70.703 11.453
 70.703 11.066 c 70.703 8.242 l h
69.793 8.242 m f
0.8 g
398.715 41.629 43.539 -29.531 re f
0 g
1 j
q 1 0 0 -1 0 156 cm
398.715 114.371 43.539 29.531 re S Q
1 g
441.578 41.629 11.969 -29.531 re f
0 g
q 1 0 0 -1 0 156 cm
441.578 114.371 11.969 29.531 re S Q
0.8 g
343.324 41.629 43.539 -29.531 re f
0 g
q 1 0 0 -1 0 156 cm
343.324 114.371 43.539 29.531 re S Q
1 g
386.449 41.629 11.969 -29.531 re f
0 g
q 1 0 0 -1 0 156 cm
386.449 114.371 11.969 29.531 re S Q
1 g
331.324 41.629 11.965 -29.531 re f
0 g
q 1 0 0 -1 0 156 cm
331.324 114.371 11.965 29.531 re S Q
q 1 0 0 -1 0 156 cm
336.578 91.168 m 336.578 111.207 l S Q
336.578 44.793 m 335.68 45.695 l 336.578 43.223 l 337.477 45.695 l h
336.578 44.793 m f*
0 j
q 1 0 0 -1 0 156 cm
336.578 111.207 m 335.68 110.305 l 336.578 112.777 l 337.477 110.305 l 
h
336.578 111.207 m S Q
1 g
194.457 121.887 m 194.457 127.008 198.551 131.16 203.605 131.16 c 206.031
 131.16 208.355 130.184 210.07 128.445 c 211.785 126.707 212.75 124.348 
212.75 121.887 c 212.75 116.766 208.656 112.613 203.605 112.613 c 198.551
 112.613 194.457 116.766 194.457 121.887 c h
194.457 121.887 m f
0 g
1.6 w
1 j
q 1 0 0 -1 0 156 cm
194.457 34.113 m 194.457 28.992 198.551 24.84 203.605 24.84 c 206.031 24.84
 208.355 25.816 210.07 27.555 c 211.785 29.293 212.75 31.652 212.75 34.113
 c 212.75 39.234 208.656 43.387 203.605 43.387 c 198.551 43.387 194.457 
39.234 194.457 34.113 c h
194.457 34.113 m S Q
204.516 118.273 m 203.676 118.273 l 203.676 123.648 l 203.469 123.453 203.199
 123.258 202.863 123.059 c 202.539 122.867 202.246 122.727 201.988 122.633
 c 201.988 123.445 l 202.457 123.672 202.863 123.938 203.215 124.246 c 203.574
 124.562 203.828 124.871 203.977 125.172 c 204.516 125.172 l h
204.516 118.273 m f
124.883 141.996 m 125.785 141.758 l 125.59 141.016 125.25 140.449 124.758
 140.059 c 124.266 139.668 123.664 139.473 122.945 139.473 c 122.203 139.473
 121.602 139.621 121.133 139.922 c 120.668 140.223 120.312 140.656 120.07
 141.223 c 119.828 141.797 119.707 142.414 119.707 143.07 c 119.707 143.789
 119.848 144.414 120.121 144.945 c 120.395 145.48 120.785 145.883 121.285
 146.16 c 121.793 146.434 122.352 146.57 122.957 146.57 c 123.641 146.57
 124.215 146.398 124.684 146.047 c 125.16 145.695 125.488 145.203 125.672
 144.57 c 124.77 144.359 l 124.613 144.859 124.379 145.223 124.07 145.445
 c 123.77 145.68 123.391 145.797 122.934 145.797 c 122.41 145.797 121.965
 145.668 121.609 145.41 c 121.258 145.16 121.008 144.82 120.859 144.398 
c 120.715 143.973 120.645 143.531 120.645 143.07 c 120.645 142.488 120.73
 141.98 120.895 141.547 c 121.07 141.113 121.336 140.789 121.695 140.57 
c 122.055 140.355 122.445 140.246 122.871 140.246 c 123.379 140.246 123.809
 140.391 124.16 140.684 c 124.516 140.977 124.758 141.414 124.883 141.996
 c h
124.883 141.996 m f
124.883 130.797 m 125.785 130.559 l 125.59 129.816 125.25 129.25 124.758
 128.859 c 124.266 128.469 123.664 128.273 122.945 128.273 c 122.203 128.273
 121.602 128.422 121.133 128.723 c 120.668 129.023 120.312 129.453 120.07
 130.023 c 119.828 130.598 119.707 131.215 119.707 131.871 c 119.707 132.59
 119.848 133.215 120.121 133.746 c 120.395 134.281 120.785 134.684 121.285
 134.961 c 121.793 135.234 122.352 135.371 122.957 135.371 c 123.641 135.371
 124.215 135.195 124.684 134.848 c 125.16 134.496 125.488 134.004 125.672
 133.371 c 124.77 133.16 l 124.613 133.66 124.379 134.023 124.07 134.246
 c 123.77 134.48 123.391 134.598 122.934 134.598 c 122.41 134.598 121.965
 134.469 121.609 134.211 c 121.258 133.961 121.008 133.621 120.859 133.195
 c 120.715 132.773 120.645 132.328 120.645 131.871 c 120.645 131.289 120.73
 130.781 120.895 130.348 c 121.07 129.914 121.336 129.59 121.695 129.371
 c 122.055 129.156 122.445 129.047 122.871 129.047 c 123.379 129.047 123.809
 129.191 124.16 129.484 c 124.516 129.777 124.758 130.215 124.883 130.797
 c h
124.883 130.797 m f
119.484 117.184 m 122.125 124.059 l 123.098 124.059 l 125.91 117.184 l 
124.887 117.184 l 124.074 119.273 l 121.211 119.273 l 120.449 117.184 l 
h
121.473 120.008 m 123.797 120.008 l 123.086 121.91 l 122.859 122.484 122.699
 122.961 122.598 123.336 c 122.508 122.891 122.383 122.453 122.223 122.023
 c h
121.473 120.008 m f
345.527 74.105 m 346.426 73.867 l 346.234 73.125 345.895 72.559 345.402
 72.168 c 344.91 71.777 344.305 71.582 343.59 71.582 c 342.848 71.582 342.242
 71.73 341.777 72.031 c 341.309 72.332 340.957 72.766 340.715 73.332 c 340.473
 73.906 340.352 74.523 340.352 75.18 c 340.352 75.898 340.488 76.523 340.762
 77.055 c 341.039 77.59 341.426 77.992 341.926 78.27 c 342.434 78.543 342.992
 78.68 343.602 78.68 c 344.285 78.68 344.859 78.504 345.324 78.156 c 345.801
 77.805 346.129 77.312 346.312 76.68 c 345.414 76.469 l 345.254 76.969 345.023
 77.332 344.715 77.555 c 344.414 77.789 344.035 77.906 343.574 77.906 c 
343.051 77.906 342.609 77.777 342.25 77.52 c 341.902 77.27 341.652 76.93
 341.5 76.504 c 341.359 76.082 341.289 75.641 341.289 75.18 c 341.289 74.598
 341.371 74.09 341.539 73.656 c 341.715 73.223 341.98 72.898 342.34 72.68
 c 342.695 72.465 343.09 72.355 343.512 72.355 c 344.023 72.355 344.449 
72.5 344.801 72.793 c 345.16 73.086 345.402 73.523 345.527 74.105 c h
345.527 74.105 m f
345.527 62.906 m 346.426 62.668 l 346.234 61.926 345.895 61.359 345.402
 60.969 c 344.91 60.578 344.305 60.379 343.59 60.379 c 342.848 60.379 342.242
 60.531 341.777 60.832 c 341.309 61.129 340.957 61.562 340.715 62.129 c 
340.473 62.707 340.352 63.324 340.352 63.98 c 340.352 64.699 340.488 65.324
 340.762 65.855 c 341.039 66.391 341.426 66.793 341.926 67.066 c 342.434
 67.344 342.992 67.48 343.602 67.48 c 344.285 67.48 344.859 67.305 345.324
 66.957 c 345.801 66.605 346.129 66.113 346.312 65.48 c 345.414 65.27 l 
345.254 65.77 345.023 66.129 344.715 66.355 c 344.414 66.59 344.035 66.707
 343.574 66.707 c 343.051 66.707 342.609 66.578 342.25 66.316 c 341.902 
66.066 341.652 65.73 341.5 65.305 c 341.359 64.879 341.289 64.438 341.289
 63.98 c 341.289 63.398 341.371 62.891 341.539 62.457 c 341.715 62.023 341.98
 61.699 342.34 61.48 c 342.695 61.266 343.09 61.156 343.512 61.156 c 344.023
 61.156 344.449 61.301 344.801 61.594 c 345.16 61.887 345.402 62.324 345.527
 62.906 c h
345.527 62.906 m f
340.129 49.293 m 342.766 56.168 l 343.742 56.168 l 346.555 49.293 l 345.527
 49.293 l 344.715 51.379 l 341.852 51.379 l 341.09 49.293 l h
342.117 52.117 m 344.441 52.117 l 343.727 54.02 l 343.504 54.594 343.34
 55.066 343.242 55.441 c 343.148 55 343.023 54.562 342.867 54.129 c h
342.117 52.117 m f
399.953 74.105 m 400.855 73.867 l 400.664 73.125 400.32 72.559 399.828 
72.168 c 399.34 71.777 398.734 71.582 398.016 71.582 c 397.277 71.582 396.672
 71.73 396.203 72.031 c 395.738 72.332 395.383 72.766 395.141 73.332 c 394.902
 73.906 394.781 74.523 394.781 75.18 c 394.781 75.898 394.918 76.523 395.191
 77.055 c 395.469 77.59 395.855 77.992 396.355 78.27 c 396.863 78.543 397.422
 78.68 398.031 78.68 c 398.715 78.68 399.289 78.504 399.754 78.156 c 400.23
 77.805 400.559 77.312 400.742 76.68 c 399.844 76.469 l 399.684 76.969 399.449
 77.332 399.141 77.555 c 398.844 77.789 398.465 77.906 398.004 77.906 c 
397.48 77.906 397.039 77.777 396.68 77.52 c 396.328 77.27 396.078 76.93 
395.93 76.504 c 395.789 76.082 395.719 75.641 395.719 75.18 c 395.719 74.598
 395.801 74.09 395.969 73.656 c 396.141 73.223 396.41 72.898 396.766 72.68
 c 397.125 72.465 397.516 72.355 397.941 72.355 c 398.449 72.355 398.879
 72.5 399.23 72.793 c 399.59 73.086 399.828 73.523 399.953 74.105 c h
399.953 74.105 m f
399.953 62.906 m 400.855 62.668 l 400.664 61.926 400.32 61.359 399.828 
60.969 c 399.34 60.578 398.734 60.379 398.016 60.379 c 397.277 60.379 396.672
 60.531 396.203 60.832 c 395.738 61.129 395.383 61.562 395.141 62.129 c 
394.902 62.707 394.781 63.324 394.781 63.98 c 394.781 64.699 394.918 65.324
 395.191 65.855 c 395.469 66.391 395.855 66.793 396.355 67.066 c 396.863
 67.344 397.422 67.48 398.031 67.48 c 398.715 67.48 399.289 67.305 399.754
 66.957 c 400.23 66.605 400.559 66.113 400.742 65.48 c 399.844 65.27 l 399.684
 65.77 399.449 66.129 399.141 66.355 c 398.844 66.59 398.465 66.707 398.004
 66.707 c 397.48 66.707 397.039 66.578 396.68 66.316 c 396.328 66.066 396.078
 65.73 395.93 65.305 c 395.789 64.879 395.719 64.438 395.719 63.98 c 395.719
 63.398 395.801 62.891 395.969 62.457 c 396.141 62.023 396.41 61.699 396.766
 61.48 c 397.125 61.266 397.516 61.156 397.941 61.156 c 398.449 61.156 398.879
 61.301 399.23 61.594 c 399.59 61.887 399.828 62.324 399.953 62.906 c h
399.953 62.906 m f
394.559 49.293 m 397.195 56.168 l 398.168 56.168 l 400.98 49.293 l 399.957
 49.293 l 399.145 51.379 l 396.281 51.379 l 395.52 49.293 l h
396.543 52.117 m 398.871 52.117 l 398.156 54.02 l 397.934 54.594 397.77
 55.066 397.668 55.441 c 397.578 55 397.453 54.562 397.293 54.129 c h
396.543 52.117 m f
455.758 74.105 m 456.656 73.867 l 456.465 73.125 456.125 72.559 455.633
 72.168 c 455.141 71.777 454.535 71.582 453.82 71.582 c 453.078 71.582 452.473
 71.73 452.008 72.031 c 451.539 72.332 451.188 72.766 450.945 73.332 c 450.703
 73.906 450.582 74.523 450.582 75.18 c 450.582 75.898 450.719 76.523 450.996
 77.055 c 451.27 77.59 451.656 77.992 452.156 78.27 c 452.664 78.543 453.223
 78.68 453.832 78.68 c 454.516 78.68 455.09 78.504 455.559 78.156 c 456.031
 77.805 456.363 77.312 456.543 76.68 c 455.645 76.469 l 455.488 76.969 455.254
 77.332 454.945 77.555 c 454.645 77.789 454.266 77.906 453.809 77.906 c 
453.281 77.906 452.84 77.777 452.48 77.52 c 452.133 77.27 451.883 76.93 
451.73 76.504 c 451.59 76.082 451.52 75.641 451.52 75.18 c 451.52 74.598
 451.602 74.09 451.77 73.656 c 451.945 73.223 452.211 72.898 452.57 72.68
 c 452.93 72.465 453.32 72.355 453.746 72.355 c 454.254 72.355 454.684 72.5
 455.031 72.793 c 455.391 73.086 455.633 73.523 455.758 74.105 c h
455.758 74.105 m f
455.758 62.906 m 456.656 62.668 l 456.465 61.926 456.125 61.359 455.633
 60.969 c 455.141 60.578 454.535 60.379 453.82 60.379 c 453.078 60.379 452.473
 60.531 452.008 60.832 c 451.539 61.129 451.188 61.562 450.945 62.129 c 
450.703 62.707 450.582 63.324 450.582 63.98 c 450.582 64.699 450.719 65.324
 450.996 65.855 c 451.27 66.391 451.656 66.793 452.156 67.066 c 452.664 
67.344 453.223 67.48 453.832 67.48 c 454.516 67.48 455.09 67.305 455.559
 66.957 c 456.031 66.605 456.363 66.113 456.543 65.48 c 455.645 65.27 l 
455.488 65.77 455.254 66.129 454.945 66.355 c 454.645 66.59 454.266 66.707
 453.809 66.707 c 453.281 66.707 452.84 66.578 452.48 66.316 c 452.133 66.066
 451.883 65.73 451.73 65.305 c 451.59 64.879 451.52 64.438 451.52 63.98 
c 451.52 63.398 451.602 62.891 451.77 62.457 c 451.945 62.023 452.211 61.699
 452.57 61.48 c 452.93 61.266 453.32 61.156 453.746 61.156 c 454.254 61.156
 454.684 61.301 455.031 61.594 c 455.391 61.887 455.633 62.324 455.758 62.906
 c h
455.758 62.906 m f
450.359 49.293 m 452.996 56.168 l 453.973 56.168 l 456.785 49.293 l 455.758
 49.293 l 454.945 51.379 l 452.086 51.379 l 451.32 49.293 l h
452.348 52.117 m 454.672 52.117 l 453.961 54.02 l 453.734 54.594 453.57
 55.066 453.473 55.441 c 453.379 55 453.254 54.562 453.098 54.129 c h
452.348 52.117 m f
51.746 79.043 m 49.77 86.492 l 50.781 86.492 l 51.922 81.605 l 52.035 81.098
 52.141 80.586 52.234 80.078 c 52.426 80.879 52.535 81.336 52.57 81.453 
c 53.984 86.492 l 55.172 86.492 l 56.234 82.719 l 56.5 81.785 56.695 80.906
 56.82 80.078 c 56.91 80.555 57.031 81.098 57.184 81.703 c 58.359 86.492
 l 59.344 86.492 l 57.309 79.043 l 56.359 79.043 l 54.781 84.719 l 54.648
 85.191 54.57 85.484 54.547 85.594 c 54.469 85.25 54.398 84.957 54.332 84.719
 c 52.758 79.043 l h
60.395 85.43 m 60.395 86.492 l 61.309 86.492 l 61.309 85.43 l h
60.395 79.043 m 60.395 84.43 l 61.309 84.43 l 61.309 79.043 l h
62.926 79.043 m 62.926 86.492 l 67.953 86.492 l 67.953 85.605 l 63.914 
85.605 l 63.914 83.305 l 67.414 83.305 l 67.414 82.43 l 63.914 82.43 l 63.914
 79.043 l h
69.277 85.43 m 69.277 86.492 l 70.191 86.492 l 70.191 85.43 l h
69.277 79.043 m 69.277 84.43 l 70.191 84.43 l 70.191 79.043 l h
69.277 79.043 m f
0.521569 0.12549 0.0470588 rg
124.902 96.863 43.539 -13.984 re f
0 g
0.8 w
q 1 0 0 -1 0 156 cm
124.902 59.137 43.539 13.984 re S Q
1 g
461.238 26.863 m 461.238 31.984 465.332 36.137 470.383 36.137 c 472.809
 36.137 475.137 35.16 476.852 33.422 c 478.566 31.684 479.531 29.324 479.531
 26.863 c 479.531 21.742 475.438 17.59 470.383 17.59 c 465.332 17.59 461.238
 21.742 461.238 26.863 c h
461.238 26.863 m f
0 g
1.6 w
q 1 0 0 -1 0 156 cm
461.238 129.137 m 461.238 124.016 465.332 119.863 470.383 119.863 c 472.809
 119.863 475.137 120.84 476.852 122.578 c 478.566 124.316 479.531 126.676
 479.531 129.137 c 479.531 134.258 475.438 138.41 470.383 138.41 c 465.332
 138.41 461.238 134.258 461.238 129.137 c h
461.238 129.137 m S Q
472.043 24.059 m 472.043 23.246 l 467.492 23.246 l 467.492 23.449 467.527
 23.645 467.594 23.836 c 467.711 24.145 467.895 24.449 468.145 24.746 c 
468.402 25.047 468.773 25.395 469.254 25.785 c 470.004 26.402 470.508 26.891
 470.77 27.246 c 471.035 27.605 471.168 27.945 471.168 28.262 c 471.168 
28.594 471.047 28.871 470.805 29.098 c 470.562 29.332 470.25 29.449 469.867
 29.449 c 469.461 29.449 469.133 29.328 468.895 29.086 c 468.652 28.844 
468.527 28.508 468.52 28.074 c 467.656 28.16 l 467.715 28.809 467.934 29.301
 468.316 29.637 c 468.711 29.977 469.234 30.148 469.895 30.148 c 470.551
 30.148 471.07 29.965 471.457 29.598 c 471.84 29.23 472.031 28.777 472.031
 28.234 c 472.031 27.961 471.973 27.691 471.855 27.422 c 471.746 27.164 
471.559 26.887 471.293 26.586 c 471.035 26.293 470.605 25.895 470.004 25.387
 c 469.496 24.961 469.168 24.668 469.02 24.512 c 468.875 24.359 468.758 
24.211 468.668 24.059 c h
472.043 24.059 m f
0.521569 0.12549 0.0470588 rg
425.789 96.863 43.543 -13.984 re f
0 g
0.8 w
q 1 0 0 -1 0 156 cm
425.789 59.137 43.543 13.984 re S Q
q 1 0 0 -1 0 156 cm
77.91 73.121 m 490.688 73.121 l S Q
q 1 0 0 -1 0 156 cm
77.91 143.918 m 490.688 143.918 l S Q
  Q
Q
Q Q
showpage
%%Trailer
end restore
%%EOF
