%!PS-Adobe-3.0 EPSF-3.0
%%Creator: cairo 1.14.6 (http://cairographics.org)
%%CreationDate: Fri Sep 30 14:06:17 2016
%%Pages: 1
%%DocumentData: Clean7Bit
%%LanguageLevel: 2
%%BoundingBox: 0 -1 576 136
%%EndComments
%%BeginProlog
save
50 dict begin
/q { gsave } bind def
/Q { grestore } bind def
/cm { 6 array astore concat } bind def
/w { setlinewidth } bind def
/J { setlinecap } bind def
/j { setlinejoin } bind def
/M { setmiterlimit } bind def
/d { setdash } bind def
/m { moveto } bind def
/l { lineto } bind def
/c { curveto } bind def
/h { closepath } bind def
/re { exch dup neg 3 1 roll 5 3 roll moveto 0 rlineto
      0 exch rlineto 0 rlineto closepath } bind def
/S { stroke } bind def
/f { fill } bind def
/f* { eofill } bind def
/n { newpath } bind def
/W { clip } bind def
/W* { eoclip } bind def
/BT { } bind def
/ET { } bind def
/pdfmark where { pop globaldict /?pdfmark /exec load put }
    { globaldict begin /?pdfmark /pop load def /pdfmark
    /cleartomark load def end } ifelse
/BDC { mark 3 1 roll /BDC pdfmark } bind def
/EMC { mark /EMC pdfmark } bind def
/cairo_store_point { /cairo_point_y exch def /cairo_point_x exch def } def
/Tj { show currentpoint cairo_store_point } bind def
/TJ {
  {
    dup
    type /stringtype eq
    { show } { -0.001 mul 0 cairo_font_matrix dtransform rmoveto } ifelse
  } forall
  currentpoint cairo_store_point
} bind def
/cairo_selectfont { cairo_font_matrix aload pop pop pop 0 0 6 array astore
    cairo_font exch selectfont cairo_point_x cairo_point_y moveto } bind def
/Tf { pop /cairo_font exch def /cairo_font_matrix where
      { pop cairo_selectfont } if } bind def
/Td { matrix translate cairo_font_matrix matrix concatmatrix dup
      /cairo_font_matrix exch def dup 4 get exch 5 get cairo_store_point
      /cairo_font where { pop cairo_selectfont } if } bind def
/Tm { 2 copy 8 2 roll 6 array astore /cairo_font_matrix exch def
      cairo_store_point /cairo_font where { pop cairo_selectfont } if } bind def
/g { setgray } bind def
/rg { setrgbcolor } bind def
/d1 { setcachedevice } bind def
%%EndProlog
%%BeginSetup
%%EndSetup
%%Page: 1 1
%%BeginPageSetup
%%PageBoundingBox: 0 -1 576 136
%%EndPageSetup
q 0 -1 576 137 rectclip q
Q q
0 135.143 575.934 -135.145 re W n
q
0 135.143 576 -136 re W n
[ 1 0 0 1 0 -0.856689 ] concat
  q
0 g
0.8 w
0 J
1 j
[] 0.0 d
10 M q 1 0 0 -1 0 136 cm
77.84 45.48 m 559.301 45.48 l S Q
q 1 0 0 -1 0 136 cm
93.543 22.258 m 93.543 43.227 l S Q
93.543 92.773 m 92.645 93.676 l 93.543 91.203 l 94.445 93.676 l h
93.543 92.773 m f*
0 j
q 1 0 0 -1 0 136 cm
93.543 43.227 m 92.645 42.324 l 93.543 44.797 l 94.445 42.324 l h
93.543 43.227 m S Q
0.8 g
415.477 40.094 44.07 -29.531 re f
0 g
1 j
q 1 0 0 -1 0 136 cm
415.477 95.906 44.07 29.531 re S Q
0.8 g
471.004 40.094 44.07 -29.531 re f
0 g
q 1 0 0 -1 0 136 cm
471.004 95.906 44.07 29.531 re S Q
1 g
435.953 120.051 35.047 -29.531 re f
0 g
q 1 0 0 -1 0 136 cm
435.953 15.949 35.047 29.531 re S Q
1 g
458.859 40.094 12.094 -29.531 re f
0 g
q 1 0 0 -1 0 136 cm
458.859 95.906 12.094 29.531 re S Q
[ 3.2 2.4] 0 d
q 1 0 0 -1 0 136 cm
483.164 93.871 m 482.938 50.242 l S Q
484.262 85.762 m 482.918 89.387 l 481.617 85.75 l h
484.262 85.762 m f*
0 j
[] 0.0 d
q 1 0 0 -1 0 136 cm
484.262 50.238 m 482.918 46.613 l 481.617 50.25 l h
484.262 50.238 m S Q
1 j
[ 3.2 2.4] 0 d
q 1 0 0 -1 0 136 cm
502.5 93.871 m 502.273 50.242 l S Q
503.594 85.762 m 502.254 89.387 l 500.953 85.75 l h
503.594 85.762 m f*
0 j
[] 0.0 d
q 1 0 0 -1 0 136 cm
503.594 50.238 m 502.254 46.613 l 500.953 50.25 l h
503.594 50.238 m S Q
0.8 g
514.652 120.051 12.094 -29.531 re f
0 g
1 j
q 1 0 0 -1 0 136 cm
514.652 15.949 12.094 29.531 re S Q
[ 3.2 2.4] 0 d
q 1 0 0 -1 0 136 cm
521.582 89.352 m 521.582 46.453 l S Q
520.262 46.648 m 521.582 43.02 l 522.906 46.648 l h
520.262 46.648 m f*
0 j
[] 0.0 d
q 1 0 0 -1 0 136 cm
520.262 89.352 m 521.582 92.98 l 522.906 89.352 l h
520.262 89.352 m S Q
30.656 86.68 m 30.656 94.129 l 33.957 94.129 l 34.625 94.129 35.129 94.059
 35.469 93.918 c 35.82 93.785 36.098 93.547 36.309 93.207 c 36.516 92.871
 36.621 92.5 36.621 92.094 c 36.621 91.566 36.445 91.121 36.094 90.754 c
 35.754 90.398 35.227 90.168 34.52 90.066 c 34.777 89.941 34.973 89.816 
35.109 89.691 c 35.398 89.434 35.676 89.105 35.934 88.707 c 37.219 86.68
 l 35.984 86.68 l 34.996 88.23 l 34.711 88.68 34.473 89.023 34.281 89.254
 c 34.098 89.488 33.934 89.652 33.781 89.742 c 33.641 89.844 33.496 89.914
 33.344 89.957 c 33.227 89.973 33.047 89.98 32.797 89.98 c 31.645 89.98 
l 31.645 86.68 l h
31.645 90.844 m 33.77 90.844 l 34.219 90.844 34.57 90.891 34.82 90.98 c
 35.078 91.074 35.27 91.219 35.395 91.418 c 35.527 91.625 35.594 91.852 
35.594 92.094 c 35.594 92.441 35.465 92.73 35.207 92.957 c 34.957 93.188
 34.559 93.305 34.008 93.305 c 31.645 93.305 l h
41.922 88.418 m 42.871 88.305 l 42.719 87.746 42.441 87.312 42.031 87.004
 c 41.633 86.707 41.121 86.555 40.496 86.555 c 39.703 86.555 39.074 86.797
 38.609 87.281 c 38.148 87.773 37.922 88.457 37.922 89.332 c 37.922 90.238
 38.152 90.941 38.621 91.441 c 39.094 91.941 39.703 92.191 40.445 92.191
 c 41.172 92.191 41.758 91.949 42.207 91.457 c 42.664 90.965 42.895 90.277
 42.895 89.395 c 42.895 89.145 l 38.871 89.145 l 38.902 88.551 39.07 88.098
 39.371 87.781 c 39.672 87.465 40.047 87.305 40.496 87.305 c 40.836 87.305
 41.125 87.395 41.359 87.566 c 41.598 87.75 41.785 88.035 41.922 88.418 
c h
38.922 89.895 m 41.934 89.895 l 41.891 90.352 41.773 90.691 41.582 90.918
 c 41.289 91.27 40.914 91.441 40.457 91.441 c 40.031 91.441 39.68 91.301
 39.395 91.02 c 39.113 90.742 38.953 90.367 38.922 89.895 c h
47.676 88.656 m 48.574 88.543 l 48.484 87.918 48.234 87.43 47.824 87.082
 c 47.418 86.73 46.922 86.555 46.336 86.555 c 45.598 86.555 45 86.797 44.551
 87.281 c 44.109 87.766 43.887 88.457 43.887 89.355 c 43.887 89.938 43.984
 90.449 44.176 90.879 c 44.367 91.324 44.66 91.652 45.051 91.867 c 45.441
 92.086 45.871 92.191 46.336 92.191 c 46.922 92.191 47.398 92.043 47.773
 91.742 c 48.148 91.453 48.387 91.035 48.488 90.492 c 47.602 90.355 l 47.516
 90.715 47.367 90.984 47.148 91.168 c 46.941 91.352 46.684 91.441 46.375
 91.441 c 45.918 91.441 45.543 91.277 45.25 90.941 c 44.965 90.617 44.824
 90.098 44.824 89.379 c 44.824 88.656 44.961 88.125 45.238 87.793 c 45.512
 87.469 45.875 87.305 46.324 87.305 c 46.684 87.305 46.984 87.414 47.227
 87.629 c 47.465 87.855 47.617 88.199 47.676 88.656 c h
53.18 88.418 m 54.133 88.305 l 53.98 87.746 53.703 87.312 53.293 87.004
 c 52.895 86.707 52.383 86.555 51.758 86.555 c 50.965 86.555 50.336 86.797
 49.867 87.281 c 49.41 87.773 49.18 88.457 49.18 89.332 c 49.18 90.238 49.414
 90.941 49.883 91.441 c 50.355 91.941 50.965 92.191 51.707 92.191 c 52.43
 92.191 53.02 91.949 53.469 91.457 c 53.926 90.965 54.156 90.277 54.156 
89.395 c 54.156 89.145 l 50.133 89.145 l 50.164 88.551 50.332 88.098 50.633
 87.781 c 50.93 87.465 51.305 87.305 51.758 87.305 c 52.098 87.305 52.387
 87.395 52.617 87.566 c 52.859 87.75 53.047 88.035 53.18 88.418 c h
50.18 89.895 m 53.195 89.895 l 53.152 90.352 53.035 90.691 52.844 90.918
 c 52.551 91.27 52.176 91.441 51.719 91.441 c 51.293 91.441 50.941 91.301
 50.656 91.02 c 50.371 90.742 50.215 90.367 50.18 89.895 c h
55.422 93.066 m 55.422 94.129 l 56.336 94.129 l 56.336 93.066 l h
55.422 86.68 m 55.422 92.066 l 56.336 92.066 l 56.336 86.68 l h
59.293 86.68 m 57.242 92.066 l 58.207 92.066 l 59.355 88.844 l 59.48 88.492
 59.598 88.129 59.707 87.754 c 59.789 88.039 59.902 88.379 60.043 88.781
 c 61.242 92.066 l 62.18 92.066 l 60.145 86.68 l h
66.812 88.418 m 67.762 88.305 l 67.613 87.746 67.332 87.312 66.926 87.004
 c 66.523 86.707 66.012 86.555 65.387 86.555 c 64.594 86.555 63.965 86.797
 63.5 87.281 c 63.039 87.773 62.812 88.457 62.812 89.332 c 62.812 90.238
 63.043 90.941 63.512 91.441 c 63.988 91.941 64.594 92.191 65.336 92.191
 c 66.062 92.191 66.648 91.949 67.098 91.457 c 67.559 90.965 67.785 90.277
 67.785 89.395 c 67.785 89.145 l 63.762 89.145 l 63.793 88.551 63.961 88.098
 64.262 87.781 c 64.562 87.465 64.938 87.305 65.387 87.305 c 65.727 87.305
 66.016 87.395 66.25 87.566 c 66.492 87.75 66.68 88.035 66.812 88.418 c 
h
63.812 89.895 m 66.824 89.895 l 66.781 90.352 66.664 90.691 66.473 90.918
 c 66.184 91.27 65.809 91.441 65.348 91.441 c 64.926 91.441 64.57 91.301
 64.285 91.02 c 64.004 90.742 63.844 90.367 63.812 89.895 c h
69.043 86.68 m 69.043 92.066 l 69.867 92.066 l 69.867 91.254 l 70.074 91.641
 70.266 91.891 70.441 92.004 c 70.625 92.129 70.82 92.191 71.027 92.191 
c 71.336 92.191 71.648 92.098 71.965 91.906 c 71.652 91.055 l 71.43 91.188
 71.207 91.254 70.992 91.254 c 70.793 91.254 70.609 91.191 70.441 91.066
 c 70.281 90.953 70.172 90.785 70.105 90.566 c 70.004 90.242 69.953 89.891
 69.953 89.504 c 69.953 86.68 l h
69.043 86.68 m f
20.707 5.543 m 20.707 12.105 l 18.254 12.105 l 18.254 12.996 l 24.156 12.996
 l 24.156 12.105 l 21.691 12.105 l 21.691 5.543 l h
25.195 5.543 m 25.195 10.934 l 26.02 10.934 l 26.02 10.121 l 26.227 10.504
 26.418 10.754 26.594 10.871 c 26.777 10.996 26.973 11.059 27.18 11.059 
c 27.488 11.059 27.801 10.961 28.117 10.77 c 27.805 9.918 l 27.582 10.055
 27.359 10.121 27.145 10.121 c 26.945 10.121 26.762 10.059 26.594 9.934 
c 26.434 9.816 26.324 9.648 26.258 9.434 c 26.156 9.105 26.105 8.754 26.105
 8.371 c 26.105 5.543 l h
32.27 6.207 m 31.938 5.926 31.609 5.719 31.293 5.594 c 30.984 5.477 30.652
 5.418 30.293 5.418 c 29.695 5.418 29.234 5.566 28.918 5.855 c 28.602 6.148
 28.445 6.52 28.445 6.969 c 28.445 7.227 28.504 7.465 28.621 7.684 c 28.746
 7.906 28.902 8.086 29.094 8.219 c 29.293 8.352 29.516 8.453 29.758 8.52
 c 29.934 8.562 30.203 8.605 30.57 8.656 c 31.305 8.742 31.844 8.844 32.195
 8.969 c 32.203 9.094 32.207 9.176 32.207 9.207 c 32.207 9.582 32.121 9.844
 31.945 9.996 c 31.711 10.203 31.367 10.309 30.906 10.309 c 30.473 10.309
 30.152 10.23 29.945 10.082 c 29.746 9.934 29.594 9.664 29.496 9.281 c 28.605
 9.395 l 28.684 9.777 28.812 10.086 28.996 10.32 c 29.188 10.562 29.457 
10.746 29.809 10.871 c 30.164 10.996 30.574 11.059 31.031 11.059 c 31.5 
11.059 31.875 11.004 32.156 10.895 c 32.449 10.785 32.66 10.648 32.793 10.48
 c 32.93 10.324 33.023 10.121 33.082 9.871 c 33.105 9.711 33.121 9.43 33.121
 9.02 c 33.121 7.809 l 33.121 6.957 33.141 6.418 33.184 6.195 c 33.223 5.969
 33.297 5.754 33.406 5.543 c 32.457 5.543 l 32.367 5.738 32.305 5.957 32.27
 6.207 c h
32.195 8.258 m 31.859 8.117 31.367 8 30.707 7.906 c 30.332 7.848 30.066
 7.785 29.906 7.719 c 29.75 7.652 29.629 7.555 29.543 7.418 c 29.461 7.293
 29.418 7.152 29.418 6.996 c 29.418 6.754 29.512 6.551 29.695 6.383 c 29.879
 6.223 30.148 6.145 30.508 6.145 c 30.855 6.145 31.168 6.219 31.445 6.371
 c 31.719 6.527 31.922 6.742 32.059 7.008 c 32.148 7.207 32.195 7.512 32.195
 7.918 c h
34.688 5.543 m 34.688 10.934 l 35.512 10.934 l 35.512 10.168 l 35.902 10.762
 36.473 11.059 37.223 11.059 c 37.551 11.059 37.844 11 38.113 10.883 c 38.387
 10.766 38.59 10.613 38.723 10.418 c 38.867 10.238 38.961 10.012 39.012 
9.746 c 39.047 9.578 39.062 9.281 39.062 8.855 c 39.062 5.543 l 38.148 5.543
 l 38.148 8.82 l 38.148 9.195 38.113 9.473 38.035 9.656 c 37.969 9.84 37.844
 9.988 37.66 10.094 c 37.488 10.211 37.277 10.27 37.035 10.27 c 36.645 10.27
 36.309 10.145 36.023 9.895 c 35.742 9.652 35.598 9.188 35.598 8.496 c 35.598
 5.543 l h
40.254 7.156 m 41.156 7.293 l 41.203 6.938 41.348 6.656 41.578 6.457 c 
41.812 6.266 42.137 6.168 42.555 6.168 c 42.973 6.168 43.281 6.254 43.48
 6.418 c 43.688 6.594 43.793 6.801 43.793 7.031 c 43.793 7.242 43.699 7.402
 43.516 7.52 c 43.391 7.602 43.078 7.707 42.578 7.832 c 41.914 8 41.449 
8.145 41.191 8.27 c 40.934 8.395 40.738 8.566 40.605 8.781 c 40.473 9 40.406
 9.242 40.406 9.508 c 40.406 9.75 40.457 9.969 40.566 10.168 c 40.676 10.379
 40.824 10.551 41.016 10.684 c 41.16 10.789 41.352 10.879 41.594 10.945 
c 41.844 11.02 42.109 11.059 42.391 11.059 c 42.809 11.059 43.176 10.996
 43.492 10.871 c 43.816 10.754 44.055 10.59 44.203 10.383 c 44.363 10.176
 44.473 9.895 44.531 9.543 c 43.629 9.418 l 43.586 9.703 43.473 9.918 43.281
 10.07 c 43.086 10.227 42.812 10.309 42.453 10.309 c 42.039 10.309 41.738
 10.238 41.555 10.094 c 41.371 9.961 41.281 9.801 41.281 9.605 c 41.281 
9.492 41.316 9.387 41.391 9.293 c 41.469 9.195 41.582 9.113 41.742 9.043
 c 41.832 9.012 42.105 8.938 42.555 8.82 c 43.203 8.645 43.656 8.504 43.906
 8.395 c 44.164 8.285 44.363 8.125 44.504 7.906 c 44.656 7.699 44.73 7.441
 44.73 7.133 c 44.73 6.824 44.637 6.535 44.453 6.27 c 44.281 6.004 44.023
 5.793 43.691 5.645 c 43.359 5.496 42.98 5.418 42.555 5.418 c 41.855 5.418
 41.32 5.566 40.953 5.855 c 40.586 6.148 40.355 6.582 40.254 7.156 c h
45.949 5.543 m 45.949 10.934 l 46.762 10.934 l 46.762 10.184 l 46.938 10.449
 47.16 10.66 47.438 10.82 c 47.719 10.977 48.039 11.059 48.398 11.059 c 
48.797 11.059 49.125 10.973 49.375 10.809 c 49.633 10.641 49.816 10.41 49.922
 10.121 c 50.348 10.746 50.902 11.059 51.586 11.059 c 52.117 11.059 52.527
 10.906 52.812 10.605 c 53.102 10.316 53.25 9.863 53.25 9.246 c 53.25 5.543
 l 52.348 5.543 l 52.348 8.945 l 52.348 9.312 52.32 9.574 52.262 9.73 c 
52.203 9.891 52.094 10.02 51.938 10.121 c 51.777 10.219 51.594 10.27 51.387
 10.27 c 51.004 10.27 50.688 10.141 50.438 9.883 c 50.188 9.633 50.062 9.23
 50.062 8.684 c 50.062 5.543 l 49.148 5.543 l 49.148 9.043 l 49.148 9.453
 49.074 9.758 48.922 9.957 c 48.773 10.164 48.531 10.27 48.199 10.27 c 47.941
 10.27 47.703 10.199 47.484 10.059 c 47.27 9.926 47.109 9.727 47.012 9.469
 c 46.91 9.211 46.859 8.836 46.859 8.344 c 46.859 5.543 l h
54.832 11.934 m 54.832 12.996 l 55.742 12.996 l 55.742 11.934 l h
54.832 5.543 m 54.832 10.934 l 55.742 10.934 l 55.742 5.543 l h
59.199 6.355 m 59.324 5.559 l 59.066 5.5 58.836 5.469 58.637 5.469 c 58.305
 5.469 58.047 5.523 57.863 5.633 c 57.68 5.742 57.551 5.879 57.473 6.043
 c 57.398 6.219 57.363 6.578 57.363 7.121 c 57.363 10.23 l 56.699 10.23 
l 56.699 10.934 l 57.363 10.934 l 57.363 12.27 l 58.273 12.82 l 58.273 10.934
 l 59.199 10.934 l 59.199 10.23 l 58.273 10.23 l 58.273 7.07 l 58.273 6.812
 58.289 6.645 58.324 6.57 c 58.359 6.496 58.406 6.438 58.473 6.395 c 58.551
 6.352 58.652 6.332 58.785 6.332 c 58.895 6.332 59.031 6.34 59.199 6.355
 c h
62.16 6.355 m 62.285 5.559 l 62.027 5.5 61.801 5.469 61.598 5.469 c 61.266
 5.469 61.008 5.523 60.824 5.633 c 60.641 5.742 60.512 5.879 60.438 6.043
 c 60.363 6.219 60.324 6.578 60.324 7.121 c 60.324 10.23 l 59.66 10.23 l
 59.66 10.934 l 60.324 10.934 l 60.324 12.27 l 61.238 12.82 l 61.238 10.934
 l 62.16 10.934 l 62.16 10.23 l 61.238 10.23 l 61.238 7.07 l 61.238 6.812
 61.254 6.645 61.285 6.57 c 61.32 6.496 61.371 6.438 61.438 6.395 c 61.512
 6.352 61.617 6.332 61.75 6.332 c 61.855 6.332 61.996 6.34 62.16 6.355 c
 h
66.812 7.281 m 67.762 7.168 l 67.613 6.613 67.332 6.18 66.926 5.871 c 66.523
 5.57 66.012 5.418 65.387 5.418 c 64.594 5.418 63.965 5.66 63.5 6.145 c 
63.039 6.637 62.812 7.32 62.812 8.195 c 62.812 9.102 63.043 9.809 63.512
 10.309 c 63.988 10.809 64.594 11.059 65.336 11.059 c 66.062 11.059 66.648
 10.812 67.098 10.32 c 67.559 9.828 67.785 9.141 67.785 8.258 c 67.785 8.008
 l 63.762 8.008 l 63.793 7.414 63.961 6.961 64.262 6.645 c 64.562 6.328 
64.938 6.168 65.387 6.168 c 65.727 6.168 66.016 6.258 66.25 6.434 c 66.492
 6.617 66.68 6.898 66.812 7.281 c h
63.812 8.758 m 66.824 8.758 l 66.781 9.215 66.664 9.559 66.473 9.781 c 
66.184 10.133 65.809 10.309 65.348 10.309 c 64.926 10.309 64.57 10.164 64.285
 9.883 c 64.004 9.605 63.844 9.23 63.812 8.758 c h
69.043 5.543 m 69.043 10.934 l 69.867 10.934 l 69.867 10.121 l 70.074 10.504
 70.266 10.754 70.441 10.871 c 70.625 10.996 70.82 11.059 71.027 11.059 
c 71.336 11.059 71.648 10.961 71.965 10.77 c 71.652 9.918 l 71.43 10.055
 71.207 10.121 70.992 10.121 c 70.793 10.121 70.609 10.059 70.441 9.934 
c 70.281 9.816 70.172 9.648 70.105 9.434 c 70.004 9.105 69.953 8.754 69.953
 8.371 c 69.953 5.543 l h
69.043 5.543 m f
490.309 77.504 m 490.309 84.379 l 492.684 84.379 l 493.215 84.379 493.625
 84.348 493.906 84.281 c 494.301 84.188 494.633 84.027 494.906 83.793 c 
495.273 83.484 495.543 83.09 495.719 82.605 c 495.902 82.129 495.996 81.59
 495.996 80.98 c 495.996 80.457 495.934 79.992 495.809 79.594 c 495.691 
79.191 495.535 78.859 495.344 78.594 c 495.152 78.324 494.941 78.117 494.707
 77.969 c 494.48 77.816 494.211 77.699 493.895 77.617 c 493.578 77.543 493.211
 77.504 492.793 77.504 c h
491.219 78.316 m 492.684 78.316 l 493.141 78.316 493.5 78.359 493.758 78.441
 c 494.016 78.527 494.219 78.648 494.371 78.805 c 494.586 79.012 494.754
 79.301 494.871 79.668 c 494.996 80.035 495.059 80.477 495.059 80.992 c 
495.059 81.711 494.938 82.258 494.695 82.645 c 494.461 83.035 494.18 83.297
 493.844 83.43 c 493.594 83.523 493.203 83.566 492.668 83.566 c 491.219 
83.566 l h
491.219 78.316 m f
489.82 66.305 m 492.461 73.18 l 493.434 73.18 l 496.246 66.305 l 495.223
 66.305 l 494.41 68.395 l 491.547 68.395 l 490.785 66.305 l h
491.809 69.129 m 494.133 69.129 l 493.422 71.031 l 493.195 71.605 493.035
 72.082 492.934 72.457 c 492.844 72.012 492.719 71.574 492.559 71.145 c 
h
491.809 69.129 m f
492.59 55.105 m 492.59 61.168 l 490.328 61.168 l 490.328 61.98 l 495.777
 61.98 l 495.777 61.168 l 493.504 61.168 l 493.504 55.105 l h
492.59 55.105 m f
489.82 43.906 m 492.461 50.781 l 493.434 50.781 l 496.246 43.906 l 495.223
 43.906 l 494.41 45.992 l 491.547 45.992 l 490.785 43.906 l h
491.809 46.73 m 494.133 46.73 l 493.422 48.629 l 493.195 49.207 493.035
 49.68 492.934 50.055 c 492.844 49.613 492.719 49.176 492.559 48.742 c h
491.809 46.73 m f
525.207 74.137 m 527.844 81.012 l 528.82 81.012 l 531.633 74.137 l 530.605
 74.137 l 529.793 76.223 l 526.934 76.223 l 526.168 74.137 l h
527.195 76.961 m 529.52 76.961 l 528.809 78.859 l 528.582 79.434 528.418
 79.91 528.32 80.285 c 528.227 79.844 528.102 79.406 527.945 78.973 c h
527.195 76.961 m f
530.605 65.348 m 531.504 65.109 l 531.312 64.367 530.973 63.801 530.48 
63.41 c 529.988 63.02 529.383 62.824 528.668 62.824 c 527.926 62.824 527.32
 62.973 526.855 63.273 c 526.387 63.574 526.035 64.004 525.793 64.574 c 
525.551 65.148 525.43 65.766 525.43 66.422 c 525.43 67.141 525.566 67.766
 525.844 68.297 c 526.117 68.832 526.504 69.234 527.004 69.512 c 527.512
 69.785 528.07 69.922 528.68 69.922 c 529.363 69.922 529.938 69.746 530.406
 69.398 c 530.879 69.047 531.207 68.555 531.391 67.922 c 530.492 67.711 
l 530.332 68.211 530.102 68.574 529.793 68.797 c 529.492 69.031 529.113 
69.148 528.656 69.148 c 528.129 69.148 527.688 69.02 527.328 68.762 c 526.98
 68.512 526.73 68.172 526.578 67.746 c 526.438 67.324 526.367 66.879 526.367
 66.422 c 526.367 65.84 526.449 65.332 526.617 64.898 c 526.793 64.465 527.059
 64.141 527.418 63.922 c 527.773 63.707 528.168 63.598 528.594 63.598 c 
529.102 63.598 529.531 63.742 529.879 64.035 c 530.238 64.328 530.48 64.766
 530.605 65.348 c h
530.605 65.348 m f
525.918 51.734 m 525.918 58.609 l 526.832 58.609 l 526.832 55.199 l 530.246
 58.609 l 531.48 58.609 l 528.594 55.824 l 531.605 51.734 l 530.406 51.734
 l 527.957 55.211 l 526.832 54.121 l 526.832 51.734 l h
525.918 51.734 m f
0.8 g
359.422 40.094 44.066 -29.531 re f
0 g
1 j
q 1 0 0 -1 0 136 cm
359.422 95.906 44.066 29.531 re S Q
1 g
403.066 40.094 12.422 -29.531 re f
0 g
q 1 0 0 -1 0 136 cm
403.066 95.906 12.422 29.531 re S Q
1 g
158.234 25.328 m 158.234 30.449 162.383 34.598 167.496 34.598 c 169.953
 34.598 172.309 33.621 174.043 31.883 c 175.781 30.145 176.758 27.785 176.758
 25.328 c 176.758 20.207 172.609 16.055 167.496 16.055 c 162.383 16.055 
158.234 20.207 158.234 25.328 c h
158.234 25.328 m f
0 g
1.6 w
q 1 0 0 -1 0 136 cm
158.234 110.672 m 158.234 105.551 162.383 101.402 167.496 101.402 c 169.953
 101.402 172.309 102.379 174.043 104.117 c 175.781 105.855 176.758 108.215
 176.758 110.672 c 176.758 115.793 172.609 119.945 167.496 119.945 c 162.383
 119.945 158.234 115.793 158.234 110.672 c h
158.234 110.672 m S Q
168.465 21.711 m 167.625 21.711 l 167.625 27.086 l 167.418 26.895 167.148
 26.699 166.812 26.5 c 166.488 26.309 166.199 26.164 165.938 26.074 c 165.938
 26.887 l 166.406 27.109 166.812 27.379 167.164 27.688 c 167.523 28.004 
167.777 28.312 167.926 28.609 c 168.465 28.609 l h
168.465 21.711 m f
1 g
401.539 105.285 m 401.539 110.406 405.688 114.559 410.801 114.559 c 413.258
 114.559 415.613 113.582 417.348 111.84 c 419.086 110.102 420.059 107.746
 420.059 105.285 c 420.059 100.164 415.914 96.012 410.801 96.012 c 405.688
 96.012 401.539 100.164 401.539 105.285 c h
401.539 105.285 m f
0 g
q 1 0 0 -1 0 136 cm
401.539 30.715 m 401.539 25.594 405.688 21.441 410.801 21.441 c 413.258
 21.441 415.613 22.418 417.348 24.16 c 419.086 25.898 420.059 28.254 420.059
 30.715 c 420.059 35.836 415.914 39.988 410.801 39.988 c 405.688 39.988 
401.539 35.836 401.539 30.715 c h
401.539 30.715 m S Q
413.031 102.48 m 413.031 101.668 l 408.48 101.668 l 408.48 101.867 408.516
 102.066 408.582 102.258 c 408.699 102.566 408.883 102.867 409.133 103.168
 c 409.391 103.469 409.762 103.816 410.242 104.207 c 410.992 104.824 411.496
 105.312 411.758 105.668 c 412.023 106.027 412.156 106.363 412.156 106.68
 c 412.156 107.016 412.035 107.293 411.793 107.52 c 411.551 107.754 411.238
 107.867 410.855 107.867 c 410.449 107.867 410.121 107.75 409.883 107.508
 c 409.641 107.266 409.516 106.926 409.508 106.492 c 408.645 106.582 l 408.703
 107.23 408.922 107.723 409.305 108.055 c 409.699 108.398 410.223 108.57
 410.883 108.57 c 411.539 108.57 412.059 108.387 412.445 108.02 c 412.828
 107.652 413.02 107.199 413.02 106.656 c 413.02 106.383 412.961 106.109 
412.844 105.844 c 412.734 105.586 412.547 105.305 412.281 105.008 c 412.023
 104.715 411.594 104.316 410.992 103.805 c 410.484 103.383 410.156 103.09
 410.008 102.93 c 409.863 102.781 409.746 102.633 409.656 102.48 c h
413.031 102.48 m f
1 g
531.773 29.699 m 531.773 34.82 535.918 38.973 541.031 38.973 c 543.488 
38.973 545.844 37.996 547.578 36.258 c 549.316 34.52 550.293 32.16 550.293
 29.699 c 550.293 24.578 546.145 20.43 541.031 20.43 c 535.918 20.43 531.773
 24.578 531.773 29.699 c h
531.773 29.699 m f
0 g
q 1 0 0 -1 0 136 cm
531.773 106.301 m 531.773 101.18 535.918 97.027 541.031 97.027 c 543.488
 97.027 545.844 98.004 547.578 99.742 c 549.316 101.48 550.293 103.84 550.293
 106.301 c 550.293 111.422 546.145 115.57 541.031 115.57 c 535.918 115.57
 531.773 111.422 531.773 106.301 c h
531.773 106.301 m S Q
538.824 27.898 m 539.676 28.012 l 539.766 27.535 539.93 27.188 540.164 
26.973 c 540.395 26.766 540.68 26.66 541.012 26.66 c 541.414 26.66 541.75
 26.797 542.023 27.074 c 542.301 27.348 542.438 27.688 542.438 28.098 c 
542.438 28.48 542.309 28.797 542.051 29.047 c 541.801 29.305 541.48 29.434
 541.086 29.434 c 540.93 29.434 540.73 29.402 540.488 29.336 c 540.586 30.086
 l 540.645 30.078 540.691 30.074 540.727 30.074 c 541.082 30.074 541.402
 30.164 541.688 30.348 c 541.98 30.539 542.125 30.832 542.125 31.223 c 542.125
 31.531 542.02 31.785 541.812 31.984 c 541.605 32.191 541.332 32.297 541
 32.297 c 540.676 32.297 540.398 32.191 540.176 31.984 c 539.957 31.777 
539.82 31.469 539.762 31.059 c 538.914 31.211 l 539.012 31.77 539.246 32.203
 539.613 32.512 c 539.98 32.828 540.434 32.984 540.977 32.984 c 541.352 
32.984 541.695 32.902 542.012 32.734 c 542.328 32.578 542.57 32.359 542.738
 32.086 c 542.902 31.809 542.988 31.516 542.988 31.199 c 542.988 30.906 
542.91 30.637 542.75 30.387 c 542.59 30.145 542.359 29.953 542.051 29.809
 c 542.449 29.719 542.762 29.523 542.988 29.223 c 543.211 28.93 543.324 
28.559 543.324 28.109 c 543.324 27.512 543.105 27 542.664 26.586 c 542.23
 26.168 541.68 25.961 541.012 25.961 c 540.414 25.961 539.914 26.141 539.512
 26.496 c 539.113 26.863 538.883 27.332 538.824 27.898 c h
538.824 27.898 m f
0.8 w
q 1 0 0 -1 0 136 cm
76.32 125.516 m 559.27 125.516 l S Q
q 1 0 0 -1 0 136 cm
428.695 22.258 m 428.695 43.227 l S Q
428.695 92.773 m 427.793 93.676 l 428.695 91.203 l 429.594 93.676 l h
428.695 92.773 m f*
0 j
q 1 0 0 -1 0 136 cm
428.695 43.227 m 427.793 42.324 l 428.695 44.797 l 429.594 42.324 l h
428.695 43.227 m S Q
0.8 g
471 120.051 44.07 -29.531 re f
0 g
1 j
q 1 0 0 -1 0 136 cm
471 15.949 44.07 29.531 re S Q
1 g
102.195 105.285 m 102.195 110.406 106.34 114.559 111.453 114.559 c 113.91
 114.559 116.266 113.582 118 111.84 c 119.738 110.102 120.715 107.746 120.715
 105.285 c 120.715 100.164 116.566 96.012 111.453 96.012 c 106.34 96.012
 102.195 100.164 102.195 105.285 c h
102.195 105.285 m f
0 g
1.6 w
q 1 0 0 -1 0 136 cm
102.195 30.715 m 102.195 25.594 106.34 21.441 111.453 21.441 c 113.91 21.441
 116.266 22.418 118 24.16 c 119.738 25.898 120.715 28.254 120.715 30.715
 c 120.715 35.836 116.566 39.988 111.453 39.988 c 106.34 39.988 102.195 
35.836 102.195 30.715 c h
102.195 30.715 m S Q
113.684 102.48 m 113.684 101.668 l 109.133 101.668 l 109.133 101.867 109.168
 102.066 109.234 102.258 c 109.352 102.566 109.535 102.867 109.785 103.168
 c 110.043 103.469 110.414 103.816 110.898 104.207 c 111.648 104.824 112.152
 105.312 112.41 105.668 c 112.676 106.027 112.809 106.363 112.809 106.68
 c 112.809 107.016 112.688 107.293 112.445 107.52 c 112.203 107.754 111.891
 107.867 111.508 107.867 c 111.102 107.867 110.777 107.75 110.535 107.508
 c 110.293 107.266 110.168 106.926 110.16 106.492 c 109.297 106.582 l 109.355
 107.23 109.574 107.723 109.961 108.055 c 110.352 108.398 110.875 108.57
 111.535 108.57 c 112.191 108.57 112.715 108.387 113.098 108.02 c 113.48
 107.652 113.672 107.199 113.672 106.656 c 113.672 106.383 113.613 106.109
 113.496 105.844 c 113.387 105.586 113.199 105.305 112.934 105.008 c 112.676
 104.715 112.246 104.316 111.648 103.805 c 111.137 103.383 110.809 103.09
 110.66 102.93 c 110.516 102.781 110.402 102.633 110.309 102.48 c h
113.684 102.48 m f
0.8 g
515.125 40.094 12.094 -29.531 re f
0 g
0.8 w
q 1 0 0 -1 0 136 cm
515.125 95.906 12.094 29.531 re S Q
0.8 g
303.629 40.094 44.066 -29.531 re f
0 g
q 1 0 0 -1 0 136 cm
303.629 95.906 44.066 29.531 re S Q
1 g
347.277 40.094 12.422 -29.531 re f
0 g
q 1 0 0 -1 0 136 cm
347.277 95.906 12.422 29.531 re S Q
0.8 g
247.836 40.094 44.07 -29.531 re f
0 g
q 1 0 0 -1 0 136 cm
247.836 95.906 44.07 29.531 re S Q
1 g
291.484 40.094 12.422 -29.531 re f
0 g
q 1 0 0 -1 0 136 cm
291.484 95.906 12.422 29.531 re S Q
0.8 g
192.043 40.094 44.07 -29.531 re f
0 g
q 1 0 0 -1 0 136 cm
192.043 95.906 44.07 29.531 re S Q
1 g
235.691 40.094 12.422 -29.531 re f
0 g
q 1 0 0 -1 0 136 cm
235.691 95.906 12.422 29.531 re S Q
168.332 47.461 m 168.332 53.523 l 166.07 53.523 l 166.07 54.336 l 171.52
 54.336 l 171.52 53.523 l 169.246 53.523 l 169.246 47.461 l h
171.785 47.461 m 173.598 50.051 l 171.922 52.438 l 172.973 52.438 l 173.734
 51.273 l 173.875 51.051 173.992 50.863 174.086 50.711 c 174.219 50.922 
174.344 51.105 174.461 51.262 c 175.297 52.438 l 176.309 52.438 l 174.586
 50.102 l 176.434 47.461 l 175.41 47.461 l 174.387 49.012 l 174.109 49.426
 l 172.797 47.461 l h
184.828 49.875 m 185.727 49.637 l 185.535 48.895 185.195 48.328 184.703
 47.938 c 184.211 47.547 183.605 47.352 182.891 47.352 c 182.148 47.352 
181.543 47.5 181.078 47.801 c 180.609 48.102 180.258 48.531 180.016 49.102
 c 179.773 49.676 179.652 50.293 179.652 50.949 c 179.652 51.668 179.789
 52.293 180.066 52.824 c 180.34 53.359 180.727 53.762 181.227 54.039 c 181.734
 54.312 182.293 54.449 182.902 54.449 c 183.586 54.449 184.16 54.273 184.629
 53.926 c 185.102 53.574 185.43 53.082 185.613 52.449 c 184.715 52.238 l
 184.555 52.738 184.324 53.102 184.016 53.324 c 183.715 53.559 183.336 53.676
 182.879 53.676 c 182.352 53.676 181.91 53.547 181.551 53.289 c 181.203 
53.039 180.953 52.699 180.801 52.273 c 180.66 51.852 180.59 51.406 180.59
 50.949 c 180.59 50.367 180.672 49.859 180.84 49.426 c 181.016 48.992 181.281
 48.668 181.641 48.449 c 181.996 48.234 182.391 48.125 182.816 48.125 c 
183.324 48.125 183.754 48.27 184.102 48.562 c 184.461 48.855 184.703 49.293
 184.828 49.875 c h
191.762 49.875 m 192.66 49.637 l 192.469 48.895 192.125 48.328 191.637 
47.938 c 191.145 47.547 190.539 47.352 189.824 47.352 c 189.082 47.352 188.477
 47.5 188.012 47.801 c 187.543 48.102 187.188 48.531 186.949 49.102 c 186.707
 49.676 186.586 50.293 186.586 50.949 c 186.586 51.668 186.723 52.293 186.996
 52.824 c 187.273 53.359 187.66 53.762 188.16 54.039 c 188.668 54.312 189.227
 54.449 189.836 54.449 c 190.52 54.449 191.094 54.273 191.559 53.926 c 192.035
 53.574 192.363 53.082 192.547 52.449 c 191.648 52.238 l 191.488 52.738 
191.254 53.102 190.949 53.324 c 190.648 53.559 190.27 53.676 189.809 53.676
 c 189.285 53.676 188.844 53.547 188.484 53.289 c 188.137 53.039 187.887
 52.699 187.734 52.273 c 187.594 51.852 187.523 51.406 187.523 50.949 c 
187.523 50.367 187.605 49.859 187.773 49.426 c 187.949 48.992 188.215 48.668
 188.574 48.449 c 188.93 48.234 189.324 48.125 189.746 48.125 c 190.254 
48.125 190.684 48.27 191.035 48.562 c 191.395 48.855 191.637 49.293 191.762
 49.875 c h
193.031 47.461 m 195.668 54.336 l 196.645 54.336 l 199.457 47.461 l 198.43
 47.461 l 197.617 49.551 l 194.754 49.551 l 193.992 47.461 l h
195.02 50.289 m 197.344 50.289 l 196.629 52.188 l 196.406 52.762 196.242
 53.238 196.145 53.613 c 196.051 53.172 195.926 52.734 195.77 52.301 c h
195.02 50.289 m f
q 1 0 0 -1 0 136 cm
182.543 98.816 m 182.543 119.785 l S Q
182.543 16.215 m 181.645 17.113 l 182.543 14.641 l 183.441 17.113 l h
182.543 16.215 m f*
0 j
q 1 0 0 -1 0 136 cm
182.543 119.785 m 181.645 118.887 l 182.543 121.359 l 183.441 118.887 l
 h
182.543 119.785 m S Q
76.957 119.586 m 76.957 126.461 l 80.008 126.461 l 80.625 126.461 81.09
 126.398 81.406 126.273 c 81.727 126.148 81.98 125.926 82.172 125.609 c 
82.363 125.301 82.457 124.961 82.457 124.586 c 82.457 124.094 82.301 123.68
 81.984 123.348 c 81.668 123.012 81.18 122.801 80.52 122.711 c 80.762 122.594
 80.945 122.48 81.07 122.371 c 81.336 122.129 81.586 121.824 81.82 121.461
 c 83.02 119.586 l 81.871 119.586 l 80.969 121.008 l 80.703 121.426 80.484
 121.742 80.309 121.961 c 80.141 122.176 79.988 122.324 79.844 122.41 c 
79.711 122.5 79.574 122.566 79.434 122.609 c 79.332 122.625 79.168 122.633
 78.934 122.633 c 77.871 122.633 l 77.871 119.586 l h
77.871 123.422 m 79.832 123.422 l 80.242 123.422 80.562 123.465 80.797 
123.547 c 81.039 123.637 81.215 123.777 81.332 123.961 c 81.457 124.152 
81.52 124.359 81.52 124.586 c 81.52 124.91 81.398 125.176 81.156 125.383
 c 80.926 125.594 80.555 125.695 80.047 125.695 c 77.871 125.695 l h
83.215 119.586 m 85.027 122.172 l 83.352 124.559 l 84.402 124.559 l 85.164
 123.398 l 85.309 123.172 85.426 122.984 85.516 122.836 c 85.648 123.043
 85.773 123.227 85.891 123.383 c 86.727 124.559 l 87.742 124.559 l 86.016
 122.223 l 87.867 119.586 l 86.84 119.586 l 85.816 121.133 l 85.539 121.547
 l 84.227 119.586 l h
96.258 121.996 m 97.156 121.758 l 96.965 121.016 96.625 120.449 96.133 
120.059 c 95.641 119.668 95.039 119.473 94.32 119.473 c 93.578 119.473 92.977
 119.621 92.508 119.922 c 92.043 120.223 91.688 120.656 91.445 121.223 c
 91.203 121.797 91.082 122.414 91.082 123.07 c 91.082 123.789 91.219 124.414
 91.496 124.945 c 91.77 125.48 92.156 125.883 92.656 126.16 c 93.168 126.434
 93.727 126.57 94.332 126.57 c 95.016 126.57 95.59 126.398 96.059 126.047
 c 96.531 125.695 96.863 125.203 97.047 124.57 c 96.145 124.359 l 95.988
 124.859 95.754 125.223 95.445 125.445 c 95.145 125.68 94.766 125.797 94.309
 125.797 c 93.781 125.797 93.34 125.668 92.984 125.41 c 92.633 125.16 92.383
 124.82 92.234 124.398 c 92.09 123.973 92.02 123.531 92.02 123.07 c 92.02
 122.488 92.105 121.98 92.27 121.547 c 92.445 121.113 92.711 120.789 93.07
 120.57 c 93.43 120.355 93.82 120.246 94.246 120.246 c 94.754 120.246 95.184
 120.391 95.531 120.684 c 95.891 120.977 96.133 121.414 96.258 121.996 c
 h
103.191 121.996 m 104.09 121.758 l 103.898 121.016 103.559 120.449 103.066
 120.059 c 102.574 119.668 101.969 119.473 101.254 119.473 c 100.512 119.473
 99.906 119.621 99.441 119.922 c 98.973 120.223 98.621 120.656 98.379 121.223
 c 98.137 121.797 98.016 122.414 98.016 123.07 c 98.016 123.789 98.152 124.414
 98.43 124.945 c 98.703 125.48 99.09 125.883 99.59 126.16 c 100.098 126.434
 100.656 126.57 101.266 126.57 c 101.949 126.57 102.523 126.398 102.992 
126.047 c 103.465 125.695 103.797 125.203 103.977 124.57 c 103.078 124.359
 l 102.922 124.859 102.688 125.223 102.379 125.445 c 102.078 125.68 101.699
 125.797 101.242 125.797 c 100.715 125.797 100.273 125.668 99.914 125.41
 c 99.566 125.16 99.316 124.82 99.164 124.398 c 99.023 123.973 98.953 123.531
 98.953 123.07 c 98.953 122.488 99.035 121.98 99.203 121.547 c 99.379 121.113
 99.645 120.789 100.004 120.57 c 100.363 120.355 100.754 120.246 101.18 
120.246 c 101.688 120.246 102.117 120.391 102.465 120.684 c 102.824 120.977
 103.066 121.414 103.191 121.996 c h
104.461 119.586 m 107.098 126.461 l 108.074 126.461 l 110.887 119.586 l
 109.859 119.586 l 109.047 121.672 l 106.188 121.672 l 105.422 119.586 l
 h
106.449 122.41 m 108.773 122.41 l 108.062 124.309 l 107.836 124.883 107.672
 125.359 107.574 125.734 c 107.48 125.293 107.355 124.855 107.199 124.422
 c h
106.449 122.41 m f
392.695 119.586 m 392.695 126.461 l 395.742 126.461 l 396.359 126.461 396.828
 126.398 397.145 126.273 c 397.461 126.148 397.715 125.926 397.906 125.609
 c 398.098 125.301 398.195 124.961 398.195 124.586 c 398.195 124.094 398.035
 123.68 397.719 123.348 c 397.402 123.012 396.914 122.801 396.258 122.711
 c 396.496 122.594 396.68 122.48 396.805 122.371 c 397.074 122.129 397.324
 121.824 397.555 121.461 c 398.758 119.586 l 397.605 119.586 l 396.707 121.008
 l 396.438 121.426 396.219 121.742 396.043 121.961 c 395.875 122.176 395.723
 122.324 395.582 122.41 c 395.449 122.5 395.309 122.566 395.168 122.609 
c 395.07 122.625 394.902 122.633 394.668 122.633 c 393.605 122.633 l 393.605
 119.586 l h
393.605 123.422 m 395.57 123.422 l 395.977 123.422 396.297 123.465 396.531
 123.547 c 396.773 123.637 396.953 123.777 397.07 123.961 c 397.195 124.152
 397.258 124.359 397.258 124.586 c 397.258 124.91 397.137 125.176 396.895
 125.383 c 396.66 125.594 396.289 125.695 395.781 125.695 c 393.605 125.695
 l h
398.953 119.586 m 400.766 122.172 l 399.09 124.559 l 400.141 124.559 l 
400.902 123.398 l 401.043 123.172 401.16 122.984 401.25 122.836 c 401.383
 123.043 401.508 123.227 401.625 123.383 c 402.465 124.559 l 403.477 124.559
 l 401.75 122.223 l 403.602 119.586 l 402.578 119.586 l 401.551 121.133 
l 401.277 121.547 l 399.965 119.586 l h
411.992 121.996 m 412.895 121.758 l 412.703 121.016 412.359 120.449 411.867
 120.059 c 411.375 119.668 410.773 119.473 410.055 119.473 c 409.312 119.473
 408.711 119.621 408.242 119.922 c 407.777 120.223 407.422 120.656 407.18
 121.223 c 406.938 121.797 406.82 122.414 406.82 123.07 c 406.82 123.789
 406.957 124.414 407.23 124.945 c 407.508 125.48 407.895 125.883 408.395
 126.16 c 408.902 126.434 409.461 126.57 410.07 126.57 c 410.75 126.57 411.328
 126.398 411.793 126.047 c 412.27 125.695 412.598 125.203 412.781 124.57
 c 411.883 124.359 l 411.723 124.859 411.488 125.223 411.18 125.445 c 410.883
 125.68 410.5 125.797 410.043 125.797 c 409.52 125.797 409.078 125.668 408.719
 125.41 c 408.367 125.16 408.117 124.82 407.969 124.398 c 407.828 123.973
 407.758 123.531 407.758 123.07 c 407.758 122.488 407.84 121.98 408.008 
121.547 c 408.18 121.113 408.449 120.789 408.805 120.57 c 409.164 120.355
 409.555 120.246 409.98 120.246 c 410.488 120.246 410.918 120.391 411.27
 120.684 c 411.625 120.977 411.867 121.414 411.992 121.996 c h
418.926 121.996 m 419.828 121.758 l 419.633 121.016 419.293 120.449 418.801
 120.059 c 418.309 119.668 417.707 119.473 416.988 119.473 c 416.246 119.473
 415.645 119.621 415.176 119.922 c 414.711 120.223 414.355 120.656 414.113
 121.223 c 413.871 121.797 413.75 122.414 413.75 123.07 c 413.75 123.789
 413.891 124.414 414.164 124.945 c 414.438 125.48 414.828 125.883 415.328
 126.16 c 415.836 126.434 416.395 126.57 417 126.57 c 417.684 126.57 418.258
 126.398 418.727 126.047 c 419.203 125.695 419.531 125.203 419.715 124.57
 c 418.812 124.359 l 418.656 124.859 418.422 125.223 418.113 125.445 c 417.812
 125.68 417.434 125.797 416.977 125.797 c 416.453 125.797 416.008 125.668
 415.652 125.41 c 415.301 125.16 415.051 124.82 414.902 124.398 c 414.758
 123.973 414.688 123.531 414.688 123.07 c 414.688 122.488 414.773 121.98
 414.938 121.547 c 415.113 121.113 415.379 120.789 415.738 120.57 c 416.098
 120.355 416.488 120.246 416.914 120.246 c 417.422 120.246 417.852 120.391
 418.203 120.684 c 418.559 120.977 418.801 121.414 418.926 121.996 c h
420.195 119.586 m 422.836 126.461 l 423.809 126.461 l 426.621 119.586 l
 425.598 119.586 l 424.785 121.672 l 421.922 121.672 l 421.16 119.586 l 
h
422.184 122.41 m 424.508 122.41 l 423.797 124.309 l 423.57 124.883 423.41
 125.359 423.309 125.734 c 423.219 125.293 423.094 124.855 422.934 124.422
 c h
422.184 122.41 m f
  Q
Q
Q Q
showpage
%%Trailer
end restore
%%EOF
