%!PS-Adobe-3.0 EPSF-3.0
%%Creator: cairo 1.10.2 (http://cairographics.org)
%%CreationDate: Thu Nov 12 12:26:28 2015
%%Pages: 1
%%BoundingBox: 0 -1 503 136
%%DocumentData: Clean7Bit
%%LanguageLevel: 2
%%EndComments
%%BeginProlog
/cairo_eps_state save def
/dict_count countdictstack def
/op_count count 1 sub def
userdict begin
/q { gsave } bind def
/Q { grestore } bind def
/cm { 6 array astore concat } bind def
/w { setlinewidth } bind def
/J { setlinecap } bind def
/j { setlinejoin } bind def
/M { setmiterlimit } bind def
/d { setdash } bind def
/m { moveto } bind def
/l { lineto } bind def
/c { curveto } bind def
/h { closepath } bind def
/re { exch dup neg 3 1 roll 5 3 roll moveto 0 rlineto
      0 exch rlineto 0 rlineto closepath } bind def
/S { stroke } bind def
/f { fill } bind def
/f* { eofill } bind def
/n { newpath } bind def
/W { clip } bind def
/W* { eoclip } bind def
/BT { } bind def
/ET { } bind def
/pdfmark where { pop globaldict /?pdfmark /exec load put }
    { globaldict begin /?pdfmark /pop load def /pdfmark
    /cleartomark load def end } ifelse
/BDC { mark 3 1 roll /BDC pdfmark } bind def
/EMC { mark /EMC pdfmark } bind def
/cairo_store_point { /cairo_point_y exch def /cairo_point_x exch def } def
/Tj { show currentpoint cairo_store_point } bind def
/TJ {
  {
    dup
    type /stringtype eq
    { show } { -0.001 mul 0 cairo_font_matrix dtransform rmoveto } ifelse
  } forall
  currentpoint cairo_store_point
} bind def
/cairo_selectfont { cairo_font_matrix aload pop pop pop 0 0 6 array astore
    cairo_font exch selectfont cairo_point_x cairo_point_y moveto } bind def
/Tf { pop /cairo_font exch def /cairo_font_matrix where
      { pop cairo_selectfont } if } bind def
/Td { matrix translate cairo_font_matrix matrix concatmatrix dup
      /cairo_font_matrix exch def dup 4 get exch 5 get cairo_store_point
      /cairo_font where { pop cairo_selectfont } if } bind def
/Tm { 2 copy 8 2 roll 6 array astore /cairo_font_matrix exch def
      cairo_store_point /cairo_font where { pop cairo_selectfont } if } bind def
/g { setgray } bind def
/rg { setrgbcolor } bind def
/d1 { setcachedevice } bind def
%%EndProlog
%%Page: 1 1
%%BeginPageSetup
%%PageBoundingBox: 0 -1 503 136
%%EndPageSetup
q 0 -1 503 137 rectclip q
0 135.498 502.004 -135.5 re W n
q
0 135.498 502 -135 re W n
[ 1 0 0 1 -0 -0.501846 ] concat
  q
Q q
0 g
0.8 w
0 J
1 j
[] 0.0 d
10 M q 1 0 0 -1 0 136 cm
77.602 45.48 m 483.648 45.48 l S Q
q 1 0 0 -1 0 136 cm
91.316 22.258 m 91.316 43.227 l S Q
91.316 92.773 m 90.418 93.676 l 91.316 91.203 l 92.215 93.676 l h
91.316 92.773 m f*
0 j
q 1 0 0 -1 0 136 cm
91.316 43.227 m 90.418 42.324 l 91.316 44.797 l 92.215 42.324 l h
91.316 43.227 m S Q
1 j
q 1 0 0 -1 0 136 cm
112.625 22.258 m 112.625 43.227 l S Q
112.625 92.773 m 111.727 93.676 l 112.625 91.203 l 113.527 93.676 l h
112.625 92.773 m f*
0 j
q 1 0 0 -1 0 136 cm
112.625 43.227 m 111.727 42.324 l 112.625 44.797 l 113.527 42.324 l h
112.625 43.227 m S Q
1 j
q 1 0 0 -1 0 136 cm
161.621 100.52 m 161.621 122.773 l S Q
161.621 13.227 m 160.723 14.129 l 161.621 11.656 l 162.52 14.129 l h
161.621 13.227 m f*
0 j
q 1 0 0 -1 0 136 cm
161.621 122.773 m 160.723 121.871 l 161.621 124.344 l 162.52 121.871 l 
h
161.621 122.773 m S Q
0.8 g
355.629 40.094 44.066 -29.531 re f
0 g
1 j
q 1 0 0 -1 0 136 cm
355.629 95.906 44.066 29.531 re S Q
q 1 0 0 -1 0 136 cm
293.059 73.137 m 293.059 93.176 l S Q
293.059 42.824 m 292.16 43.727 l 293.059 41.254 l 293.957 43.727 l h
293.059 42.824 m f*
0 j
q 1 0 0 -1 0 136 cm
293.059 93.176 m 292.16 92.273 l 293.059 94.746 l 293.957 92.273 l h
293.059 93.176 m S Q
1 j
q 1 0 0 -1 0 136 cm
348.93 71.73 m 348.93 91.766 l S Q
348.93 44.234 m 348.027 45.133 l 348.93 42.664 l 349.828 45.133 l h
348.93 44.234 m f*
0 j
q 1 0 0 -1 0 136 cm
348.93 91.766 m 348.027 90.867 l 348.93 93.336 l 349.828 90.867 l h
348.93 91.766 m S Q
0.8 g
411.152 40.094 44.07 -29.531 re f
0 g
1 j
q 1 0 0 -1 0 136 cm
411.152 95.906 44.07 29.531 re S Q
q 1 0 0 -1 0 136 cm
405.328 71.73 m 405.328 91.766 l S Q
405.328 44.234 m 404.43 45.133 l 405.328 42.66 l 406.23 45.133 l h
405.328 44.234 m f*
0 j
q 1 0 0 -1 0 136 cm
405.328 91.766 m 404.43 90.867 l 405.328 93.34 l 406.23 90.867 l h
405.328 91.766 m S Q
1 g
383.031 120.051 72.188 -29.531 re f
0 g
1 j
q 1 0 0 -1 0 136 cm
383.031 15.949 72.188 29.531 re S Q
1 g
399.008 40.094 12.094 -29.531 re f
0 g
q 1 0 0 -1 0 136 cm
399.008 95.906 12.094 29.531 re S Q
1 g
454.801 40.094 12.094 -29.531 re f
0 g
q 1 0 0 -1 0 136 cm
454.801 95.906 12.094 29.531 re S Q
[ 3.2 2.4] 0 d
q 1 0 0 -1 0 136 cm
423.316 93.871 m 423.086 50.242 l S Q
424.41 85.762 m 423.07 89.387 l 421.766 85.75 l h
424.41 85.762 m f*
0 j
[] 0.0 d
q 1 0 0 -1 0 136 cm
424.41 50.238 m 423.07 46.613 l 421.766 50.25 l h
424.41 50.238 m S Q
1 j
[ 3.2 2.4] 0 d
q 1 0 0 -1 0 136 cm
442.648 93.871 m 442.422 50.242 l S Q
443.742 85.762 m 442.402 89.387 l 441.102 85.75 l h
443.742 85.762 m f*
0 j
[] 0.0 d
q 1 0 0 -1 0 136 cm
443.742 50.238 m 442.402 46.613 l 441.102 50.25 l h
443.742 50.238 m S Q
0.8 g
454.801 120.051 12.094 -29.531 re f
0 g
1 j
q 1 0 0 -1 0 136 cm
454.801 15.949 12.094 29.531 re S Q
[ 3.2 2.4] 0 d
q 1 0 0 -1 0 136 cm
461.734 89.352 m 461.734 46.453 l S Q
460.41 46.648 m 461.734 43.02 l 463.055 46.648 l h
460.41 46.648 m f*
0 j
[] 0.0 d
q 1 0 0 -1 0 136 cm
460.41 89.352 m 461.734 92.98 l 463.055 89.352 l h
460.41 89.352 m S Q
30.656 86.68 m 30.656 94.129 l 33.957 94.129 l 34.625 94.129 35.129 
94.059 35.469 93.918 c 35.82 93.785 36.098 93.547 36.309 93.207 c 
36.516 92.871 36.621 92.5 36.621 92.094 c 36.621 91.566 36.445 91.121 
36.094 90.754 c 35.754 90.398 35.227 90.168 34.52 90.066 c 34.777 
89.941 34.973 89.816 35.109 89.691 c 35.398 89.434 35.676 89.105 35.934 
88.707 c 37.219 86.68 l 35.984 86.68 l 34.996 88.23 l 34.711 88.68 
34.473 89.023 34.281 89.254 c 34.098 89.488 33.934 89.652 33.781 89.742 
c 33.641 89.844 33.496 89.914 33.344 89.957 c 33.227 89.973 33.047 
89.98 32.797 89.98 c 31.645 89.98 l 31.645 86.68 l h
31.645 90.844 m 33.77 90.844 l 34.219 90.844 34.57 90.891 34.82 90.98 c 
35.078 91.074 35.27 91.219 35.395 91.418 c 35.527 91.625 35.594 91.852 
35.594 92.094 c 35.594 92.441 35.465 92.73 35.207 92.957 c 34.957 
93.188 34.559 93.305 34.008 93.305 c 31.645 93.305 l h
41.922 88.418 m 42.871 88.305 l 42.719 87.746 42.441 87.312 42.031 
87.004 c 41.633 86.707 41.121 86.555 40.496 86.555 c 39.703 86.555 
39.074 86.797 38.609 87.281 c 38.148 87.773 37.922 88.457 37.922 89.332 
c 37.922 90.238 38.152 90.941 38.621 91.441 c 39.094 91.941 39.703 
92.191 40.445 92.191 c 41.172 92.191 41.758 91.949 42.207 91.457 c 
42.664 90.965 42.895 90.277 42.895 89.395 c 42.895 89.145 l 38.871 
89.145 l 38.902 88.551 39.07 88.098 39.371 87.781 c 39.672 87.465 
40.047 87.305 40.496 87.305 c 40.836 87.305 41.125 87.395 41.359 87.566 
c 41.598 87.75 41.785 88.035 41.922 88.418 c h
38.922 89.895 m 41.934 89.895 l 41.891 90.352 41.773 90.691 41.582 
90.918 c 41.289 91.27 40.914 91.441 40.457 91.441 c 40.031 91.441 39.68 
91.301 39.395 91.02 c 39.113 90.742 38.953 90.367 38.922 89.895 c h
47.676 88.656 m 48.574 88.543 l 48.484 87.918 48.234 87.43 47.824 
87.082 c 47.418 86.73 46.922 86.555 46.336 86.555 c 45.598 86.555 45 
86.797 44.551 87.281 c 44.109 87.766 43.887 88.457 43.887 89.355 c 
43.887 89.938 43.984 90.449 44.176 90.879 c 44.367 91.324 44.66 91.652 
45.051 91.867 c 45.441 92.086 45.871 92.191 46.336 92.191 c 46.922 
92.191 47.398 92.043 47.773 91.742 c 48.148 91.453 48.387 91.035 48.488 
90.492 c 47.602 90.355 l 47.516 90.715 47.367 90.984 47.148 91.168 c 
46.941 91.352 46.684 91.441 46.375 91.441 c 45.918 91.441 45.543 91.277 
45.25 90.941 c 44.965 90.617 44.824 90.098 44.824 89.379 c 44.824 
88.656 44.961 88.125 45.238 87.793 c 45.512 87.469 45.875 87.305 46.324 
87.305 c 46.684 87.305 46.984 87.414 47.227 87.629 c 47.465 87.855 
47.617 88.199 47.676 88.656 c h
53.18 88.418 m 54.133 88.305 l 53.98 87.746 53.703 87.312 53.293 87.004 
c 52.895 86.707 52.383 86.555 51.758 86.555 c 50.965 86.555 50.336 
86.797 49.867 87.281 c 49.41 87.773 49.18 88.457 49.18 89.332 c 49.18 
90.238 49.414 90.941 49.883 91.441 c 50.355 91.941 50.965 92.191 51.707 
92.191 c 52.43 92.191 53.02 91.949 53.469 91.457 c 53.926 90.965 54.156 
90.277 54.156 89.395 c 54.156 89.145 l 50.133 89.145 l 50.164 88.551 
50.332 88.098 50.633 87.781 c 50.93 87.465 51.305 87.305 51.758 87.305 
c 52.098 87.305 52.387 87.395 52.617 87.566 c 52.859 87.75 53.047 
88.035 53.18 88.418 c h
50.18 89.895 m 53.195 89.895 l 53.152 90.352 53.035 90.691 52.844 
90.918 c 52.551 91.27 52.176 91.441 51.719 91.441 c 51.293 91.441 
50.941 91.301 50.656 91.02 c 50.371 90.742 50.215 90.367 50.18 89.895 c 
h
55.422 93.066 m 55.422 94.129 l 56.336 94.129 l 56.336 93.066 l h
55.422 86.68 m 55.422 92.066 l 56.336 92.066 l 56.336 86.68 l h
59.293 86.68 m 57.242 92.066 l 58.207 92.066 l 59.355 88.844 l 59.48 
88.492 59.598 88.129 59.707 87.754 c 59.789 88.039 59.902 88.379 60.043 
88.781 c 61.242 92.066 l 62.18 92.066 l 60.145 86.68 l h
66.812 88.418 m 67.762 88.305 l 67.613 87.746 67.332 87.312 66.926 
87.004 c 66.523 86.707 66.012 86.555 65.387 86.555 c 64.594 86.555 
63.965 86.797 63.5 87.281 c 63.039 87.773 62.812 88.457 62.812 89.332 c 
62.812 90.238 63.043 90.941 63.512 91.441 c 63.988 91.941 64.594 92.191 
65.336 92.191 c 66.062 92.191 66.648 91.949 67.098 91.457 c 67.559 
90.965 67.785 90.277 67.785 89.395 c 67.785 89.145 l 63.762 89.145 l 
63.793 88.551 63.961 88.098 64.262 87.781 c 64.562 87.465 64.938 87.305 
65.387 87.305 c 65.727 87.305 66.016 87.395 66.25 87.566 c 66.492 87.75 
66.68 88.035 66.812 88.418 c h
63.812 89.895 m 66.824 89.895 l 66.781 90.352 66.664 90.691 66.473 
90.918 c 66.184 91.27 65.809 91.441 65.348 91.441 c 64.926 91.441 64.57 
91.301 64.285 91.02 c 64.004 90.742 63.844 90.367 63.812 89.895 c h
69.043 86.68 m 69.043 92.066 l 69.867 92.066 l 69.867 91.254 l 70.074 
91.641 70.266 91.891 70.441 92.004 c 70.625 92.129 70.82 92.191 71.027 
92.191 c 71.336 92.191 71.648 92.098 71.965 91.906 c 71.652 91.055 l 
71.43 91.188 71.207 91.254 70.992 91.254 c 70.793 91.254 70.609 91.191 
70.441 91.066 c 70.281 90.953 70.172 90.785 70.105 90.566 c 70.004 
90.242 69.953 89.891 69.953 89.504 c 69.953 86.68 l h
69.043 86.68 m f
20.707 5.543 m 20.707 12.105 l 18.254 12.105 l 18.254 12.996 l 24.156 
12.996 l 24.156 12.105 l 21.691 12.105 l 21.691 5.543 l h
25.195 5.543 m 25.195 10.934 l 26.02 10.934 l 26.02 10.121 l 26.227 
10.504 26.418 10.754 26.594 10.871 c 26.777 10.996 26.973 11.059 27.18 
11.059 c 27.488 11.059 27.801 10.961 28.117 10.77 c 27.805 9.918 l 
27.582 10.055 27.359 10.121 27.145 10.121 c 26.945 10.121 26.762 10.059 
26.594 9.934 c 26.438 9.816 26.324 9.648 26.258 9.434 c 26.156 9.105 
26.105 8.754 26.105 8.371 c 26.105 5.543 l h
32.27 6.207 m 31.938 5.926 31.609 5.719 31.293 5.594 c 30.984 5.477 
30.652 5.418 30.293 5.418 c 29.695 5.418 29.234 5.566 28.918 5.855 c 
28.602 6.148 28.445 6.52 28.445 6.969 c 28.445 7.227 28.504 7.465 
28.621 7.684 c 28.746 7.906 28.902 8.086 29.094 8.219 c 29.293 8.352 
29.516 8.453 29.758 8.52 c 29.934 8.562 30.203 8.605 30.57 8.656 c 
31.305 8.742 31.844 8.844 32.195 8.969 c 32.203 9.094 32.207 9.176 
32.207 9.207 c 32.207 9.582 32.121 9.844 31.945 9.996 c 31.711 10.203 
31.367 10.309 30.906 10.309 c 30.473 10.309 30.152 10.23 29.945 10.082 
c 29.746 9.934 29.594 9.664 29.496 9.281 c 28.605 9.395 l 28.684 9.777 
28.812 10.086 28.996 10.32 c 29.188 10.562 29.457 10.746 29.809 10.871 
c 30.164 10.996 30.574 11.059 31.031 11.059 c 31.5 11.059 31.875 11.004 
32.156 10.895 c 32.449 10.785 32.66 10.648 32.793 10.48 c 32.93 10.324 
33.023 10.121 33.082 9.871 c 33.105 9.711 33.121 9.43 33.121 9.02 c 
33.121 7.809 l 33.121 6.957 33.141 6.418 33.184 6.195 c 33.223 5.969 
33.297 5.754 33.406 5.543 c 32.457 5.543 l 32.367 5.738 32.305 5.957 
32.27 6.207 c h
32.195 8.258 m 31.859 8.117 31.367 8 30.707 7.906 c 30.332 7.848 30.066 
7.785 29.906 7.719 c 29.75 7.652 29.629 7.555 29.543 7.418 c 29.461 
7.293 29.418 7.152 29.418 6.996 c 29.418 6.754 29.512 6.551 29.695 
6.383 c 29.879 6.223 30.148 6.145 30.508 6.145 c 30.855 6.145 31.168 
6.219 31.445 6.371 c 31.719 6.527 31.922 6.742 32.059 7.008 c 32.148 
7.207 32.195 7.512 32.195 7.918 c h
34.688 5.543 m 34.688 10.934 l 35.512 10.934 l 35.512 10.168 l 35.902 
10.762 36.473 11.059 37.223 11.059 c 37.551 11.059 37.844 11 38.113 
10.883 c 38.387 10.766 38.59 10.613 38.723 10.418 c 38.867 10.238 
38.961 10.012 39.012 9.746 c 39.047 9.578 39.062 9.281 39.062 8.855 c 
39.062 5.543 l 38.148 5.543 l 38.148 8.82 l 38.148 9.195 38.113 9.473 
38.035 9.656 c 37.969 9.84 37.844 9.988 37.66 10.094 c 37.488 10.211 
37.277 10.27 37.035 10.27 c 36.645 10.27 36.309 10.145 36.023 9.895 c 
35.742 9.652 35.598 9.188 35.598 8.496 c 35.598 5.543 l h
40.254 7.156 m 41.156 7.293 l 41.203 6.938 41.348 6.656 41.578 6.457 c 
41.812 6.266 42.137 6.168 42.555 6.168 c 42.973 6.168 43.281 6.254 
43.48 6.418 c 43.688 6.594 43.793 6.801 43.793 7.031 c 43.793 7.242 
43.699 7.402 43.516 7.52 c 43.391 7.602 43.078 7.707 42.578 7.832 c 
41.914 8 41.449 8.145 41.191 8.27 c 40.934 8.395 40.738 8.566 40.605 
8.781 c 40.473 9 40.406 9.242 40.406 9.508 c 40.406 9.75 40.457 9.969 
40.566 10.168 c 40.676 10.379 40.824 10.551 41.016 10.684 c 41.16 
10.789 41.352 10.879 41.594 10.945 c 41.844 11.02 42.109 11.059 42.391 
11.059 c 42.809 11.059 43.176 10.996 43.492 10.871 c 43.816 10.754 
44.055 10.59 44.203 10.383 c 44.363 10.176 44.473 9.895 44.531 9.543 c 
43.629 9.418 l 43.586 9.703 43.473 9.918 43.281 10.07 c 43.086 10.227 
42.812 10.309 42.453 10.309 c 42.039 10.309 41.738 10.238 41.555 10.094 
c 41.371 9.961 41.281 9.801 41.281 9.605 c 41.281 9.492 41.316 9.387 
41.391 9.293 c 41.469 9.195 41.582 9.113 41.742 9.043 c 41.832 9.012 
42.105 8.938 42.555 8.82 c 43.203 8.645 43.656 8.504 43.906 8.395 c 
44.164 8.285 44.363 8.125 44.504 7.906 c 44.656 7.699 44.73 7.441 44.73 
7.133 c 44.73 6.824 44.637 6.535 44.453 6.27 c 44.281 6.004 44.023 
5.793 43.691 5.645 c 43.359 5.496 42.98 5.418 42.555 5.418 c 41.855 
5.418 41.32 5.566 40.953 5.855 c 40.586 6.148 40.355 6.582 40.254 7.156 
c h
45.949 5.543 m 45.949 10.934 l 46.762 10.934 l 46.762 10.184 l 46.938 
10.449 47.16 10.66 47.438 10.82 c 47.719 10.977 48.039 11.059 48.398 
11.059 c 48.797 11.059 49.125 10.973 49.375 10.809 c 49.633 10.641 
49.816 10.41 49.922 10.121 c 50.348 10.746 50.902 11.059 51.586 11.059 
c 52.117 11.059 52.527 10.906 52.812 10.605 c 53.102 10.316 53.25 9.863 
53.25 9.246 c 53.25 5.543 l 52.348 5.543 l 52.348 8.945 l 52.348 9.312 
52.32 9.574 52.262 9.73 c 52.203 9.891 52.094 10.02 51.938 10.121 c 
51.777 10.219 51.594 10.27 51.387 10.27 c 51.004 10.27 50.688 10.141 
50.438 9.883 c 50.188 9.633 50.062 9.23 50.062 8.684 c 50.062 5.543 l 
49.148 5.543 l 49.148 9.043 l 49.148 9.453 49.074 9.758 48.922 9.957 c 
48.773 10.164 48.531 10.27 48.199 10.27 c 47.941 10.27 47.703 10.199 
47.484 10.059 c 47.27 9.926 47.109 9.727 47.012 9.469 c 46.91 9.211 
46.859 8.836 46.859 8.344 c 46.859 5.543 l h
54.832 11.934 m 54.832 12.996 l 55.742 12.996 l 55.742 11.934 l h
54.832 5.543 m 54.832 10.934 l 55.742 10.934 l 55.742 5.543 l h
59.199 6.355 m 59.324 5.559 l 59.066 5.5 58.836 5.469 58.637 5.469 c 
58.305 5.469 58.047 5.523 57.863 5.633 c 57.68 5.742 57.551 5.879 
57.473 6.043 c 57.398 6.219 57.363 6.578 57.363 7.121 c 57.363 10.23 l 
56.699 10.23 l 56.699 10.934 l 57.363 10.934 l 57.363 12.27 l 58.273 
12.82 l 58.273 10.934 l 59.199 10.934 l 59.199 10.23 l 58.273 10.23 l 
58.273 7.07 l 58.273 6.812 58.289 6.645 58.324 6.57 c 58.359 6.496 
58.406 6.438 58.473 6.395 c 58.551 6.352 58.652 6.332 58.785 6.332 c 
58.895 6.332 59.031 6.34 59.199 6.355 c h
62.16 6.355 m 62.285 5.559 l 62.027 5.5 61.801 5.469 61.598 5.469 c 
61.266 5.469 61.008 5.523 60.824 5.633 c 60.641 5.742 60.512 5.879 
60.438 6.043 c 60.363 6.219 60.324 6.578 60.324 7.121 c 60.324 10.23 l 
59.66 10.23 l 59.66 10.934 l 60.324 10.934 l 60.324 12.27 l 61.238 
12.82 l 61.238 10.934 l 62.16 10.934 l 62.16 10.23 l 61.238 10.23 l 
61.238 7.07 l 61.238 6.812 61.254 6.645 61.285 6.57 c 61.32 6.496 
61.371 6.438 61.438 6.395 c 61.512 6.352 61.617 6.332 61.75 6.332 c 
61.855 6.332 61.996 6.34 62.16 6.355 c h
66.812 7.281 m 67.762 7.168 l 67.613 6.613 67.332 6.18 66.926 5.871 c 
66.523 5.57 66.012 5.418 65.387 5.418 c 64.594 5.418 63.965 5.66 63.5 
6.145 c 63.039 6.637 62.812 7.32 62.812 8.195 c 62.812 9.102 63.043 
9.809 63.512 10.309 c 63.988 10.809 64.594 11.059 65.336 11.059 c 
66.062 11.059 66.648 10.812 67.098 10.32 c 67.559 9.828 67.785 9.141 
67.785 8.258 c 67.785 8.008 l 63.762 8.008 l 63.793 7.414 63.961 6.961 
64.262 6.645 c 64.562 6.328 64.938 6.168 65.387 6.168 c 65.727 6.168 
66.016 6.258 66.25 6.434 c 66.492 6.617 66.68 6.898 66.812 7.281 c h
63.812 8.758 m 66.824 8.758 l 66.781 9.215 66.664 9.559 66.473 9.781 c 
66.184 10.133 65.809 10.309 65.348 10.309 c 64.926 10.309 64.57 10.164 
64.285 9.883 c 64.004 9.605 63.844 9.23 63.812 8.758 c h
69.043 5.543 m 69.043 10.934 l 69.867 10.934 l 69.867 10.121 l 70.074 
10.504 70.266 10.754 70.441 10.871 c 70.625 10.996 70.82 11.059 71.027 
11.059 c 71.336 11.059 71.648 10.961 71.965 10.77 c 71.652 9.918 l 
71.43 10.055 71.207 10.121 70.992 10.121 c 70.793 10.121 70.609 10.059 
70.441 9.934 c 70.281 9.816 70.172 9.648 70.105 9.434 c 70.004 9.105 
69.953 8.754 69.953 8.371 c 69.953 5.543 l h
69.043 5.543 m f
430.457 77.504 m 430.457 84.379 l 432.832 84.379 l 433.363 84.379 
433.773 84.348 434.055 84.281 c 434.449 84.188 434.781 84.027 435.055 
83.793 c 435.422 83.484 435.695 83.09 435.867 82.605 c 436.051 82.129 
436.145 81.59 436.145 80.98 c 436.145 80.457 436.082 79.992 435.957 
79.594 c 435.84 79.191 435.684 78.859 435.492 78.594 c 435.301 78.324 
435.09 78.117 434.855 77.969 c 434.633 77.816 434.359 77.699 434.043 
77.617 c 433.727 77.543 433.359 77.504 432.945 77.504 c h
431.367 78.316 m 432.832 78.316 l 433.289 78.316 433.648 78.359 433.906 
78.441 c 434.164 78.527 434.367 78.648 434.52 78.805 c 434.734 79.012 
434.902 79.301 435.02 79.668 c 435.145 80.035 435.207 80.477 435.207 
80.992 c 435.207 81.711 435.086 82.258 434.844 82.645 c 434.609 83.035 
434.328 83.297 433.992 83.43 c 433.742 83.523 433.352 83.566 432.82 
83.566 c 431.367 83.566 l h
431.367 78.316 m f
429.973 66.305 m 432.609 73.18 l 433.582 73.18 l 436.395 66.305 l 
435.371 66.305 l 434.559 68.395 l 431.695 68.395 l 430.934 66.305 l h
431.957 69.129 m 434.285 69.129 l 433.57 71.031 l 433.348 71.605 
433.184 72.082 433.082 72.457 c 432.992 72.012 432.867 71.574 432.707 
71.145 c h
431.957 69.129 m f
432.742 55.105 m 432.742 61.168 l 430.477 61.168 l 430.477 61.98 l 
435.93 61.98 l 435.93 61.168 l 433.652 61.168 l 433.652 55.105 l h
432.742 55.105 m f
429.973 43.906 m 432.609 50.781 l 433.582 50.781 l 436.395 43.906 l 
435.371 43.906 l 434.559 45.992 l 431.695 45.992 l 430.934 43.906 l h
431.957 46.73 m 434.285 46.73 l 433.57 48.629 l 433.348 49.207 433.184 
49.68 433.082 50.055 c 432.992 49.613 432.867 49.176 432.707 48.742 c h
431.957 46.73 m f
465.355 74.137 m 467.992 81.012 l 468.969 81.012 l 471.781 74.137 l 
470.758 74.137 l 469.945 76.223 l 467.082 76.223 l 466.32 74.137 l h
467.344 76.961 m 469.668 76.961 l 468.957 78.859 l 468.73 79.434 468.57 
79.91 468.469 80.285 c 468.375 79.844 468.25 79.406 468.094 78.973 c h
467.344 76.961 m f
470.754 65.348 m 471.652 65.109 l 471.461 64.367 471.121 63.801 470.629 
63.41 c 470.137 63.02 469.531 62.824 468.816 62.824 c 468.074 62.824 
467.469 62.973 467.004 63.273 c 466.535 63.574 466.184 64.004 465.941 
64.574 c 465.699 65.148 465.578 65.766 465.578 66.422 c 465.578 67.141 
465.715 67.766 465.992 68.297 c 466.266 68.832 466.652 69.234 467.152 
69.512 c 467.66 69.785 468.219 69.922 468.828 69.922 c 469.512 69.922 
470.086 69.746 470.555 69.398 c 471.027 69.047 471.359 68.555 471.543 
67.922 c 470.641 67.711 l 470.484 68.211 470.25 68.574 469.941 68.797 c 
469.641 69.031 469.262 69.148 468.805 69.148 c 468.277 69.148 467.836 
69.02 467.48 68.762 c 467.129 68.512 466.879 68.172 466.73 67.746 c 
466.586 67.324 466.516 66.879 466.516 66.422 c 466.516 65.84 466.598 
65.332 466.766 64.898 c 466.941 64.465 467.207 64.141 467.566 63.922 c 
467.926 63.707 468.316 63.598 468.742 63.598 c 469.25 63.598 469.68 
63.742 470.027 64.035 c 470.387 64.328 470.629 64.766 470.754 65.348 c 
h
470.754 65.348 m f
466.07 51.734 m 466.07 58.609 l 466.98 58.609 l 466.98 55.199 l 470.395 
58.609 l 471.633 58.609 l 468.742 55.824 l 471.758 51.734 l 470.555 
51.734 l 468.105 55.211 l 466.98 54.121 l 466.98 51.734 l h
466.07 51.734 m f
0.8 g
299.57 40.094 44.066 -29.531 re f
0 g
1 j
q 1 0 0 -1 0 136 cm
299.57 95.906 44.066 29.531 re S Q
1 g
287.426 40.094 12.094 -29.531 re f
0 g
q 1 0 0 -1 0 136 cm
287.426 95.906 12.094 29.531 re S Q
1 g
343.215 40.094 12.098 -29.531 re f
0 g
q 1 0 0 -1 0 136 cm
343.215 95.906 12.098 29.531 re S Q
1 g
131.098 25.328 m 131.098 25.328 l 131.098 30.449 135.242 34.598 140.355 
34.598 c 142.812 34.598 145.168 33.621 146.902 31.883 c 148.641 30.145 
149.617 27.785 149.617 25.328 c 149.617 20.207 145.469 16.055 140.355 
16.055 c 135.242 16.055 131.098 20.207 131.098 25.328 c h
131.098 25.328 m f
0 g
1.6 w
q 1 0 0 -1 0 136 cm
131.098 110.672 m 131.098 105.551 135.242 101.402 140.355 101.402 c 
142.812 101.402 145.168 102.379 146.902 104.117 c 148.641 105.855 
149.617 108.215 149.617 110.672 c 149.617 115.793 145.469 119.945 
140.355 119.945 c 135.242 119.945 131.098 115.793 131.098 110.672 c h
131.098 110.672 m S Q
141.324 21.711 m 140.488 21.711 l 140.488 27.086 l 140.277 26.895 
140.008 26.699 139.676 26.5 c 139.348 26.309 139.059 26.164 138.801 
26.074 c 138.801 26.887 l 139.266 27.109 139.676 27.379 140.023 27.688 
c 140.383 28.004 140.637 28.312 140.785 28.609 c 141.324 28.609 l h
141.324 21.711 m f
1 g
328.297 103.016 m 328.297 103.016 l 328.297 108.137 332.441 112.289 
337.555 112.289 c 340.012 112.289 342.367 111.312 344.102 109.574 c 
345.84 107.836 346.816 105.477 346.816 103.016 c 346.816 97.895 342.668 
93.746 337.555 93.746 c 332.441 93.746 328.297 97.895 328.297 103.016 c 
h
328.297 103.016 m f
0 g
q 1 0 0 -1 0 136 cm
328.297 32.984 m 328.297 27.863 332.441 23.711 337.555 23.711 c 340.012 
23.711 342.367 24.688 344.102 26.426 c 345.84 28.164 346.816 30.523 
346.816 32.984 c 346.816 38.105 342.668 42.254 337.555 42.254 c 332.441 
42.254 328.297 38.105 328.297 32.984 c h
328.297 32.984 m S Q
339.785 100.215 m 339.785 99.402 l 335.234 99.402 l 335.234 99.602 
335.27 99.797 335.336 99.988 c 335.453 100.297 335.637 100.602 335.887 
100.902 c 336.145 101.203 336.516 101.547 337 101.938 c 337.75 102.555 
338.254 103.043 338.512 103.402 c 338.777 103.758 338.91 104.098 338.91 
104.414 c 338.91 104.746 338.789 105.027 338.547 105.25 c 338.309 
105.484 337.996 105.602 337.609 105.602 c 337.203 105.602 336.879 
105.48 336.637 105.238 c 336.395 104.996 336.27 104.66 336.262 104.227 
c 335.398 104.312 l 335.457 104.965 335.676 105.457 336.062 105.789 c 
336.453 106.129 336.977 106.301 337.637 106.301 c 338.293 106.301 
338.816 106.117 339.199 105.75 c 339.582 105.383 339.773 104.93 339.773 
104.391 c 339.773 104.113 339.715 103.844 339.598 103.578 c 339.488 
103.316 339.301 103.039 339.035 102.738 c 338.777 102.445 338.348 
102.047 337.75 101.539 c 337.238 101.113 336.91 100.82 336.762 100.664 
c 336.621 100.516 336.504 100.363 336.41 100.215 c h
339.785 100.215 m f
1 g
471.922 29.699 m 471.922 29.699 l 471.922 34.82 476.066 38.973 481.18 
38.973 c 483.637 38.973 485.992 37.996 487.73 36.258 c 489.465 34.52 
490.441 32.16 490.441 29.699 c 490.441 24.578 486.297 20.43 481.18 
20.43 c 476.066 20.43 471.922 24.578 471.922 29.699 c h
471.922 29.699 m f
0 g
q 1 0 0 -1 0 136 cm
471.922 106.301 m 471.922 101.18 476.066 97.027 481.18 97.027 c 483.637 
97.027 485.992 98.004 487.73 99.742 c 489.465 101.48 490.441 103.84 
490.441 106.301 c 490.441 111.422 486.297 115.57 481.18 115.57 c 
476.066 115.57 471.922 111.422 471.922 106.301 c h
471.922 106.301 m S Q
478.973 27.898 m 479.824 28.012 l 479.914 27.535 480.078 27.188 480.312 
26.973 c 480.547 26.766 480.828 26.66 481.16 26.66 c 481.562 26.66 
481.898 26.797 482.176 27.074 c 482.449 27.348 482.586 27.688 482.586 
28.098 c 482.586 28.48 482.457 28.797 482.199 29.047 c 481.949 29.305 
481.629 29.434 481.238 29.434 c 481.078 29.434 480.879 29.402 480.637 
29.336 c 480.738 30.086 l 480.797 30.078 480.84 30.074 480.875 30.074 c 
481.234 30.074 481.555 30.164 481.836 30.348 c 482.129 30.539 482.273 
30.832 482.273 31.223 c 482.273 31.531 482.172 31.785 481.961 31.984 c 
481.754 32.191 481.484 32.297 481.148 32.297 c 480.824 32.297 480.551 
32.191 480.324 31.984 c 480.109 31.777 479.969 31.469 479.91 31.059 c 
479.062 31.211 l 479.16 31.77 479.395 32.203 479.762 32.512 c 480.129 
32.828 480.582 32.984 481.125 32.984 c 481.5 32.984 481.844 32.902 
482.16 32.734 c 482.477 32.578 482.719 32.359 482.887 32.086 c 483.055 
31.809 483.137 31.516 483.137 31.199 c 483.137 30.906 483.059 30.637 
482.898 30.387 c 482.742 30.145 482.508 29.953 482.199 29.809 c 482.598 
29.719 482.91 29.523 483.137 29.223 c 483.363 28.93 483.473 28.559 
483.473 28.109 c 483.473 27.512 483.254 27 482.812 26.586 c 482.379 
26.168 481.828 25.961 481.16 25.961 c 480.562 25.961 480.062 26.141 
479.66 26.496 c 479.262 26.863 479.031 27.332 478.973 27.898 c h
478.973 27.898 m f
102.762 121.996 m 103.66 121.758 l 103.469 121.016 103.125 120.449 
102.637 120.059 c 102.145 119.668 101.539 119.473 100.824 119.473 c 
100.082 119.473 99.477 119.621 99.012 119.922 c 98.543 120.223 98.188 
120.656 97.949 121.223 c 97.707 121.797 97.586 122.414 97.586 123.07 c 
97.586 123.789 97.723 124.414 97.996 124.945 c 98.273 125.48 98.66 
125.883 99.16 126.16 c 99.668 126.434 100.227 126.57 100.836 126.57 c 
101.52 126.57 102.094 126.398 102.559 126.047 c 103.035 125.695 103.363 
125.203 103.547 124.57 c 102.648 124.359 l 102.488 124.859 102.254 
125.223 101.949 125.445 c 101.648 125.68 101.27 125.797 100.809 125.797 
c 100.285 125.797 99.844 125.668 99.484 125.41 c 99.137 125.16 98.887 
124.82 98.734 124.398 c 98.594 123.973 98.523 123.531 98.523 123.07 c 
98.523 122.488 98.605 121.98 98.773 121.547 c 98.949 121.113 99.215 
120.789 99.574 120.57 c 99.93 120.355 100.324 120.246 100.746 120.246 c 
101.254 120.246 101.684 120.391 102.035 120.684 c 102.395 120.977 
102.637 121.414 102.762 121.996 c h
102.762 121.996 m f
102.762 110.797 m 103.66 110.559 l 103.469 109.816 103.125 109.25 
102.637 108.859 c 102.145 108.469 101.539 108.273 100.824 108.273 c 
100.082 108.273 99.477 108.422 99.012 108.723 c 98.543 109.023 98.188 
109.453 97.949 110.023 c 97.707 110.598 97.586 111.215 97.586 111.871 c 
97.586 112.59 97.723 113.215 97.996 113.746 c 98.273 114.281 98.66 
114.684 99.16 114.961 c 99.668 115.234 100.227 115.371 100.836 115.371 
c 101.52 115.371 102.094 115.195 102.559 114.848 c 103.035 114.496 
103.363 114.004 103.547 113.371 c 102.648 113.16 l 102.488 113.66 
102.254 114.023 101.949 114.246 c 101.648 114.48 101.27 114.598 100.809 
114.598 c 100.285 114.598 99.844 114.469 99.484 114.211 c 99.137 
113.961 98.887 113.621 98.734 113.195 c 98.594 112.773 98.523 112.328 
98.523 111.871 c 98.523 111.289 98.605 110.781 98.773 110.348 c 98.949 
109.914 99.215 109.59 99.574 109.371 c 99.93 109.156 100.324 109.047 
100.746 109.047 c 101.254 109.047 101.684 109.191 102.035 109.484 c 
102.395 109.777 102.637 110.215 102.762 110.797 c h
102.762 110.797 m f
97.363 97.184 m 100 104.059 l 100.977 104.059 l 103.789 97.184 l 
102.762 97.184 l 101.949 99.273 l 99.086 99.273 l 98.324 97.184 l h
99.352 100.008 m 101.676 100.008 l 100.961 101.91 l 100.738 102.484 
100.574 102.961 100.477 103.336 c 100.383 102.891 100.258 102.453 
100.102 102.023 c h
99.352 100.008 m f
0.8 w
q 1 0 0 -1 0 136 cm
354.039 22.258 m 354.039 43.227 l S Q
354.039 92.773 m 353.137 93.676 l 354.039 91.203 l 354.938 93.676 l h
354.039 92.773 m f*
0 j
q 1 0 0 -1 0 136 cm
354.039 43.227 m 353.137 42.324 l 354.039 44.797 l 354.938 42.324 l h
354.039 43.227 m S Q
1 j
q 1 0 0 -1 0 136 cm
375.348 22.258 m 375.348 43.227 l S Q
375.348 92.773 m 374.449 93.676 l 375.348 91.203 l 376.246 93.676 l h
375.348 92.773 m f*
0 j
q 1 0 0 -1 0 136 cm
375.348 43.227 m 374.449 42.324 l 375.348 44.797 l 376.246 42.324 l h
375.348 43.227 m S Q
301.359 72.57 m 302.262 72.332 l 302.066 71.59 301.727 71.023 301.234 
70.633 c 300.742 70.238 300.141 70.043 299.422 70.043 c 298.68 70.043 
298.078 70.195 297.609 70.492 c 297.145 70.793 296.789 71.227 296.547 
71.793 c 296.305 72.367 296.184 72.984 296.184 73.645 c 296.184 74.359 
296.324 74.984 296.598 75.52 c 296.871 76.051 297.262 76.457 297.762 
76.73 c 298.27 77.008 298.828 77.145 299.434 77.145 c 300.117 77.145 
300.691 76.969 301.16 76.617 c 301.637 76.27 301.965 75.777 302.148 
75.145 c 301.246 74.93 l 301.09 75.43 300.855 75.793 300.547 76.02 c 
300.246 76.254 299.867 76.367 299.41 76.367 c 298.887 76.367 298.441 
76.238 298.086 75.98 c 297.734 75.73 297.484 75.395 297.336 74.969 c 
297.191 74.543 297.121 74.102 297.121 73.645 c 297.121 73.059 297.207 
72.551 297.371 72.117 c 297.547 71.684 297.812 71.359 298.172 71.145 c 
298.531 70.926 298.922 70.82 299.348 70.82 c 299.855 70.82 300.285 
70.965 300.637 71.258 c 300.992 71.547 301.234 71.984 301.359 72.57 c h
301.359 72.57 m f
301.359 61.367 m 302.262 61.133 l 302.066 60.391 301.727 59.824 301.234 
59.43 c 300.742 59.039 300.141 58.844 299.422 58.844 c 298.68 58.844 
298.078 58.992 297.609 59.293 c 297.145 59.594 296.789 60.027 296.547 
60.594 c 296.305 61.168 296.184 61.785 296.184 62.445 c 296.184 63.16 
296.324 63.785 296.598 64.32 c 296.871 64.852 297.262 65.258 297.762 
65.531 c 298.27 65.805 298.828 65.945 299.434 65.945 c 300.117 65.945 
300.691 65.77 301.16 65.418 c 301.637 65.07 301.965 64.578 302.148 
63.945 c 301.246 63.73 l 301.09 64.23 300.855 64.594 300.547 64.82 c 
300.246 65.051 299.867 65.168 299.41 65.168 c 298.887 65.168 298.441 
65.039 298.086 64.781 c 297.734 64.531 297.484 64.195 297.336 63.77 c 
297.191 63.344 297.121 62.902 297.121 62.445 c 297.121 61.859 297.207 
61.352 297.371 60.918 c 297.547 60.484 297.812 60.16 298.172 59.945 c 
298.531 59.727 298.922 59.617 299.348 59.617 c 299.855 59.617 300.285 
59.766 300.637 60.055 c 300.992 60.348 301.234 60.785 301.359 61.367 c 
h
301.359 61.367 m f
295.961 47.758 m 298.602 54.633 l 299.574 54.633 l 302.387 47.758 l 
301.363 47.758 l 300.551 49.844 l 297.688 49.844 l 296.926 47.758 l h
297.949 50.582 m 300.273 50.582 l 299.562 52.48 l 299.336 53.055 
299.176 53.531 299.074 53.906 c 298.984 53.465 298.859 53.027 298.699 
52.594 c h
297.949 50.582 m f
359.066 72.57 m 359.965 72.332 l 359.773 71.59 359.434 71.023 358.941 
70.633 c 358.449 70.238 357.844 70.043 357.129 70.043 c 356.387 70.043 
355.781 70.195 355.316 70.492 c 354.852 70.793 354.496 71.227 354.254 
71.793 c 354.012 72.367 353.891 72.984 353.891 73.645 c 353.891 74.359 
354.027 74.984 354.305 75.52 c 354.578 76.051 354.965 76.457 355.465 
76.73 c 355.977 77.008 356.531 77.145 357.141 77.145 c 357.824 77.145 
358.398 76.969 358.867 76.617 c 359.34 76.27 359.672 75.777 359.855 
75.145 c 358.953 74.93 l 358.797 75.43 358.562 75.793 358.254 76.02 c 
357.953 76.254 357.574 76.367 357.117 76.367 c 356.59 76.367 356.148 
76.238 355.793 75.98 c 355.441 75.73 355.191 75.395 355.043 74.969 c 
354.898 74.543 354.828 74.102 354.828 73.645 c 354.828 73.059 354.914 
72.551 355.078 72.117 c 355.254 71.684 355.52 71.359 355.879 71.145 c 
356.238 70.926 356.629 70.82 357.055 70.82 c 357.562 70.82 357.992 
70.965 358.34 71.258 c 358.699 71.547 358.941 71.984 359.066 72.57 c h
359.066 72.57 m f
359.066 61.367 m 359.965 61.133 l 359.773 60.391 359.434 59.824 358.941 
59.43 c 358.449 59.039 357.844 58.844 357.129 58.844 c 356.387 58.844 
355.781 58.992 355.316 59.293 c 354.852 59.594 354.496 60.027 354.254 
60.594 c 354.012 61.168 353.891 61.785 353.891 62.445 c 353.891 63.16 
354.027 63.785 354.305 64.32 c 354.578 64.852 354.965 65.258 355.465 
65.531 c 355.977 65.805 356.531 65.945 357.141 65.945 c 357.824 65.945 
358.398 65.77 358.867 65.418 c 359.34 65.07 359.672 64.578 359.855 
63.945 c 358.953 63.73 l 358.797 64.23 358.562 64.594 358.254 64.82 c 
357.953 65.051 357.574 65.168 357.117 65.168 c 356.59 65.168 356.148 
65.039 355.793 64.781 c 355.441 64.531 355.191 64.195 355.043 63.77 c 
354.898 63.344 354.828 62.902 354.828 62.445 c 354.828 61.859 354.914 
61.352 355.078 60.918 c 355.254 60.484 355.52 60.16 355.879 59.945 c 
356.238 59.727 356.629 59.617 357.055 59.617 c 357.562 59.617 357.992 
59.766 358.34 60.055 c 358.699 60.348 358.941 60.785 359.066 61.367 c h
359.066 61.367 m f
353.668 47.758 m 356.305 54.633 l 357.281 54.633 l 360.094 47.758 l 
359.07 47.758 l 358.258 49.844 l 355.395 49.844 l 354.633 47.758 l h
355.656 50.582 m 357.98 50.582 l 357.27 52.48 l 357.043 53.055 356.883 
53.531 356.781 53.906 c 356.691 53.465 356.566 53.027 356.406 52.594 c 
h
355.656 50.582 m f
414.047 72.57 m 414.945 72.332 l 414.754 71.59 414.414 71.023 413.922 
70.633 c 413.43 70.238 412.824 70.043 412.109 70.043 c 411.367 70.043 
410.762 70.195 410.297 70.492 c 409.832 70.793 409.477 71.227 409.234 
71.793 c 408.992 72.367 408.871 72.984 408.871 73.645 c 408.871 74.359 
409.008 74.984 409.285 75.52 c 409.559 76.051 409.945 76.457 410.445 
76.73 c 410.957 77.008 411.512 77.145 412.121 77.145 c 412.805 77.145 
413.379 76.969 413.848 76.617 c 414.32 76.27 414.652 75.777 414.836 
75.145 c 413.934 74.93 l 413.777 75.43 413.543 75.793 413.234 76.02 c 
412.934 76.254 412.555 76.367 412.098 76.367 c 411.57 76.367 411.129 
76.238 410.773 75.98 c 410.422 75.73 410.172 75.395 410.023 74.969 c 
409.879 74.543 409.809 74.102 409.809 73.645 c 409.809 73.059 409.895 
72.551 410.059 72.117 c 410.234 71.684 410.5 71.359 410.859 71.145 c 
411.219 70.926 411.609 70.82 412.035 70.82 c 412.543 70.82 412.973 
70.965 413.32 71.258 c 413.68 71.547 413.922 71.984 414.047 72.57 c h
414.047 72.57 m f
414.047 61.367 m 414.945 61.133 l 414.754 60.391 414.414 59.824 413.922 
59.43 c 413.43 59.039 412.824 58.844 412.109 58.844 c 411.367 58.844 
410.762 58.992 410.297 59.293 c 409.832 59.594 409.477 60.027 409.234 
60.594 c 408.992 61.168 408.871 61.785 408.871 62.445 c 408.871 63.16 
409.008 63.785 409.285 64.32 c 409.559 64.852 409.945 65.258 410.445 
65.531 c 410.957 65.805 411.512 65.945 412.121 65.945 c 412.805 65.945 
413.379 65.77 413.848 65.418 c 414.32 65.07 414.652 64.578 414.836 
63.945 c 413.934 63.73 l 413.777 64.23 413.543 64.594 413.234 64.82 c 
412.934 65.051 412.555 65.168 412.098 65.168 c 411.57 65.168 411.129 
65.039 410.773 64.781 c 410.422 64.531 410.172 64.195 410.023 63.77 c 
409.879 63.344 409.809 62.902 409.809 62.445 c 409.809 61.859 409.895 
61.352 410.059 60.918 c 410.234 60.484 410.5 60.16 410.859 59.945 c 
411.219 59.727 411.609 59.617 412.035 59.617 c 412.543 59.617 412.973 
59.766 413.32 60.055 c 413.68 60.348 413.922 60.785 414.047 61.367 c h
414.047 61.367 m f
408.648 47.758 m 411.285 54.633 l 412.262 54.633 l 415.074 47.758 l 
414.051 47.758 l 413.238 49.844 l 410.375 49.844 l 409.613 47.758 l h
410.637 50.582 m 412.961 50.582 l 412.25 52.48 l 412.023 53.055 411.863 
53.531 411.762 53.906 c 411.672 53.465 411.547 53.027 411.387 52.594 c 
h
410.637 50.582 m f
363.949 121.996 m 364.848 121.758 l 364.656 121.016 364.316 120.449 
363.824 120.059 c 363.332 119.668 362.727 119.473 362.012 119.473 c 
361.27 119.473 360.664 119.621 360.199 119.922 c 359.73 120.223 359.379 
120.656 359.137 121.223 c 358.895 121.797 358.773 122.414 358.773 
123.07 c 358.773 123.789 358.91 124.414 359.188 124.945 c 359.461 
125.48 359.848 125.883 360.348 126.16 c 360.855 126.434 361.414 126.57 
362.023 126.57 c 362.707 126.57 363.281 126.398 363.75 126.047 c 
364.223 125.695 364.555 125.203 364.734 124.57 c 363.836 124.359 l 
363.68 124.859 363.445 125.223 363.137 125.445 c 362.836 125.68 362.457 
125.797 362 125.797 c 361.473 125.797 361.031 125.668 360.672 125.41 c 
360.324 125.16 360.074 124.82 359.922 124.398 c 359.781 123.973 359.711 
123.531 359.711 123.07 c 359.711 122.488 359.793 121.98 359.961 121.547 
c 360.137 121.113 360.402 120.789 360.762 120.57 c 361.121 120.355 
361.512 120.246 361.938 120.246 c 362.445 120.246 362.875 120.391 
363.223 120.684 c 363.582 120.977 363.824 121.414 363.949 121.996 c h
363.949 121.996 m f
363.949 110.797 m 364.848 110.559 l 364.656 109.816 364.316 109.25 
363.824 108.859 c 363.332 108.469 362.727 108.273 362.012 108.273 c 
361.27 108.273 360.664 108.422 360.199 108.723 c 359.73 109.023 359.379 
109.453 359.137 110.023 c 358.895 110.598 358.773 111.215 358.773 
111.871 c 358.773 112.59 358.91 113.215 359.188 113.746 c 359.461 
114.281 359.848 114.684 360.348 114.961 c 360.855 115.234 361.414 
115.371 362.023 115.371 c 362.707 115.371 363.281 115.195 363.75 
114.848 c 364.223 114.496 364.555 114.004 364.734 113.371 c 363.836 
113.16 l 363.68 113.66 363.445 114.023 363.137 114.246 c 362.836 114.48 
362.457 114.598 362 114.598 c 361.473 114.598 361.031 114.469 360.672 
114.211 c 360.324 113.961 360.074 113.621 359.922 113.195 c 359.781 
112.773 359.711 112.328 359.711 111.871 c 359.711 111.289 359.793 
110.781 359.961 110.348 c 360.137 109.914 360.402 109.59 360.762 
109.371 c 361.121 109.156 361.512 109.047 361.938 109.047 c 362.445 
109.047 362.875 109.191 363.223 109.484 c 363.582 109.777 363.824 
110.215 363.949 110.797 c h
363.949 110.797 m f
358.551 97.184 m 361.188 104.059 l 362.164 104.059 l 364.977 97.184 l 
363.949 97.184 l 363.137 99.273 l 360.277 99.273 l 359.512 97.184 l h
360.539 100.008 m 362.863 100.008 l 362.152 101.91 l 361.926 102.484 
361.762 102.961 361.664 103.336 c 361.57 102.891 361.445 102.453 
361.289 102.023 c h
360.539 100.008 m f
1 j
q 1 0 0 -1 0 136 cm
76.32 125.516 m 483.629 125.516 l S Q
158.781 52.332 m 158.781 58.395 l 156.52 58.395 l 156.52 59.207 l 
161.969 59.207 l 161.969 58.395 l 159.695 58.395 l 159.695 52.332 l h
162.234 52.332 m 164.047 54.922 l 162.371 57.309 l 163.422 57.309 l 
164.184 56.145 l 164.328 55.922 164.441 55.734 164.535 55.582 c 164.668 
55.793 164.793 55.977 164.91 56.133 c 165.746 57.309 l 166.758 57.309 l 
165.035 54.973 l 166.883 52.332 l 165.859 52.332 l 164.836 53.883 l 
164.559 54.297 l 163.246 52.332 l h
162.234 52.332 m f
144.5 41.133 m 144.5 48.008 l 147.551 48.008 l 148.168 48.008 148.633 
47.945 148.949 47.82 c 149.266 47.695 149.52 47.477 149.711 47.16 c 
149.902 46.852 150 46.508 150 46.133 c 150 45.641 149.84 45.23 149.523 
44.895 c 149.207 44.562 148.719 44.352 148.062 44.258 c 148.305 44.141 
148.488 44.031 148.613 43.922 c 148.879 43.68 149.129 43.375 149.363 
43.008 c 150.562 41.133 l 149.41 41.133 l 148.512 42.559 l 148.246 
42.977 148.023 43.293 147.848 43.508 c 147.684 43.727 147.527 43.875 
147.387 43.957 c 147.254 44.051 147.117 44.117 146.973 44.16 c 146.875 
44.176 146.707 44.184 146.473 44.184 c 145.41 44.184 l 145.41 41.133 l 
h
145.41 44.973 m 147.375 44.973 l 147.781 44.973 148.105 45.012 148.336 
45.098 c 148.578 45.188 148.758 45.324 148.875 45.508 c 149 45.699 
149.062 45.91 149.062 46.133 c 149.062 46.457 148.941 46.727 148.699 
46.934 c 148.465 47.141 148.094 47.246 147.586 47.246 c 145.41 47.246 l 
h
154.719 42.734 m 155.594 42.633 l 155.461 42.125 155.207 41.73 154.832 
41.445 c 154.457 41.164 153.98 41.02 153.406 41.02 c 152.684 41.02 
152.102 41.246 151.668 41.695 c 151.246 42.145 151.031 42.773 151.031 
43.582 c 151.031 44.418 151.25 45.062 151.684 45.52 c 152.117 45.988 
152.676 46.223 153.355 46.223 c 154.023 46.223 154.566 45.996 154.98 
45.547 c 155.406 45.098 155.621 44.457 155.621 43.633 c 155.621 43.41 l 
151.906 43.41 l 151.941 42.859 152.094 42.438 152.371 42.145 c 152.645 
41.863 152.992 41.723 153.406 41.723 c 153.715 41.723 153.977 41.801 
154.195 41.957 c 154.418 42.125 154.594 42.383 154.719 42.734 c h
151.957 44.098 m 154.73 44.098 l 154.699 44.52 154.594 44.836 154.418 
45.047 c 154.145 45.371 153.793 45.535 153.371 45.535 c 152.977 45.535 
152.648 45.406 152.383 45.145 c 152.125 44.887 151.98 44.539 151.957 
44.098 c h
159.832 39.223 m 159.832 41.66 l 159.699 41.477 159.512 41.32 159.27 
41.195 c 159.039 41.078 158.789 41.02 158.52 41.02 c 157.93 41.02 
157.422 41.254 156.996 41.723 c 156.57 42.195 156.359 42.848 156.359 
43.672 c 156.359 44.172 156.445 44.617 156.621 45.008 c 156.797 45.41 
157.047 45.707 157.371 45.91 c 157.703 46.117 158.066 46.223 158.457 
46.223 c 159.074 46.223 159.559 45.961 159.91 45.445 c 159.91 46.109 l 
160.672 46.109 l 160.672 39.223 l h
157.223 43.633 m 157.223 42.992 157.355 42.512 157.621 42.195 c 157.895 
41.879 158.223 41.723 158.598 41.723 c 158.953 41.723 159.262 41.871 
159.52 42.172 c 159.781 42.48 159.91 42.941 159.91 43.559 c 159.91 
44.227 159.77 44.727 159.496 45.059 c 159.23 45.391 158.91 45.559 
158.535 45.559 c 158.176 45.559 157.867 45.398 157.609 45.082 c 157.352 
44.773 157.223 44.293 157.223 43.633 c h
165.262 41.133 m 165.262 41.871 l 164.867 41.305 164.34 41.02 163.672 
41.02 c 163.383 41.02 163.105 41.074 162.848 41.184 c 162.598 41.301 
162.41 41.441 162.285 41.609 c 162.16 41.785 162.074 41.996 162.023 
42.246 c 161.988 42.406 161.973 42.668 161.973 43.035 c 161.973 46.109 
l 162.824 46.109 l 162.824 43.348 l 162.824 42.914 162.84 42.617 
162.871 42.457 c 162.922 42.242 163.031 42.066 163.199 41.934 c 163.371 
41.809 163.59 41.746 163.848 41.746 c 164.098 41.746 164.332 41.809 
164.547 41.934 c 164.773 42.066 164.93 42.246 165.023 42.473 c 165.121 
42.695 165.172 43.02 165.172 43.445 c 165.172 46.109 l 166.012 46.109 l 
166.012 41.133 l h
170.738 42.734 m 171.613 42.633 l 171.48 42.125 171.223 41.73 170.848 
41.445 c 170.473 41.164 170 41.02 169.426 41.02 c 168.699 41.02 168.121 
41.246 167.688 41.695 c 167.262 42.145 167.051 42.773 167.051 43.582 c 
167.051 44.418 167.266 45.062 167.699 45.52 c 168.133 45.988 168.691 
46.223 169.375 46.223 c 170.043 46.223 170.582 45.996 171 45.547 c 
171.426 45.098 171.637 44.457 171.637 43.633 c 171.637 43.41 l 167.926 
43.41 l 167.957 42.859 168.113 42.438 168.387 42.145 c 168.66 41.863 
169.008 41.723 169.426 41.723 c 169.734 41.723 169.996 41.801 170.211 
41.957 c 170.438 42.125 170.613 42.383 170.738 42.734 c h
167.973 44.098 m 170.75 44.098 l 170.715 44.52 170.613 44.836 170.438 
45.047 c 170.16 45.371 169.812 45.535 169.387 45.535 c 168.996 45.535 
168.668 45.406 168.398 45.145 c 168.141 44.887 168 44.539 167.973 
44.098 c h
172.34 42.621 m 173.164 42.746 l 173.215 42.414 173.344 42.16 173.551 
41.984 c 173.77 41.809 174.07 41.723 174.465 41.723 c 174.848 41.723 
175.129 41.797 175.312 41.945 c 175.504 42.105 175.602 42.293 175.602 
42.508 c 175.602 42.699 175.52 42.852 175.352 42.957 c 175.234 43.035 
174.945 43.129 174.488 43.246 c 173.871 43.406 173.441 43.539 173.199 
43.645 c 172.969 43.762 172.789 43.922 172.664 44.121 c 172.539 44.32 
172.477 44.547 172.477 44.797 c 172.477 45.012 172.527 45.219 172.625 
45.41 c 172.727 45.602 172.863 45.758 173.039 45.883 c 173.172 45.977 
173.352 46.055 173.574 46.121 c 173.801 46.188 174.047 46.223 174.312 
46.223 c 174.695 46.223 175.035 46.164 175.324 46.047 c 175.625 45.938 
175.848 45.789 175.988 45.598 c 176.129 45.406 176.227 45.148 176.277 
44.832 c 175.449 44.723 l 175.418 44.973 175.309 45.168 175.125 45.309 
c 174.949 45.457 174.695 45.535 174.363 45.535 c 173.98 45.535 173.707 
45.469 173.539 45.332 c 173.371 45.207 173.289 45.059 173.289 44.883 c 
173.289 44.773 173.32 44.68 173.387 44.598 c 173.465 44.504 173.57 
44.43 173.715 44.371 c 173.797 44.336 174.047 44.266 174.465 44.16 c 
175.062 43.992 175.48 43.859 175.715 43.758 c 175.945 43.66 176.129 
43.512 176.262 43.32 c 176.398 43.129 176.465 42.887 176.465 42.598 c 
176.465 42.312 176.379 42.047 176.215 41.797 c 176.055 41.555 175.82 
41.363 175.512 41.223 c 175.207 41.086 174.855 41.02 174.465 41.02 c 
173.812 41.02 173.316 41.156 172.977 41.422 c 172.645 41.695 172.43 
42.098 172.34 42.621 c h
179.312 41.883 m 179.438 41.145 l 179.195 41.098 178.984 41.07 178.801 
41.07 c 178.492 41.07 178.254 41.117 178.09 41.207 c 177.922 41.309 
177.801 41.438 177.727 41.598 c 177.66 41.754 177.625 42.086 177.625 
42.598 c 177.625 45.457 l 177.012 45.457 l 177.012 46.109 l 177.625 
46.109 l 177.625 47.348 l 178.465 47.848 l 178.465 46.109 l 179.312 
46.109 l 179.312 45.457 l 178.465 45.457 l 178.465 42.547 l 178.465 
42.305 178.477 42.148 178.5 42.082 c 178.535 42.016 178.586 41.961 
178.652 41.922 c 178.719 41.879 178.812 41.859 178.938 41.859 c 179.039 
41.859 179.164 41.867 179.312 41.883 c h
179.312 41.883 m f
[ 3.2 2.4] 0 d
q 1 0 0 -1 0 136 cm
175.098 111.352 m 273.945 111.352 l S Q
0 j
[] 0.0 d
q 1 0 0 -1 0 136 cm
175.098 110.031 m 171.469 111.352 l 175.098 112.672 l h
175.098 110.031 m S Q
q 1 0 0 -1 0 136 cm
273.945 112.672 m 277.574 111.352 l 273.945 110.031 l h
273.945 112.672 m S Q
1 j
q 1 0 0 -1 0 136 cm
278.336 103 m 278.336 118.797 l S Q
q 1 0 0 -1 0 136 cm
170.867 103 m 170.867 118.797 l S Q
205.863 30.938 m 205.863 37.812 l 208.465 37.812 l 208.914 37.812 
209.262 37.793 209.504 37.75 c 209.844 37.695 210.129 37.586 210.352 
37.426 c 210.586 37.27 210.77 37.047 210.902 36.766 c 211.043 36.48 
211.113 36.168 211.113 35.828 c 211.113 35.242 210.926 34.746 210.551 
34.34 c 210.184 33.938 209.516 33.738 208.539 33.738 c 206.777 33.738 l 
206.777 30.938 l h
206.777 34.539 m 208.551 34.539 l 209.145 34.539 209.559 34.648 209.801 
34.863 c 210.051 35.09 210.176 35.402 210.176 35.801 c 210.176 36.086 
210.102 36.328 209.953 36.527 c 209.809 36.734 209.621 36.871 209.391 
36.938 c 209.23 36.98 208.949 37 208.539 37 c 206.777 37 l h
212.23 30.938 m 212.23 37.812 l 213.145 37.812 l 213.145 31.75 l 
216.531 31.75 l 216.531 30.938 l h
220.273 30.938 m 220.273 37.812 l 222.648 37.812 l 223.184 37.812 
223.59 37.781 223.875 37.715 c 224.266 37.621 224.598 37.461 224.875 
37.227 c 225.242 36.918 225.512 36.523 225.688 36.039 c 225.871 35.562 
225.961 35.023 225.961 34.414 c 225.961 33.891 225.898 33.426 225.773 
33.027 c 225.656 32.625 225.504 32.293 225.312 32.027 c 225.121 31.762 
224.906 31.551 224.676 31.402 c 224.449 31.25 224.18 31.137 223.863 
31.051 c 223.543 30.977 223.18 30.938 222.762 30.938 c h
221.188 31.75 m 222.648 31.75 l 223.105 31.75 223.465 31.793 223.723 
31.875 c 223.98 31.961 224.188 32.082 224.336 32.238 c 224.555 32.449 
224.719 32.734 224.836 33.102 c 224.961 33.469 225.023 33.91 225.023 
34.426 c 225.023 35.145 224.902 35.695 224.66 36.078 c 224.43 36.469 
224.145 36.73 223.812 36.863 c 223.562 36.957 223.168 37 222.637 37 c 
221.188 37 l h
230.508 32.539 m 231.383 32.438 l 231.25 31.93 230.996 31.535 230.621 
31.25 c 230.246 30.969 229.77 30.828 229.195 30.828 c 228.469 30.828 
227.891 31.051 227.457 31.5 c 227.031 31.953 226.82 32.582 226.82 
33.391 c 226.82 34.223 227.035 34.867 227.469 35.328 c 227.902 35.793 
228.461 36.027 229.145 36.027 c 229.812 36.027 230.352 35.801 230.77 
35.352 c 231.195 34.902 231.406 34.266 231.406 33.438 c 231.406 33.215 
l 227.695 33.215 l 227.727 32.664 227.883 32.242 228.156 31.953 c 
228.434 31.668 228.777 31.527 229.195 31.527 c 229.504 31.527 229.766 
31.605 229.98 31.766 c 230.207 31.93 230.383 32.188 230.508 32.539 c h
227.746 33.902 m 230.52 33.902 l 230.484 34.328 230.383 34.645 230.207 
34.852 c 229.934 35.176 229.582 35.34 229.156 35.34 c 228.766 35.34 
228.438 35.211 228.168 34.953 c 227.91 34.695 227.77 34.344 227.746 
33.902 c h
232.422 30.938 m 232.422 37.812 l 233.27 37.812 l 233.27 30.938 l h
237.828 31.551 m 237.512 31.285 237.207 31.098 236.918 30.988 c 236.633 
30.883 236.324 30.828 235.992 30.828 c 235.441 30.828 235.02 30.961 
234.73 31.227 c 234.438 31.492 234.293 31.836 234.293 32.25 c 234.293 
32.492 234.344 32.715 234.453 32.914 c 234.562 33.121 234.707 33.285 
234.891 33.402 c 235.074 33.527 235.277 33.617 235.504 33.676 c 235.66 
33.727 235.91 33.773 236.254 33.812 c 236.93 33.891 237.43 33.984 
237.754 34.102 c 237.754 34.312 l 237.754 34.664 237.676 34.91 237.516 
35.051 c 237.301 35.234 236.98 35.328 236.555 35.328 c 236.16 35.328 
235.871 35.258 235.68 35.113 c 235.488 34.98 235.344 34.738 235.254 
34.391 c 234.43 34.5 l 234.504 34.852 234.629 35.137 234.805 35.352 c 
234.98 35.57 235.23 35.734 235.555 35.852 c 235.879 35.969 236.254 
36.027 236.68 36.027 c 237.105 36.027 237.449 35.977 237.715 35.875 c 
237.984 35.777 238.18 35.652 238.305 35.5 c 238.43 35.352 238.516 35.16 
238.566 34.926 c 238.59 34.785 238.605 34.527 238.605 34.152 c 238.605 
33.027 l 238.605 32.242 238.621 31.746 238.652 31.539 c 238.695 31.332 
238.77 31.133 238.879 30.938 c 237.992 30.938 l 237.906 31.113 237.855 
31.32 237.828 31.551 c h
237.754 33.438 m 237.445 33.312 236.988 33.207 236.379 33.113 c 236.027 
33.062 235.781 33.008 235.641 32.938 c 235.5 32.883 235.387 32.793 
235.305 32.676 c 235.23 32.559 235.191 32.426 235.191 32.277 c 235.191 
32.051 235.273 31.863 235.441 31.715 c 235.617 31.562 235.867 31.488 
236.191 31.488 c 236.516 31.488 236.805 31.559 237.055 31.703 c 237.312 
31.844 237.5 32.039 237.617 32.289 c 237.707 32.48 237.754 32.762 
237.754 33.125 c h
239.879 29.027 m 239.781 29.812 l 239.965 29.766 240.125 29.738 240.27 
29.738 c 240.449 29.738 240.598 29.773 240.707 29.84 c 240.82 29.898 
240.918 29.98 240.992 30.09 c 241.043 30.18 241.129 30.395 241.254 
30.727 c 241.262 30.77 241.289 30.836 241.332 30.926 c 239.43 35.914 l 
240.344 35.914 l 241.379 33.039 l 241.512 32.672 241.633 32.285 241.742 
31.875 c 241.844 32.27 241.961 32.648 242.094 33.016 c 243.156 35.914 l 
243.992 35.914 l 242.105 30.852 l 241.898 30.309 241.738 29.934 241.629 
29.727 c 241.48 29.445 241.305 29.238 241.105 29.113 c 240.914 28.98 
240.684 28.914 240.418 28.914 c 240.258 28.914 240.082 28.953 239.879 
29.027 c h
239.879 29.027 m f
  Q
Q
Q Q
showpage
%%Trailer
count op_count sub {pop} repeat
countdictstack dict_count sub {end} repeat
cairo_eps_state restore
%%EOF
