%!PS-Adobe-3.0 EPSF-3.0
%%Creator: cairo 1.10.2 (http://cairographics.org)
%%CreationDate: Thu Nov 12 22:51:24 2015
%%Pages: 1
%%BoundingBox: 0 -1 704 147
%%DocumentData: Clean7Bit
%%LanguageLevel: 2
%%EndComments
%%BeginProlog
/cairo_eps_state save def
/dict_count countdictstack def
/op_count count 1 sub def
userdict begin
/q { gsave } bind def
/Q { grestore } bind def
/cm { 6 array astore concat } bind def
/w { setlinewidth } bind def
/J { setlinecap } bind def
/j { setlinejoin } bind def
/M { setmiterlimit } bind def
/d { setdash } bind def
/m { moveto } bind def
/l { lineto } bind def
/c { curveto } bind def
/h { closepath } bind def
/re { exch dup neg 3 1 roll 5 3 roll moveto 0 rlineto
      0 exch rlineto 0 rlineto closepath } bind def
/S { stroke } bind def
/f { fill } bind def
/f* { eofill } bind def
/n { newpath } bind def
/W { clip } bind def
/W* { eoclip } bind def
/BT { } bind def
/ET { } bind def
/pdfmark where { pop globaldict /?pdfmark /exec load put }
    { globaldict begin /?pdfmark /pop load def /pdfmark
    /cleartomark load def end } ifelse
/BDC { mark 3 1 roll /BDC pdfmark } bind def
/EMC { mark /EMC pdfmark } bind def
/cairo_store_point { /cairo_point_y exch def /cairo_point_x exch def } def
/Tj { show currentpoint cairo_store_point } bind def
/TJ {
  {
    dup
    type /stringtype eq
    { show } { -0.001 mul 0 cairo_font_matrix dtransform rmoveto } ifelse
  } forall
  currentpoint cairo_store_point
} bind def
/cairo_selectfont { cairo_font_matrix aload pop pop pop 0 0 6 array astore
    cairo_font exch selectfont cairo_point_x cairo_point_y moveto } bind def
/Tf { pop /cairo_font exch def /cairo_font_matrix where
      { pop cairo_selectfont } if } bind def
/Td { matrix translate cairo_font_matrix matrix concatmatrix dup
      /cairo_font_matrix exch def dup 4 get exch 5 get cairo_store_point
      /cairo_font where { pop cairo_selectfont } if } bind def
/Tm { 2 copy 8 2 roll 6 array astore /cairo_font_matrix exch def
      cairo_store_point /cairo_font where { pop cairo_selectfont } if } bind def
/g { setgray } bind def
/rg { setrgbcolor } bind def
/d1 { setcachedevice } bind def
%%EndProlog
%%Page: 1 1
%%BeginPageSetup
%%PageBoundingBox: 0 -1 704 147
%%EndPageSetup
q 0 -1 704 148 rectclip q
0 146.163 704 -146.164 re W n
q
0 146.163 704 -146 re W n
[ 1 0 0 1 0 -0.837265 ] concat
  q
Q q
0 g
0.8 w
0 J
1 j
[] 0.0 d
10 M q 1 0 0 -1 0 147 cm
72.641 35.68 m 699.668 35.68 l S Q
q 1 0 0 -1 0 147 cm
72.641 85.328 m 699.668 85.328 l S Q
0.917647 0.6 0.6 rg
83.887 147 79.547 -35.68 re f
q 1 0 0 -1 0 147 cm
83.887 0 79.547 35.68 re S Q
0 g
119.309 123.625 m 119.309 133.227 l 115.734 133.227 l 115.734 134.5 l 
124.344 134.5 l 124.344 133.227 l 120.746 133.227 l 120.746 123.625 l h
124.598 123.625 m 127.473 127.727 l 124.812 131.512 l 126.488 131.512 l 
127.699 129.664 l 127.926 129.312 128.105 129.016 128.238 128.773 c 
128.461 129.102 128.668 129.391 128.848 129.648 c 130.176 131.512 l 
131.762 131.512 l 129.051 127.801 l 131.973 123.625 l 130.336 123.625 l 
128.711 126.074 l 128.285 126.738 l 126.211 123.625 l h
124.598 123.625 m f
q 1 0 0 -1 0 147 cm
72.641 135.32 m 699.668 135.32 l S Q
1 g
163.445 97.352 54.473 -35.68 re f
0 g
[ 3.2 2.4] 0 d
q 1 0 0 -1 0 147 cm
163.445 49.648 54.473 35.68 re S Q
174.859 73.977 m 174.859 84.852 l 178.609 84.852 l 179.449 84.852 
180.094 84.801 180.547 84.703 c 181.164 84.559 181.691 84.301 182.133 
83.926 c 182.707 83.434 183.137 82.809 183.422 82.051 c 183.703 81.301 
183.844 80.441 183.844 79.477 c 183.844 78.652 183.75 77.918 183.559 
77.277 c 183.367 76.645 183.121 76.113 182.82 75.688 c 182.52 75.273 
182.191 74.941 181.832 74.703 c 181.477 74.469 181.043 74.289 180.531 
74.164 c 180.023 74.039 179.441 73.977 178.781 73.977 c h
176.297 75.266 m 178.621 75.266 l 179.336 75.266 179.898 75.332 180.309 
75.465 c 180.715 75.598 181.043 75.785 181.281 76.027 c 181.625 76.367 
181.891 76.828 182.082 77.402 c 182.273 77.977 182.371 78.676 182.371 
79.5 c 182.371 80.633 182.184 81.504 181.809 82.113 c 181.434 82.73 
180.98 83.145 180.445 83.352 c 180.062 83.5 179.441 83.578 178.582 
83.578 c 176.297 83.578 l h
185.875 73.977 m 185.875 84.852 l 187.324 84.852 l 187.324 73.977 l h
189.859 73.977 m 189.859 84.852 l 197.195 84.852 l 197.195 83.578 l 
191.297 83.578 l 191.297 80.203 l 196.395 80.203 l 196.395 78.914 l 
191.297 78.914 l 191.297 73.977 l h
198.414 77.477 m 199.762 77.59 l 199.828 77.047 199.98 76.602 200.211 
76.25 c 200.445 75.902 200.809 75.617 201.301 75.402 c 201.801 75.184 
202.359 75.078 202.977 75.078 c 203.523 75.078 204.008 75.16 204.426 
75.328 c 204.852 75.492 205.168 75.719 205.375 76 c 205.582 76.285 
205.688 76.594 205.688 76.926 c 205.688 77.27 205.586 77.562 205.387 
77.812 c 205.188 78.07 204.859 78.289 204.398 78.465 c 204.109 78.582 
203.461 78.754 202.461 78.988 c 201.461 79.23 200.762 79.461 200.363 
79.676 c 199.844 79.953 199.457 80.289 199.199 80.688 c 198.949 81.09 
198.824 81.539 198.824 82.039 c 198.824 82.59 198.98 83.102 199.289 
83.578 c 199.605 84.059 200.059 84.422 200.648 84.664 c 201.25 84.914 
201.918 85.039 202.648 85.039 c 203.457 85.039 204.172 84.91 204.789 
84.652 c 205.402 84.395 205.875 84.008 206.199 83.5 c 206.531 83 
206.711 82.43 206.738 81.789 c 205.363 81.688 l 205.289 82.371 205.031 
82.891 204.602 83.238 c 204.176 83.598 203.547 83.777 202.711 83.777 c 
201.844 83.777 201.211 83.613 200.812 83.289 c 200.414 82.973 200.211 
82.59 200.211 82.141 c 200.211 81.746 200.355 81.426 200.637 81.176 c 
200.914 80.926 201.633 80.668 202.801 80.402 c 203.977 80.133 204.777 
79.902 205.211 79.703 c 205.844 79.41 206.312 79.039 206.613 78.59 c 
206.922 78.148 207.074 77.633 207.074 77.051 c 207.074 76.469 206.906 
75.918 206.574 75.402 c 206.242 74.895 205.762 74.496 205.137 74.215 c 
204.52 73.93 203.824 73.789 203.051 73.789 c 202.066 73.789 201.242 
73.93 200.574 74.215 c 199.906 74.504 199.383 74.938 199 75.516 c 
198.625 76.09 198.43 76.742 198.414 77.477 c h
198.414 77.477 m f
1 g
163.445 47.359 54.473 -35.68 re f
0 g
[ 3.2 2.4] 0 d
q 1 0 0 -1 0 147 cm
163.445 99.641 54.473 35.68 re S Q
174.859 23.984 m 174.859 34.859 l 178.609 34.859 l 179.449 34.859 
180.094 34.809 180.547 34.707 c 181.164 34.566 181.691 34.309 182.133 
33.934 c 182.707 33.441 183.137 32.816 183.422 32.059 c 183.703 31.309 
183.844 30.449 183.844 29.484 c 183.844 28.66 183.75 27.926 183.559 
27.285 c 183.367 26.648 183.121 26.121 182.82 25.695 c 182.52 25.281 
182.191 24.949 181.832 24.707 c 181.477 24.477 181.043 24.297 180.531 
24.172 c 180.023 24.047 179.441 23.984 178.781 23.984 c h
176.297 25.27 m 178.621 25.27 l 179.336 25.27 179.898 25.336 180.309 
25.473 c 180.715 25.605 181.043 25.793 181.281 26.035 c 181.625 26.375 
181.891 26.832 182.082 27.41 c 182.273 27.984 182.371 28.684 182.371 
29.508 c 182.371 30.641 182.184 31.512 181.809 32.121 c 181.434 32.738 
180.98 33.148 180.445 33.359 c 180.062 33.508 179.441 33.582 178.582 
33.582 c 176.297 33.582 l h
185.875 23.984 m 185.875 34.859 l 187.324 34.859 l 187.324 23.984 l h
189.859 23.984 m 189.859 34.859 l 197.195 34.859 l 197.195 33.582 l 
191.297 33.582 l 191.297 30.207 l 196.395 30.207 l 196.395 28.922 l 
191.297 28.922 l 191.297 23.984 l h
198.414 27.484 m 199.762 27.598 l 199.828 27.055 199.98 26.609 200.211 
26.258 c 200.445 25.91 200.809 25.625 201.301 25.41 c 201.801 25.191 
202.359 25.082 202.977 25.082 c 203.523 25.082 204.008 25.168 204.426 
25.332 c 204.852 25.5 205.168 25.727 205.375 26.008 c 205.582 26.293 
205.688 26.602 205.688 26.934 c 205.688 27.273 205.586 27.57 205.387 
27.82 c 205.188 28.078 204.859 28.297 204.398 28.473 c 204.109 28.586 
203.461 28.762 202.461 28.996 c 201.461 29.238 200.762 29.469 200.363 
29.684 c 199.844 29.957 199.457 30.297 199.199 30.695 c 198.949 31.098 
198.824 31.547 198.824 32.047 c 198.824 32.598 198.98 33.109 199.289 
33.582 c 199.605 34.066 200.059 34.43 200.648 34.672 c 201.25 34.922 
201.918 35.047 202.648 35.047 c 203.457 35.047 204.172 34.918 204.789 
34.66 c 205.402 34.398 205.875 34.016 206.199 33.508 c 206.531 33.008 
206.711 32.438 206.738 31.797 c 205.363 31.695 l 205.289 32.379 205.031 
32.895 204.602 33.246 c 204.176 33.605 203.547 33.785 202.711 33.785 c 
201.844 33.785 201.211 33.621 200.812 33.297 c 200.414 32.98 200.211 
32.598 200.211 32.145 c 200.211 31.754 200.355 31.434 200.637 31.184 c 
200.914 30.934 201.633 30.676 202.801 30.41 c 203.977 30.141 204.777 
29.91 205.211 29.707 c 205.844 29.418 206.312 29.047 206.613 28.598 c 
206.922 28.156 207.074 27.641 207.074 27.059 c 207.074 26.477 206.906 
25.926 206.574 25.41 c 206.242 24.898 205.762 24.504 205.137 24.223 c 
204.52 23.938 203.824 23.797 203.051 23.797 c 202.066 23.797 201.242 
23.938 200.574 24.223 c 199.906 24.512 199.383 24.945 199 25.52 c 
198.625 26.098 198.43 26.75 198.414 27.484 c h
198.414 27.484 m f
1 g
217.918 97.266 10.383 -35.68 re f
0 g
[ 3.2 2.4] 0 d
q 1 0 0 -1 0 147 cm
217.918 49.734 10.383 35.68 re S Q
1 g
228.301 97.352 10.379 -35.68 re f
0 g
[ 3.2 2.4] 0 d
q 1 0 0 -1 0 147 cm
228.301 49.648 10.379 35.68 re S Q
1 g
238.68 97.352 10.379 -35.68 re f
0 g
[ 3.2 2.4] 0 d
q 1 0 0 -1 0 147 cm
238.68 49.648 10.379 35.68 re S Q
1 g
249.059 97.223 10.383 -35.68 re f
0 g
[ 3.2 2.4] 0 d
q 1 0 0 -1 0 147 cm
249.059 49.777 10.383 35.68 re S Q
1 g
259.438 97.309 10.383 -35.68 re f
0 g
[ 3.2 2.4] 0 d
q 1 0 0 -1 0 147 cm
259.438 49.691 10.383 35.68 re S Q
1 g
269.82 97.309 10.379 -35.68 re f
0 g
[ 3.2 2.4] 0 d
q 1 0 0 -1 0 147 cm
269.82 49.691 10.379 35.68 re S Q
1 g
217.918 47.055 10.383 -35.68 re f
0 g
[ 3.2 2.4] 0 d
q 1 0 0 -1 0 147 cm
217.918 99.945 10.383 35.68 re S Q
1 g
228.301 47.141 10.379 -35.68 re f
0 g
[ 3.2 2.4] 0 d
q 1 0 0 -1 0 147 cm
228.301 99.859 10.379 35.68 re S Q
1 g
238.68 47.141 10.379 -35.68 re f
0 g
[ 3.2 2.4] 0 d
q 1 0 0 -1 0 147 cm
238.68 99.859 10.379 35.68 re S Q
1 g
249.059 47.012 10.383 -35.68 re f
0 g
[ 3.2 2.4] 0 d
q 1 0 0 -1 0 147 cm
249.059 99.988 10.383 35.68 re S Q
1 g
259.438 47.098 10.383 -35.68 re f
0 g
[ 3.2 2.4] 0 d
q 1 0 0 -1 0 147 cm
259.438 99.902 10.383 35.68 re S Q
269.82 47.098 10.379 -35.68 re f
[ 3.2 2.4] 0 d
q 1 0 0 -1 0 147 cm
269.82 99.902 10.379 35.68 re S Q
0.917647 0.6 0.6 rg
280.199 47.441 167.785 -35.676 re f
[] 0.0 d
q 1 0 0 -1 0 147 cm
280.199 99.559 167.785 35.676 re S Q
0 g
358.492 24.066 m 358.492 33.668 l 354.918 33.668 l 354.918 34.941 l 
363.531 34.941 l 363.531 33.668 l 359.93 33.668 l 359.93 24.066 l h
363.734 24.066 m 367.949 29.742 l 364.234 34.941 l 365.949 34.941 l 
367.922 32.156 l 368.34 31.582 368.633 31.133 368.797 30.816 c 369.039 
31.219 369.328 31.629 369.66 32.055 c 371.848 34.941 l 373.422 34.941 l 
369.598 29.816 l 373.711 24.066 l 371.938 24.066 l 369.199 27.957 l 
369.039 28.172 368.883 28.414 368.723 28.68 c 368.48 28.281 368.309 
28.004 368.199 27.855 c 365.473 24.066 l h
363.734 24.066 m f
1 g
447.984 97.371 54.477 -35.676 re f
0 g
[ 3.2 2.4] 0 d
q 1 0 0 -1 0 147 cm
447.984 49.629 54.477 35.676 re S Q
459.398 73.996 m 459.398 84.871 l 463.148 84.871 l 463.992 84.871 
464.637 84.824 465.086 84.723 c 465.703 84.582 466.234 84.324 466.676 
83.949 c 467.25 83.457 467.68 82.832 467.961 82.074 c 468.246 81.324 
468.387 80.465 468.387 79.496 c 468.387 78.672 468.293 77.938 468.102 
77.297 c 467.906 76.664 467.664 76.137 467.363 75.711 c 467.062 75.293 
466.734 74.965 466.375 74.723 c 466.016 74.488 465.582 74.309 465.074 
74.184 c 464.566 74.059 463.984 73.996 463.324 73.996 c h
460.836 75.285 m 463.164 75.285 l 463.879 75.285 464.441 75.352 464.852 
75.484 c 465.258 75.617 465.582 75.805 465.824 76.047 c 466.168 76.391 
466.434 76.848 466.625 77.422 c 466.816 77.996 466.914 78.699 466.914 
79.523 c 466.914 80.656 466.727 81.527 466.352 82.137 c 465.977 82.75 
465.52 83.164 464.988 83.371 c 464.605 83.523 463.984 83.598 463.125 
83.598 c 460.836 83.598 l h
470.414 73.996 m 470.414 84.871 l 471.867 84.871 l 471.867 73.996 l h
474.398 73.996 m 474.398 84.871 l 481.738 84.871 l 481.738 83.598 l 
475.836 83.598 l 475.836 80.223 l 480.938 80.223 l 480.938 78.934 l 
475.836 78.934 l 475.836 73.996 l h
482.953 77.496 m 484.305 77.609 l 484.371 77.066 484.52 76.621 484.754 
76.273 c 484.988 75.922 485.352 75.641 485.84 75.422 c 486.34 75.207 
486.898 75.098 487.516 75.098 c 488.066 75.098 488.551 75.18 488.965 
75.348 c 489.391 75.516 489.707 75.738 489.918 76.023 c 490.125 76.305 
490.23 76.613 490.23 76.949 c 490.23 77.289 490.129 77.586 489.93 
77.836 c 489.73 78.094 489.398 78.309 488.941 78.484 c 488.648 78.602 
488.004 78.777 487.004 79.012 c 486.004 79.25 485.305 79.48 484.902 
79.699 c 484.387 79.973 484 80.309 483.742 80.711 c 483.492 81.109 
483.367 81.559 483.367 82.059 c 483.367 82.609 483.52 83.121 483.828 
83.598 c 484.145 84.082 484.602 84.441 485.191 84.684 c 485.793 84.934 
486.457 85.059 487.191 85.059 c 488 85.059 488.711 84.93 489.328 84.672 
c 489.945 84.414 490.418 84.031 490.742 83.523 c 491.074 83.023 491.254 
82.453 491.277 81.809 c 489.902 81.711 l 489.828 82.395 489.574 82.91 
489.141 83.262 c 488.715 83.617 488.086 83.797 487.254 83.797 c 486.387 
83.797 485.754 83.637 485.355 83.309 c 484.953 82.992 484.754 82.609 
484.754 82.16 c 484.754 81.77 484.895 81.449 485.18 81.199 c 485.453 
80.949 486.176 80.688 487.34 80.422 c 488.516 80.156 489.32 79.922 
489.754 79.723 c 490.387 79.43 490.855 79.059 491.152 78.609 c 491.461 
78.168 491.617 77.656 491.617 77.074 c 491.617 76.488 491.449 75.938 
491.117 75.422 c 490.785 74.914 490.305 74.52 489.68 74.234 c 489.062 
73.953 488.367 73.809 487.59 73.809 c 486.609 73.809 485.785 73.953 
485.117 74.234 c 484.449 74.527 483.926 74.961 483.543 75.535 c 483.168 
76.109 482.973 76.766 482.953 77.496 c h
482.953 77.496 m f
1 g
502.461 97.285 10.383 -35.676 re f
0 g
[ 3.2 2.4] 0 d
q 1 0 0 -1 0 147 cm
502.461 49.715 10.383 35.676 re S Q
1 g
512.84 97.371 10.383 -35.676 re f
0 g
[ 3.2 2.4] 0 d
q 1 0 0 -1 0 147 cm
512.84 49.629 10.383 35.676 re S Q
1 g
523.223 97.371 10.379 -35.676 re f
0 g
[ 3.2 2.4] 0 d
q 1 0 0 -1 0 147 cm
523.223 49.629 10.379 35.676 re S Q
1 g
533.602 97.242 10.379 -35.676 re f
0 g
[ 3.2 2.4] 0 d
q 1 0 0 -1 0 147 cm
533.602 49.758 10.379 35.676 re S Q
1 g
543.98 97.328 10.383 -35.676 re f
0 g
[ 3.2 2.4] 0 d
q 1 0 0 -1 0 147 cm
543.98 49.672 10.383 35.676 re S Q
1 g
554.359 97.328 10.383 -35.676 re f
0 g
[ 3.2 2.4] 0 d
q 1 0 0 -1 0 147 cm
554.359 49.672 10.383 35.676 re S Q
1 g
564.742 97.395 10.379 -35.676 re f
0 g
[ 3.2 2.4] 0 d
q 1 0 0 -1 0 147 cm
564.742 49.605 10.379 35.676 re S Q
1 g
575.121 97.48 10.383 -35.676 re f
0 g
[ 3.2 2.4] 0 d
q 1 0 0 -1 0 147 cm
575.121 49.52 10.383 35.676 re S Q
1 g
585.5 97.48 10.383 -35.676 re f
0 g
[ 3.2 2.4] 0 d
q 1 0 0 -1 0 147 cm
585.5 49.52 10.383 35.676 re S Q
1 g
595.883 97.352 10.379 -35.676 re f
0 g
[ 3.2 2.4] 0 d
q 1 0 0 -1 0 147 cm
595.883 49.648 10.379 35.676 re S Q
606.262 97.438 10.379 -35.676 re f
[ 3.2 2.4] 0 d
q 1 0 0 -1 0 147 cm
606.262 49.562 10.379 35.676 re S Q
0.917647 0.6 0.6 rg
616.641 97.352 48.43 -35.68 re f
[] 0.0 d
q 1 0 0 -1 0 147 cm
616.641 49.648 48.43 35.68 re S Q
0 g
636.504 73.977 m 636.504 83.578 l 632.926 83.578 l 632.926 84.852 l 
641.539 84.852 l 641.539 83.578 l 637.941 83.578 l 637.941 73.977 l h
641.793 73.977 m 644.668 78.078 l 642.008 81.863 l 643.684 81.863 l 
644.895 80.016 l 645.121 79.664 645.297 79.367 645.434 79.125 c 645.656 
79.453 645.859 79.742 646.043 80 c 647.371 81.863 l 648.957 81.863 l 
646.246 78.152 l 649.168 73.977 l 647.531 73.977 l 645.906 76.426 l 
645.48 77.09 l 643.406 73.977 l h
641.793 73.977 m f
24.656 109.285 m 26.008 109.398 l 26.074 108.855 26.223 108.41 26.457 
108.059 c 26.691 107.711 27.051 107.426 27.543 107.211 c 28.043 106.992 
28.602 106.887 29.219 106.887 c 29.77 106.887 30.254 106.969 30.668 
107.137 c 31.094 107.301 31.41 107.527 31.617 107.809 c 31.828 108.094 
31.93 108.402 31.93 108.734 c 31.93 109.078 31.832 109.371 31.633 
109.621 c 31.43 109.883 31.102 110.098 30.645 110.273 c 30.352 110.391 
29.707 110.562 28.707 110.797 c 27.707 111.039 27.008 111.27 26.605 
111.484 c 26.09 111.762 25.703 112.098 25.445 112.496 c 25.195 112.898 
25.07 113.348 25.07 113.848 c 25.07 114.398 25.223 114.91 25.531 
115.387 c 25.848 115.867 26.301 116.23 26.895 116.473 c 27.492 116.723 
28.16 116.848 28.895 116.848 c 29.703 116.848 30.414 116.719 31.031 
116.461 c 31.648 116.203 32.117 115.82 32.445 115.309 c 32.777 114.809 
32.957 114.238 32.98 113.598 c 31.605 113.496 l 31.531 114.18 31.277 
114.699 30.844 115.047 c 30.418 115.406 29.789 115.586 28.957 115.586 c 
28.09 115.586 27.457 115.422 27.055 115.098 c 26.656 114.781 26.457 
114.398 26.457 113.949 c 26.457 113.555 26.598 113.234 26.883 112.984 c 
27.156 112.734 27.879 112.477 29.043 112.211 c 30.219 111.945 31.023 
111.711 31.457 111.512 c 32.09 111.219 32.555 110.848 32.855 110.398 c 
33.164 109.957 33.32 109.445 33.32 108.859 c 33.32 108.277 33.152 
107.727 32.82 107.211 c 32.484 106.703 32.008 106.305 31.383 106.023 c 
30.766 105.738 30.07 105.598 29.293 105.598 c 28.309 105.598 27.484 
105.738 26.82 106.023 c 26.152 106.312 25.629 106.746 25.242 107.324 c 
24.867 107.898 24.672 108.551 24.656 109.285 c h
37.859 105.785 m 37.859 115.387 l 34.285 115.387 l 34.285 116.66 l 
42.898 116.66 l 42.898 115.387 l 39.297 115.387 l 39.297 105.785 l h
43.016 105.785 m 47.203 116.66 l 48.754 116.66 l 53.203 105.785 l 
51.566 105.785 l 50.289 109.086 l 45.742 109.086 l 44.555 105.785 l h
46.152 110.246 m 49.84 110.246 l 48.715 113.273 l 48.367 114.18 48.105 
114.93 47.941 115.523 c 47.797 114.824 47.602 114.133 47.352 113.449 c 
h
62.805 105.785 m 61.469 105.785 l 61.469 114.297 l 61.148 113.988 60.73 
113.68 60.203 113.371 c 59.68 113.074 59.207 112.844 58.793 112.684 c 
58.793 113.984 l 59.543 114.336 60.195 114.762 60.754 115.262 c 61.312 
115.762 61.707 116.242 61.941 116.711 c 62.805 116.711 l h
62.805 105.785 m f
24.656 59.465 m 26.008 59.578 l 26.074 59.035 26.223 58.59 26.457 
58.238 c 26.691 57.891 27.051 57.605 27.543 57.391 c 28.043 57.172 
28.602 57.066 29.219 57.066 c 29.77 57.066 30.254 57.148 30.668 57.316 
c 31.094 57.48 31.41 57.707 31.617 57.988 c 31.828 58.273 31.93 58.582 
31.93 58.914 c 31.93 59.258 31.832 59.551 31.633 59.801 c 31.43 60.062 
31.102 60.277 30.645 60.453 c 30.352 60.57 29.707 60.742 28.707 60.977 
c 27.707 61.219 27.008 61.449 26.605 61.664 c 26.09 61.941 25.703 
62.277 25.445 62.676 c 25.195 63.078 25.07 63.527 25.07 64.027 c 25.07 
64.578 25.223 65.09 25.531 65.566 c 25.848 66.047 26.301 66.41 26.895 
66.652 c 27.492 66.902 28.16 67.027 28.895 67.027 c 29.703 67.027 
30.414 66.898 31.031 66.641 c 31.648 66.383 32.117 66 32.445 65.488 c 
32.777 64.988 32.957 64.418 32.98 63.777 c 31.605 63.676 l 31.531 
64.359 31.277 64.879 30.844 65.227 c 30.418 65.586 29.789 65.766 28.957 
65.766 c 28.09 65.766 27.457 65.602 27.055 65.277 c 26.656 64.961 
26.457 64.578 26.457 64.129 c 26.457 63.734 26.598 63.414 26.883 63.164 
c 27.156 62.914 27.879 62.656 29.043 62.391 c 30.219 62.125 31.023 
61.891 31.457 61.691 c 32.09 61.398 32.555 61.027 32.855 60.578 c 
33.164 60.137 33.32 59.625 33.32 59.039 c 33.32 58.457 33.152 57.906 
32.82 57.391 c 32.484 56.883 32.008 56.484 31.383 56.203 c 30.766 
55.918 30.07 55.777 29.293 55.777 c 28.309 55.777 27.484 55.918 26.82 
56.203 c 26.152 56.492 25.629 56.926 25.242 57.504 c 24.867 58.078 
24.672 58.73 24.656 59.465 c h
37.859 55.965 m 37.859 65.566 l 34.285 65.566 l 34.285 66.84 l 42.898 
66.84 l 42.898 65.566 l 39.297 65.566 l 39.297 55.965 l h
43.016 55.965 m 47.203 66.84 l 48.754 66.84 l 53.203 55.965 l 51.566 
55.965 l 50.289 59.266 l 45.742 59.266 l 44.555 55.965 l h
46.152 60.426 m 49.84 60.426 l 48.715 63.453 l 48.367 64.359 48.105 
65.109 47.941 65.703 c 47.797 65.004 47.602 64.312 47.352 63.629 c h
64.793 57.254 m 64.793 55.965 l 57.605 55.965 l 57.598 56.289 57.645 
56.598 57.754 56.891 c 57.938 57.383 58.23 57.863 58.629 58.34 c 59.039 
58.816 59.621 59.363 60.379 59.988 c 61.562 60.957 62.363 61.723 62.781 
62.289 c 63.195 62.855 63.406 63.395 63.406 63.902 c 63.406 64.426 
63.211 64.875 62.828 65.238 c 62.453 65.605 61.961 65.789 61.355 65.789 
c 60.711 65.789 60.195 65.594 59.805 65.203 c 59.422 64.82 59.23 64.285 
59.23 63.602 c 57.855 63.738 l 57.945 64.766 58.301 65.543 58.918 
66.078 c 59.535 66.617 60.359 66.891 61.391 66.891 c 62.434 66.891 
63.258 66.598 63.867 66.016 c 64.477 65.441 64.781 64.723 64.781 63.863 
c 64.781 63.43 64.688 63.004 64.504 62.578 c 64.328 62.16 64.035 61.719 
63.617 61.254 c 63.207 60.793 62.523 60.156 61.566 59.34 c 60.766 
58.664 60.25 58.207 60.016 57.965 c 59.793 57.73 59.605 57.492 59.453 
57.254 c h
64.793 57.254 m f
24.656 9.645 m 26.008 9.758 l 26.074 9.215 26.223 8.77 26.457 8.418 c 
26.691 8.07 27.051 7.785 27.543 7.57 c 28.043 7.352 28.602 7.246 29.219 
7.246 c 29.77 7.246 30.254 7.328 30.668 7.496 c 31.094 7.66 31.41 7.887 
31.617 8.168 c 31.828 8.453 31.93 8.762 31.93 9.094 c 31.93 9.438 
31.832 9.73 31.633 9.98 c 31.43 10.238 31.102 10.457 30.645 10.633 c 
30.352 10.75 29.707 10.922 28.707 11.156 c 27.707 11.398 27.008 11.629 
26.605 11.844 c 26.09 12.121 25.703 12.457 25.445 12.855 c 25.195 
13.258 25.07 13.707 25.07 14.207 c 25.07 14.758 25.223 15.27 25.531 
15.746 c 25.848 16.227 26.301 16.59 26.895 16.832 c 27.492 17.082 28.16 
17.207 28.895 17.207 c 29.703 17.207 30.414 17.078 31.031 16.82 c 
31.648 16.562 32.117 16.176 32.445 15.668 c 32.777 15.168 32.957 14.598 
32.98 13.957 c 31.605 13.855 l 31.531 14.539 31.277 15.059 30.844 
15.406 c 30.418 15.766 29.789 15.945 28.957 15.945 c 28.09 15.945 
27.457 15.781 27.055 15.457 c 26.656 15.141 26.457 14.758 26.457 14.309 
c 26.457 13.914 26.598 13.594 26.883 13.344 c 27.156 13.094 27.879 
12.836 29.043 12.57 c 30.219 12.301 31.023 12.07 31.457 11.871 c 32.09 
11.578 32.555 11.207 32.855 10.758 c 33.164 10.316 33.32 9.801 33.32 
9.219 c 33.32 8.637 33.152 8.086 32.82 7.57 c 32.484 7.062 32.008 6.664 
31.383 6.383 c 30.766 6.098 30.07 5.957 29.293 5.957 c 28.309 5.957 
27.484 6.098 26.82 6.383 c 26.152 6.672 25.629 7.105 25.242 7.684 c 
24.867 8.258 24.672 8.91 24.656 9.645 c h
37.859 6.145 m 37.859 15.746 l 34.285 15.746 l 34.285 17.02 l 42.898 
17.02 l 42.898 15.746 l 39.297 15.746 l 39.297 6.145 l h
43.016 6.145 m 47.203 17.02 l 48.754 17.02 l 53.203 6.145 l 51.566 
6.145 l 50.289 9.445 l 45.742 9.445 l 44.555 6.145 l h
46.152 10.605 m 49.84 10.605 l 48.715 13.633 l 48.367 14.539 48.105 
15.289 47.941 15.883 c 47.797 15.184 47.602 14.488 47.352 13.809 c h
57.781 9.02 m 59.117 9.195 l 59.266 8.438 59.523 7.891 59.891 7.559 c 
60.266 7.223 60.719 7.059 61.242 7.059 c 61.875 7.059 62.41 7.273 
62.844 7.707 c 63.273 8.148 63.492 8.691 63.492 9.332 c 63.492 9.941 
63.289 10.445 62.879 10.844 c 62.48 11.246 61.973 11.445 61.355 11.445 
c 61.105 11.445 60.793 11.395 60.418 11.293 c 60.566 12.469 l 60.648 
12.461 60.723 12.457 60.781 12.457 c 61.348 12.457 61.855 12.602 62.305 
12.895 c 62.762 13.195 62.992 13.652 62.992 14.27 c 62.992 14.762 
62.824 15.164 62.492 15.48 c 62.168 15.809 61.742 15.969 61.219 15.969 
c 60.699 15.969 60.266 15.809 59.918 15.48 c 59.574 15.156 59.355 
14.664 59.254 14.008 c 57.918 14.246 l 58.074 15.145 58.441 15.84 
59.016 16.332 c 59.602 16.824 60.324 17.07 61.191 17.07 c 61.785 17.07 
62.328 16.941 62.828 16.684 c 63.328 16.434 63.707 16.086 63.969 15.645 
c 64.234 15.203 64.367 14.734 64.367 14.246 c 64.367 13.77 64.242 13.34 
63.992 12.957 c 63.742 12.574 63.367 12.266 62.867 12.031 c 63.516 
11.891 64.016 11.582 64.367 11.105 c 64.727 10.641 64.906 10.059 64.906 
9.355 c 64.906 8.406 64.559 7.602 63.867 6.945 c 63.176 6.285 62.301 
5.957 61.242 5.957 c 60.285 5.957 59.488 6.238 58.855 6.809 c 58.23 
7.375 57.871 8.109 57.781 9.02 c h
57.781 9.02 m f
1 g
121.57 79.641 m 121.57 79.641 l 121.57 88.34 128.617 95.391 137.316 
95.391 c 141.492 95.391 145.5 93.73 148.453 90.777 c 151.406 87.824 
153.066 83.82 153.066 79.641 c 153.066 70.945 146.016 63.895 137.316 
63.895 c 128.617 63.895 121.57 70.945 121.57 79.641 c h
121.57 79.641 m f
0.6 g
q 1 0 0 -1 0 147 cm
121.57 67.359 m 121.57 58.66 128.617 51.609 137.316 51.609 c 141.492 
51.609 145.5 53.27 148.453 56.223 c 151.406 59.176 153.066 63.18 
153.066 67.359 c 153.066 76.055 146.016 83.105 137.316 83.105 c 128.617 
83.105 121.57 76.055 121.57 67.359 c h
121.57 67.359 m S Q
0 g
138.828 74.105 m 137.492 74.105 l 137.492 82.617 l 137.176 82.312 
136.754 82.004 136.23 81.695 c 135.703 81.395 135.234 81.164 134.816 
81.008 c 134.816 82.305 l 135.566 82.656 136.219 83.082 136.777 83.582 
c 137.336 84.082 137.734 84.566 137.965 85.031 c 138.828 85.031 l h
138.828 74.105 m f
1 g
284.777 79.383 m 284.777 79.383 l 284.777 88.078 291.828 95.129 300.523 
95.129 c 304.703 95.129 308.707 93.473 311.66 90.52 c 314.613 87.562 
316.273 83.559 316.273 79.383 c 316.273 70.684 309.223 63.633 300.523 
63.633 c 291.828 63.633 284.777 70.684 284.777 79.383 c h
284.777 79.383 m f
0.6 g
q 1 0 0 -1 0 147 cm
284.777 67.617 m 284.777 58.922 291.828 51.871 300.523 51.871 c 304.703 
51.871 308.707 53.527 311.66 56.48 c 314.613 59.438 316.273 63.441 
316.273 67.617 c 316.273 76.316 309.223 83.367 300.523 83.367 c 291.828 
83.367 284.777 76.316 284.777 67.617 c h
284.777 67.617 m S Q
0 g
304.023 75.133 m 304.023 73.848 l 296.836 73.848 l 296.828 74.172 
296.879 74.48 296.988 74.77 c 297.172 75.262 297.461 75.746 297.863 
76.223 c 298.27 76.695 298.855 77.246 299.613 77.871 c 300.797 78.836 
301.594 79.605 302.012 80.172 c 302.43 80.738 302.637 81.273 302.637 
81.785 c 302.637 82.309 302.445 82.754 302.062 83.121 c 301.688 83.488 
301.195 83.672 300.586 83.672 c 299.945 83.672 299.43 83.477 299.039 
83.082 c 298.652 82.699 298.461 82.168 298.461 81.484 c 297.086 81.621 
l 297.18 82.645 297.531 83.426 298.148 83.957 c 298.766 84.5 299.59 
84.77 300.625 84.77 c 301.668 84.77 302.492 84.48 303.102 83.895 c 
303.707 83.32 304.012 82.605 304.012 81.746 c 304.012 81.312 303.922 
80.883 303.738 80.457 c 303.562 80.043 303.266 79.602 302.852 79.133 c 
302.441 78.676 301.758 78.039 300.801 77.223 c 300 76.547 299.484 
76.086 299.25 75.848 c 299.023 75.613 298.836 75.375 298.688 75.133 c h
304.023 75.133 m f
1 g
409.188 79.383 m 409.188 79.383 l 409.188 88.078 416.238 95.129 424.938 
95.129 c 429.113 95.129 433.117 93.473 436.07 90.52 c 439.023 87.562 
440.684 83.559 440.684 79.383 c 440.684 70.684 433.633 63.633 424.938 
63.633 c 416.238 63.633 409.188 70.684 409.188 79.383 c h
409.188 79.383 m f
0.6 g
q 1 0 0 -1 0 147 cm
409.188 67.617 m 409.188 58.922 416.238 51.871 424.938 51.871 c 429.113 
51.871 433.117 53.527 436.07 56.48 c 439.023 59.438 440.684 63.441 
440.684 67.617 c 440.684 76.316 433.633 83.367 424.938 83.367 c 416.238 
83.367 409.188 76.316 409.188 67.617 c h
409.188 67.617 m S Q
0 g
421.422 76.723 m 422.762 76.895 l 422.91 76.137 423.168 75.594 423.535 
75.258 c 423.91 74.926 424.359 74.758 424.887 74.758 c 425.52 74.758 
426.055 74.977 426.484 75.41 c 426.918 75.852 427.137 76.391 427.137 
77.035 c 427.137 77.641 426.934 78.145 426.523 78.547 c 426.125 78.945 
425.617 79.145 425 79.145 c 424.75 79.145 424.438 79.098 424.062 78.996 
c 424.211 80.172 l 424.293 80.164 424.367 80.16 424.422 80.16 c 424.992 
80.16 425.5 80.305 425.949 80.598 c 426.406 80.895 426.637 81.355 
426.637 81.973 c 426.637 82.461 426.469 82.867 426.137 83.184 c 425.812 
83.508 425.387 83.672 424.859 83.672 c 424.344 83.672 423.91 83.508 
423.562 83.184 c 423.219 82.859 423 82.367 422.898 81.707 c 421.562 
81.945 l 421.719 82.848 422.086 83.543 422.66 84.035 c 423.246 84.523 
423.969 84.77 424.836 84.77 c 425.43 84.77 425.973 84.641 426.473 
84.383 c 426.973 84.133 427.352 83.789 427.609 83.348 c 427.879 82.906 
428.012 82.438 428.012 81.945 c 428.012 81.473 427.887 81.043 427.637 
80.66 c 427.387 80.273 427.012 79.969 426.512 79.734 c 427.16 79.594 
427.66 79.285 428.012 78.809 c 428.371 78.344 428.547 77.758 428.547 
77.059 c 428.547 76.109 428.203 75.305 427.512 74.645 c 426.82 73.988 
425.945 73.66 424.887 73.66 c 423.93 73.66 423.133 73.941 422.5 74.508 
c 421.875 75.074 421.516 75.812 421.422 76.723 c h
421.422 76.723 m f
  Q
Q
Q Q
showpage
%%Trailer
count op_count sub {pop} repeat
countdictstack dict_count sub {end} repeat
cairo_eps_state restore
%%EOF
