%!PS-Adobe-2.0
%%Title: csma_effectiveness.ps
%%Creator: gnuplot 4.6 patchlevel 6
%%CreationDate: Fri Sep 25 01:42:24 2015
%%DocumentFonts: (atend)
%%BoundingBox: 50 50 554 770
%%Orientation: Landscape
%%Pages: (atend)
%%EndComments
%%BeginProlog
/gnudict 256 dict def
gnudict begin
%
% The following true/false flags may be edited by hand if desired.
% The unit line width and grayscale image gamma correction may also be changed.
%
/Color false def
/Blacktext false def
/Solid false def
/Dashlength 1 def
/Landscape true def
/Level1 false def
/Rounded false def
/ClipToBoundingBox false def
/SuppressPDFMark false def
/TransparentPatterns false def
/gnulinewidth 5.000 def
/userlinewidth gnulinewidth def
/Gamma 1.0 def
/BackgroundColor {-1.000 -1.000 -1.000} def
%
/vshift -46 def
/dl1 {
  10.0 Dashlength mul mul
  Rounded { currentlinewidth 0.75 mul sub dup 0 le { pop 0.01 } if } if
} def
/dl2 {
  10.0 Dashlength mul mul
  Rounded { currentlinewidth 0.75 mul add } if
} def
/hpt_ 31.5 def
/vpt_ 31.5 def
/hpt hpt_ def
/vpt vpt_ def
/doclip {
  ClipToBoundingBox {
    newpath 50 50 moveto 554 50 lineto 554 770 lineto 50 770 lineto closepath
    clip
  } if
} def
%
% Gnuplot Prolog Version 4.6 (September 2012)
%
%/SuppressPDFMark true def
%
/M {moveto} bind def
/L {lineto} bind def
/R {rmoveto} bind def
/V {rlineto} bind def
/N {newpath moveto} bind def
/Z {closepath} bind def
/C {setrgbcolor} bind def
/f {rlineto fill} bind def
/g {setgray} bind def
/Gshow {show} def   % May be redefined later in the file to support UTF-8
/vpt2 vpt 2 mul def
/hpt2 hpt 2 mul def
/Lshow {currentpoint stroke M 0 vshift R 
	Blacktext {gsave 0 setgray show grestore} {show} ifelse} def
/Rshow {currentpoint stroke M dup stringwidth pop neg vshift R
	Blacktext {gsave 0 setgray show grestore} {show} ifelse} def
/Cshow {currentpoint stroke M dup stringwidth pop -2 div vshift R 
	Blacktext {gsave 0 setgray show grestore} {show} ifelse} def
/UP {dup vpt_ mul /vpt exch def hpt_ mul /hpt exch def
  /hpt2 hpt 2 mul def /vpt2 vpt 2 mul def} def
/DL {Color {setrgbcolor Solid {pop []} if 0 setdash}
 {pop pop pop 0 setgray Solid {pop []} if 0 setdash} ifelse} def
/BL {stroke userlinewidth 2 mul setlinewidth
	Rounded {1 setlinejoin 1 setlinecap} if} def
/AL {stroke userlinewidth 2 div setlinewidth
	Rounded {1 setlinejoin 1 setlinecap} if} def
/UL {dup gnulinewidth mul /userlinewidth exch def
	dup 1 lt {pop 1} if 10 mul /udl exch def} def
/PL {stroke userlinewidth setlinewidth
	Rounded {1 setlinejoin 1 setlinecap} if} def
3.8 setmiterlimit
% Default Line colors
/LCw {1 1 1} def
/LCb {0 0 0} def
/LCa {0 0 0} def
/LC0 {1 0 0} def
/LC1 {0 1 0} def
/LC2 {0 0 1} def
/LC3 {1 0 1} def
/LC4 {0 1 1} def
/LC5 {1 1 0} def
/LC6 {0 0 0} def
/LC7 {1 0.3 0} def
/LC8 {0.5 0.5 0.5} def
% Default Line Types
/LTw {PL [] 1 setgray} def
/LTb {BL [] LCb DL} def
/LTa {AL [1 udl mul 2 udl mul] 0 setdash LCa setrgbcolor} def
/LT0 {PL [] LC0 DL} def
/LT1 {PL [4 dl1 2 dl2] LC1 DL} def
/LT2 {PL [2 dl1 3 dl2] LC2 DL} def
/LT3 {PL [1 dl1 1.5 dl2] LC3 DL} def
/LT4 {PL [6 dl1 2 dl2 1 dl1 2 dl2] LC4 DL} def
/LT5 {PL [3 dl1 3 dl2 1 dl1 3 dl2] LC5 DL} def
/LT6 {PL [2 dl1 2 dl2 2 dl1 6 dl2] LC6 DL} def
/LT7 {PL [1 dl1 2 dl2 6 dl1 2 dl2 1 dl1 2 dl2] LC7 DL} def
/LT8 {PL [2 dl1 2 dl2 2 dl1 2 dl2 2 dl1 2 dl2 2 dl1 4 dl2] LC8 DL} def
/Pnt {stroke [] 0 setdash gsave 1 setlinecap M 0 0 V stroke grestore} def
/Dia {stroke [] 0 setdash 2 copy vpt add M
  hpt neg vpt neg V hpt vpt neg V
  hpt vpt V hpt neg vpt V closepath stroke
  Pnt} def
/Pls {stroke [] 0 setdash vpt sub M 0 vpt2 V
  currentpoint stroke M
  hpt neg vpt neg R hpt2 0 V stroke
 } def
/Box {stroke [] 0 setdash 2 copy exch hpt sub exch vpt add M
  0 vpt2 neg V hpt2 0 V 0 vpt2 V
  hpt2 neg 0 V closepath stroke
  Pnt} def
/Crs {stroke [] 0 setdash exch hpt sub exch vpt add M
  hpt2 vpt2 neg V currentpoint stroke M
  hpt2 neg 0 R hpt2 vpt2 V stroke} def
/TriU {stroke [] 0 setdash 2 copy vpt 1.12 mul add M
  hpt neg vpt -1.62 mul V
  hpt 2 mul 0 V
  hpt neg vpt 1.62 mul V closepath stroke
  Pnt} def
/Star {2 copy Pls Crs} def
/BoxF {stroke [] 0 setdash exch hpt sub exch vpt add M
  0 vpt2 neg V hpt2 0 V 0 vpt2 V
  hpt2 neg 0 V closepath fill} def
/TriUF {stroke [] 0 setdash vpt 1.12 mul add M
  hpt neg vpt -1.62 mul V
  hpt 2 mul 0 V
  hpt neg vpt 1.62 mul V closepath fill} def
/TriD {stroke [] 0 setdash 2 copy vpt 1.12 mul sub M
  hpt neg vpt 1.62 mul V
  hpt 2 mul 0 V
  hpt neg vpt -1.62 mul V closepath stroke
  Pnt} def
/TriDF {stroke [] 0 setdash vpt 1.12 mul sub M
  hpt neg vpt 1.62 mul V
  hpt 2 mul 0 V
  hpt neg vpt -1.62 mul V closepath fill} def
/DiaF {stroke [] 0 setdash vpt add M
  hpt neg vpt neg V hpt vpt neg V
  hpt vpt V hpt neg vpt V closepath fill} def
/Pent {stroke [] 0 setdash 2 copy gsave
  translate 0 hpt M 4 {72 rotate 0 hpt L} repeat
  closepath stroke grestore Pnt} def
/PentF {stroke [] 0 setdash gsave
  translate 0 hpt M 4 {72 rotate 0 hpt L} repeat
  closepath fill grestore} def
/Circle {stroke [] 0 setdash 2 copy
  hpt 0 360 arc stroke Pnt} def
/CircleF {stroke [] 0 setdash hpt 0 360 arc fill} def
/C0 {BL [] 0 setdash 2 copy moveto vpt 90 450 arc} bind def
/C1 {BL [] 0 setdash 2 copy moveto
	2 copy vpt 0 90 arc closepath fill
	vpt 0 360 arc closepath} bind def
/C2 {BL [] 0 setdash 2 copy moveto
	2 copy vpt 90 180 arc closepath fill
	vpt 0 360 arc closepath} bind def
/C3 {BL [] 0 setdash 2 copy moveto
	2 copy vpt 0 180 arc closepath fill
	vpt 0 360 arc closepath} bind def
/C4 {BL [] 0 setdash 2 copy moveto
	2 copy vpt 180 270 arc closepath fill
	vpt 0 360 arc closepath} bind def
/C5 {BL [] 0 setdash 2 copy moveto
	2 copy vpt 0 90 arc
	2 copy moveto
	2 copy vpt 180 270 arc closepath fill
	vpt 0 360 arc} bind def
/C6 {BL [] 0 setdash 2 copy moveto
	2 copy vpt 90 270 arc closepath fill
	vpt 0 360 arc closepath} bind def
/C7 {BL [] 0 setdash 2 copy moveto
	2 copy vpt 0 270 arc closepath fill
	vpt 0 360 arc closepath} bind def
/C8 {BL [] 0 setdash 2 copy moveto
	2 copy vpt 270 360 arc closepath fill
	vpt 0 360 arc closepath} bind def
/C9 {BL [] 0 setdash 2 copy moveto
	2 copy vpt 270 450 arc closepath fill
	vpt 0 360 arc closepath} bind def
/C10 {BL [] 0 setdash 2 copy 2 copy moveto vpt 270 360 arc closepath fill
	2 copy moveto
	2 copy vpt 90 180 arc closepath fill
	vpt 0 360 arc closepath} bind def
/C11 {BL [] 0 setdash 2 copy moveto
	2 copy vpt 0 180 arc closepath fill
	2 copy moveto
	2 copy vpt 270 360 arc closepath fill
	vpt 0 360 arc closepath} bind def
/C12 {BL [] 0 setdash 2 copy moveto
	2 copy vpt 180 360 arc closepath fill
	vpt 0 360 arc closepath} bind def
/C13 {BL [] 0 setdash 2 copy moveto
	2 copy vpt 0 90 arc closepath fill
	2 copy moveto
	2 copy vpt 180 360 arc closepath fill
	vpt 0 360 arc closepath} bind def
/C14 {BL [] 0 setdash 2 copy moveto
	2 copy vpt 90 360 arc closepath fill
	vpt 0 360 arc} bind def
/C15 {BL [] 0 setdash 2 copy vpt 0 360 arc closepath fill
	vpt 0 360 arc closepath} bind def
/Rec {newpath 4 2 roll moveto 1 index 0 rlineto 0 exch rlineto
	neg 0 rlineto closepath} bind def
/Square {dup Rec} bind def
/Bsquare {vpt sub exch vpt sub exch vpt2 Square} bind def
/S0 {BL [] 0 setdash 2 copy moveto 0 vpt rlineto BL Bsquare} bind def
/S1 {BL [] 0 setdash 2 copy vpt Square fill Bsquare} bind def
/S2 {BL [] 0 setdash 2 copy exch vpt sub exch vpt Square fill Bsquare} bind def
/S3 {BL [] 0 setdash 2 copy exch vpt sub exch vpt2 vpt Rec fill Bsquare} bind def
/S4 {BL [] 0 setdash 2 copy exch vpt sub exch vpt sub vpt Square fill Bsquare} bind def
/S5 {BL [] 0 setdash 2 copy 2 copy vpt Square fill
	exch vpt sub exch vpt sub vpt Square fill Bsquare} bind def
/S6 {BL [] 0 setdash 2 copy exch vpt sub exch vpt sub vpt vpt2 Rec fill Bsquare} bind def
/S7 {BL [] 0 setdash 2 copy exch vpt sub exch vpt sub vpt vpt2 Rec fill
	2 copy vpt Square fill Bsquare} bind def
/S8 {BL [] 0 setdash 2 copy vpt sub vpt Square fill Bsquare} bind def
/S9 {BL [] 0 setdash 2 copy vpt sub vpt vpt2 Rec fill Bsquare} bind def
/S10 {BL [] 0 setdash 2 copy vpt sub vpt Square fill 2 copy exch vpt sub exch vpt Square fill
	Bsquare} bind def
/S11 {BL [] 0 setdash 2 copy vpt sub vpt Square fill 2 copy exch vpt sub exch vpt2 vpt Rec fill
	Bsquare} bind def
/S12 {BL [] 0 setdash 2 copy exch vpt sub exch vpt sub vpt2 vpt Rec fill Bsquare} bind def
/S13 {BL [] 0 setdash 2 copy exch vpt sub exch vpt sub vpt2 vpt Rec fill
	2 copy vpt Square fill Bsquare} bind def
/S14 {BL [] 0 setdash 2 copy exch vpt sub exch vpt sub vpt2 vpt Rec fill
	2 copy exch vpt sub exch vpt Square fill Bsquare} bind def
/S15 {BL [] 0 setdash 2 copy Bsquare fill Bsquare} bind def
/D0 {gsave translate 45 rotate 0 0 S0 stroke grestore} bind def
/D1 {gsave translate 45 rotate 0 0 S1 stroke grestore} bind def
/D2 {gsave translate 45 rotate 0 0 S2 stroke grestore} bind def
/D3 {gsave translate 45 rotate 0 0 S3 stroke grestore} bind def
/D4 {gsave translate 45 rotate 0 0 S4 stroke grestore} bind def
/D5 {gsave translate 45 rotate 0 0 S5 stroke grestore} bind def
/D6 {gsave translate 45 rotate 0 0 S6 stroke grestore} bind def
/D7 {gsave translate 45 rotate 0 0 S7 stroke grestore} bind def
/D8 {gsave translate 45 rotate 0 0 S8 stroke grestore} bind def
/D9 {gsave translate 45 rotate 0 0 S9 stroke grestore} bind def
/D10 {gsave translate 45 rotate 0 0 S10 stroke grestore} bind def
/D11 {gsave translate 45 rotate 0 0 S11 stroke grestore} bind def
/D12 {gsave translate 45 rotate 0 0 S12 stroke grestore} bind def
/D13 {gsave translate 45 rotate 0 0 S13 stroke grestore} bind def
/D14 {gsave translate 45 rotate 0 0 S14 stroke grestore} bind def
/D15 {gsave translate 45 rotate 0 0 S15 stroke grestore} bind def
/DiaE {stroke [] 0 setdash vpt add M
  hpt neg vpt neg V hpt vpt neg V
  hpt vpt V hpt neg vpt V closepath stroke} def
/BoxE {stroke [] 0 setdash exch hpt sub exch vpt add M
  0 vpt2 neg V hpt2 0 V 0 vpt2 V
  hpt2 neg 0 V closepath stroke} def
/TriUE {stroke [] 0 setdash vpt 1.12 mul add M
  hpt neg vpt -1.62 mul V
  hpt 2 mul 0 V
  hpt neg vpt 1.62 mul V closepath stroke} def
/TriDE {stroke [] 0 setdash vpt 1.12 mul sub M
  hpt neg vpt 1.62 mul V
  hpt 2 mul 0 V
  hpt neg vpt -1.62 mul V closepath stroke} def
/PentE {stroke [] 0 setdash gsave
  translate 0 hpt M 4 {72 rotate 0 hpt L} repeat
  closepath stroke grestore} def
/CircE {stroke [] 0 setdash 
  hpt 0 360 arc stroke} def
/Opaque {gsave closepath 1 setgray fill grestore 0 setgray closepath} def
/DiaW {stroke [] 0 setdash vpt add M
  hpt neg vpt neg V hpt vpt neg V
  hpt vpt V hpt neg vpt V Opaque stroke} def
/BoxW {stroke [] 0 setdash exch hpt sub exch vpt add M
  0 vpt2 neg V hpt2 0 V 0 vpt2 V
  hpt2 neg 0 V Opaque stroke} def
/TriUW {stroke [] 0 setdash vpt 1.12 mul add M
  hpt neg vpt -1.62 mul V
  hpt 2 mul 0 V
  hpt neg vpt 1.62 mul V Opaque stroke} def
/TriDW {stroke [] 0 setdash vpt 1.12 mul sub M
  hpt neg vpt 1.62 mul V
  hpt 2 mul 0 V
  hpt neg vpt -1.62 mul V Opaque stroke} def
/PentW {stroke [] 0 setdash gsave
  translate 0 hpt M 4 {72 rotate 0 hpt L} repeat
  Opaque stroke grestore} def
/CircW {stroke [] 0 setdash 
  hpt 0 360 arc Opaque stroke} def
/BoxFill {gsave Rec 1 setgray fill grestore} def
/Density {
  /Fillden exch def
  currentrgbcolor
  /ColB exch def /ColG exch def /ColR exch def
  /ColR ColR Fillden mul Fillden sub 1 add def
  /ColG ColG Fillden mul Fillden sub 1 add def
  /ColB ColB Fillden mul Fillden sub 1 add def
  ColR ColG ColB setrgbcolor} def
/BoxColFill {gsave Rec PolyFill} def
/PolyFill {gsave Density fill grestore grestore} def
/h {rlineto rlineto rlineto gsave closepath fill grestore} bind def
%
% PostScript Level 1 Pattern Fill routine for rectangles
% Usage: x y w h s a XX PatternFill
%	x,y = lower left corner of box to be filled
%	w,h = width and height of box
%	  a = angle in degrees between lines and x-axis
%	 XX = 0/1 for no/yes cross-hatch
%
/PatternFill {gsave /PFa [ 9 2 roll ] def
  PFa 0 get PFa 2 get 2 div add PFa 1 get PFa 3 get 2 div add translate
  PFa 2 get -2 div PFa 3 get -2 div PFa 2 get PFa 3 get Rec
  TransparentPatterns {} {gsave 1 setgray fill grestore} ifelse
  clip
  currentlinewidth 0.5 mul setlinewidth
  /PFs PFa 2 get dup mul PFa 3 get dup mul add sqrt def
  0 0 M PFa 5 get rotate PFs -2 div dup translate
  0 1 PFs PFa 4 get div 1 add floor cvi
	{PFa 4 get mul 0 M 0 PFs V} for
  0 PFa 6 get ne {
	0 1 PFs PFa 4 get div 1 add floor cvi
	{PFa 4 get mul 0 2 1 roll M PFs 0 V} for
 } if
  stroke grestore} def
%
/languagelevel where
 {pop languagelevel} {1} ifelse
 2 lt
	{/InterpretLevel1 true def}
	{/InterpretLevel1 Level1 def}
 ifelse
%
% PostScript level 2 pattern fill definitions
%
/Level2PatternFill {
/Tile8x8 {/PaintType 2 /PatternType 1 /TilingType 1 /BBox [0 0 8 8] /XStep 8 /YStep 8}
	bind def
/KeepColor {currentrgbcolor [/Pattern /DeviceRGB] setcolorspace} bind def
<< Tile8x8
 /PaintProc {0.5 setlinewidth pop 0 0 M 8 8 L 0 8 M 8 0 L stroke} 
>> matrix makepattern
/Pat1 exch def
<< Tile8x8
 /PaintProc {0.5 setlinewidth pop 0 0 M 8 8 L 0 8 M 8 0 L stroke
	0 4 M 4 8 L 8 4 L 4 0 L 0 4 L stroke}
>> matrix makepattern
/Pat2 exch def
<< Tile8x8
 /PaintProc {0.5 setlinewidth pop 0 0 M 0 8 L
	8 8 L 8 0 L 0 0 L fill}
>> matrix makepattern
/Pat3 exch def
<< Tile8x8
 /PaintProc {0.5 setlinewidth pop -4 8 M 8 -4 L
	0 12 M 12 0 L stroke}
>> matrix makepattern
/Pat4 exch def
<< Tile8x8
 /PaintProc {0.5 setlinewidth pop -4 0 M 8 12 L
	0 -4 M 12 8 L stroke}
>> matrix makepattern
/Pat5 exch def
<< Tile8x8
 /PaintProc {0.5 setlinewidth pop -2 8 M 4 -4 L
	0 12 M 8 -4 L 4 12 M 10 0 L stroke}
>> matrix makepattern
/Pat6 exch def
<< Tile8x8
 /PaintProc {0.5 setlinewidth pop -2 0 M 4 12 L
	0 -4 M 8 12 L 4 -4 M 10 8 L stroke}
>> matrix makepattern
/Pat7 exch def
<< Tile8x8
 /PaintProc {0.5 setlinewidth pop 8 -2 M -4 4 L
	12 0 M -4 8 L 12 4 M 0 10 L stroke}
>> matrix makepattern
/Pat8 exch def
<< Tile8x8
 /PaintProc {0.5 setlinewidth pop 0 -2 M 12 4 L
	-4 0 M 12 8 L -4 4 M 8 10 L stroke}
>> matrix makepattern
/Pat9 exch def
/Pattern1 {PatternBgnd KeepColor Pat1 setpattern} bind def
/Pattern2 {PatternBgnd KeepColor Pat2 setpattern} bind def
/Pattern3 {PatternBgnd KeepColor Pat3 setpattern} bind def
/Pattern4 {PatternBgnd KeepColor Landscape {Pat5} {Pat4} ifelse setpattern} bind def
/Pattern5 {PatternBgnd KeepColor Landscape {Pat4} {Pat5} ifelse setpattern} bind def
/Pattern6 {PatternBgnd KeepColor Landscape {Pat9} {Pat6} ifelse setpattern} bind def
/Pattern7 {PatternBgnd KeepColor Landscape {Pat8} {Pat7} ifelse setpattern} bind def
} def
%
%
%End of PostScript Level 2 code
%
/PatternBgnd {
  TransparentPatterns {} {gsave 1 setgray fill grestore} ifelse
} def
%
% Substitute for Level 2 pattern fill codes with
% grayscale if Level 2 support is not selected.
%
/Level1PatternFill {
/Pattern1 {0.250 Density} bind def
/Pattern2 {0.500 Density} bind def
/Pattern3 {0.750 Density} bind def
/Pattern4 {0.125 Density} bind def
/Pattern5 {0.375 Density} bind def
/Pattern6 {0.625 Density} bind def
/Pattern7 {0.875 Density} bind def
} def
%
% Now test for support of Level 2 code
%
Level1 {Level1PatternFill} {Level2PatternFill} ifelse
%
/Symbol-Oblique /Symbol findfont [1 0 .167 1 0 0] makefont
dup length dict begin {1 index /FID eq {pop pop} {def} ifelse} forall
currentdict end definefont pop
Level1 SuppressPDFMark or 
{} {
/SDict 10 dict def
systemdict /pdfmark known not {
  userdict /pdfmark systemdict /cleartomark get put
} if
SDict begin [
  /Title (csma_effectiveness.ps)
  /Subject (gnuplot plot)
  /Creator (gnuplot 4.6 patchlevel 6)
  /Author (alexking)
%  /Producer (gnuplot)
%  /Keywords ()
  /CreationDate (Fri Sep 25 01:42:24 2015)
  /DOCINFO pdfmark
end
} ifelse
end
%%EndProlog
%%Page: 1 1
gnudict begin
gsave
doclip
50 50 translate
0.100 0.100 scale
90 rotate
0 -5040 translate
0 setgray
newpath
(Helvetica) findfont 140 scalefont setfont
BackgroundColor 0 lt 3 1 roll 0 lt exch 0 lt or or not {gsave BackgroundColor C clippath fill grestore} if
1.000 UL
LTb
1.000 UL
LTa
686 3640 M
6261 0 V
stroke
LTb
686 3640 M
63 0 V
6198 0 R
-63 0 V
-6282 0 R
( 0) Rshow
1.000 UL
LTb
1.000 UL
LTa
686 3886 M
6261 0 V
stroke
LTb
686 3886 M
63 0 V
6198 0 R
-63 0 V
-6282 0 R
( 0.1) Rshow
1.000 UL
LTb
1.000 UL
LTa
686 4132 M
6261 0 V
stroke
LTb
686 4132 M
63 0 V
6198 0 R
-63 0 V
-6282 0 R
( 0.2) Rshow
1.000 UL
LTb
1.000 UL
LTa
686 4379 M
6261 0 V
stroke
LTb
686 4379 M
63 0 V
6198 0 R
-63 0 V
-6282 0 R
( 0.3) Rshow
1.000 UL
LTb
1.000 UL
LTa
686 4625 M
6261 0 V
stroke
LTb
686 4625 M
63 0 V
6198 0 R
-63 0 V
-6282 0 R
( 0.4) Rshow
1.000 UL
LTb
1.000 UL
LTa
686 4871 M
6261 0 V
stroke
LTb
686 4871 M
63 0 V
6198 0 R
-63 0 V
-6282 0 R
( 0.5) Rshow
1.000 UL
LTb
1.000 UL
LTa
686 3640 M
0 1231 V
stroke
LTb
686 3640 M
0 63 V
0 1168 R
0 -63 V
0 -1308 R
( 0) Cshow
1.000 UL
LTb
1.000 UL
LTa
1312 3640 M
0 1231 V
stroke
LTb
1312 3640 M
0 63 V
0 1168 R
0 -63 V
0 -1308 R
( 100) Cshow
1.000 UL
LTb
1.000 UL
LTa
1938 3640 M
0 1231 V
stroke
LTb
1938 3640 M
0 63 V
0 1168 R
0 -63 V
0 -1308 R
( 200) Cshow
1.000 UL
LTb
1.000 UL
LTa
2564 3640 M
0 1231 V
stroke
LTb
2564 3640 M
0 63 V
0 1168 R
0 -63 V
0 -1308 R
( 300) Cshow
1.000 UL
LTb
1.000 UL
LTa
3190 3640 M
0 1231 V
stroke
LTb
3190 3640 M
0 63 V
0 1168 R
0 -63 V
0 -1308 R
( 400) Cshow
1.000 UL
LTb
1.000 UL
LTa
3817 3640 M
0 1231 V
stroke
LTb
3817 3640 M
0 63 V
0 1168 R
0 -63 V
0 -1308 R
( 500) Cshow
1.000 UL
LTb
1.000 UL
LTa
4443 3640 M
0 1231 V
stroke
LTb
4443 3640 M
0 63 V
0 1168 R
0 -63 V
0 -1308 R
( 600) Cshow
1.000 UL
LTb
1.000 UL
LTa
5069 3640 M
0 1231 V
stroke
LTb
5069 3640 M
0 63 V
0 1168 R
0 -63 V
0 -1308 R
( 700) Cshow
1.000 UL
LTb
1.000 UL
LTa
5695 3640 M
0 1231 V
stroke
LTb
5695 3640 M
0 63 V
0 1168 R
0 -63 V
0 -1308 R
( 800) Cshow
1.000 UL
LTb
1.000 UL
LTa
6321 3640 M
0 1231 V
stroke
LTb
6321 3640 M
0 63 V
0 1168 R
0 -63 V
0 -1308 R
( 900) Cshow
1.000 UL
LTb
1.000 UL
LTa
6947 3640 M
0 1231 V
stroke
LTb
6947 3640 M
0 63 V
0 1168 R
0 -63 V
0 -1308 R
( 1000) Cshow
1.000 UL
LTb
1.000 UL
LTb
686 4871 N
0 -1231 V
6261 0 V
0 1231 V
-6261 0 V
Z stroke
LCb setrgbcolor
112 4255 M
currentpoint gsave translate -270 rotate 0 0 M
(PRR: 100KB/s) Cshow
grestore
LTb
1.000 UP
1.000 UL
LTb
% Begin plot #1
1.000 UP
1.000 UL
LT0
686 4666 Pls
735 4750 Pls
784 4746 Pls
833 4512 Pls
882 4606 Pls
931 4727 Pls
980 4729 Pls
1028 4578 Pls
1077 4581 Pls
1126 4740 Pls
1175 4689 Pls
1224 4534 Pls
1273 4573 Pls
1322 4729 Pls
1371 4599 Pls
1420 4594 Pls
1469 4589 Pls
1518 4727 Pls
1566 4586 Pls
1615 4600 Pls
1664 4664 Pls
1713 4723 Pls
1762 4520 Pls
1811 4574 Pls
1860 4658 Pls
1909 4656 Pls
1958 4641 Pls
2007 4692 Pls
2056 4662 Pls
2104 4636 Pls
2153 4626 Pls
2202 4673 Pls
2251 4664 Pls
2300 4608 Pls
2349 4640 Pls
2398 4634 Pls
2447 4620 Pls
2496 4665 Pls
2545 4626 Pls
2594 4635 Pls
2643 4635 Pls
2691 4665 Pls
2740 4659 Pls
2789 4665 Pls
2838 4637 Pls
2887 4626 Pls
2936 4651 Pls
2985 4645 Pls
3034 4635 Pls
3083 4663 Pls
3132 4605 Pls
3181 4636 Pls
3230 4651 Pls
3278 4659 Pls
3327 4637 Pls
3376 4648 Pls
3425 4647 Pls
3474 4666 Pls
3523 4659 Pls
3572 4667 Pls
3621 4672 Pls
3670 4625 Pls
3719 4627 Pls
3768 4617 Pls
3817 4608 Pls
3865 4646 Pls
3914 4592 Pls
3963 4621 Pls
4012 4662 Pls
4061 4616 Pls
4110 4637 Pls
4159 4684 Pls
4208 4626 Pls
4257 4644 Pls
4306 4639 Pls
4355 4684 Pls
4403 4656 Pls
4452 4633 Pls
4501 4650 Pls
4550 4641 Pls
4599 4622 Pls
4648 4633 Pls
4697 4655 Pls
4746 4665 Pls
4795 4692 Pls
4844 4653 Pls
4893 4668 Pls
4942 4669 Pls
4990 4612 Pls
5039 4641 Pls
5088 4643 Pls
5137 4603 Pls
5186 4636 Pls
5235 4638 Pls
5284 4645 Pls
5333 4661 Pls
5382 4644 Pls
5431 4658 Pls
5480 4600 Pls
5529 4632 Pls
5577 4626 Pls
5626 4624 Pls
5675 4664 Pls
5724 4630 Pls
5773 4634 Pls
5822 4691 Pls
5871 4620 Pls
5920 4701 Pls
5969 4663 Pls
6018 4649 Pls
6067 4606 Pls
6115 4695 Pls
6164 4671 Pls
6213 4592 Pls
6262 4574 Pls
6311 4621 Pls
6360 4609 Pls
6409 4724 Pls
6458 4615 Pls
6507 4684 Pls
6556 4682 Pls
% End plot #1
1.000 UL
LTb
686 4871 N
0 -1231 V
6261 0 V
0 1231 V
-6261 0 V
Z stroke
1.000 UP
1.000 UL
LTb
1.000 UL
LTb
1.000 UL
LTa
686 1960 M
6261 0 V
stroke
LTb
686 1960 M
63 0 V
6198 0 R
-63 0 V
-6282 0 R
( 0) Rshow
1.000 UL
LTb
1.000 UL
LTa
686 2206 M
6261 0 V
stroke
LTb
686 2206 M
63 0 V
6198 0 R
-63 0 V
-6282 0 R
( 0.1) Rshow
1.000 UL
LTb
1.000 UL
LTa
686 2452 M
6261 0 V
stroke
LTb
686 2452 M
63 0 V
6198 0 R
-63 0 V
-6282 0 R
( 0.2) Rshow
1.000 UL
LTb
1.000 UL
LTa
686 2699 M
6261 0 V
stroke
LTb
686 2699 M
63 0 V
6198 0 R
-63 0 V
-6282 0 R
( 0.3) Rshow
1.000 UL
LTb
1.000 UL
LTa
686 2945 M
6261 0 V
stroke
LTb
686 2945 M
63 0 V
6198 0 R
-63 0 V
-6282 0 R
( 0.4) Rshow
1.000 UL
LTb
1.000 UL
LTa
686 3191 M
6261 0 V
stroke
LTb
686 3191 M
63 0 V
6198 0 R
-63 0 V
-6282 0 R
( 0.5) Rshow
1.000 UL
LTb
1.000 UL
LTa
686 1960 M
0 1231 V
stroke
LTb
686 1960 M
0 63 V
0 1168 R
0 -63 V
0 -1308 R
( 0) Cshow
1.000 UL
LTb
1.000 UL
LTa
1312 1960 M
0 1231 V
stroke
LTb
1312 1960 M
0 63 V
0 1168 R
0 -63 V
0 -1308 R
( 100) Cshow
1.000 UL
LTb
1.000 UL
LTa
1938 1960 M
0 1231 V
stroke
LTb
1938 1960 M
0 63 V
0 1168 R
0 -63 V
0 -1308 R
( 200) Cshow
1.000 UL
LTb
1.000 UL
LTa
2564 1960 M
0 1231 V
stroke
LTb
2564 1960 M
0 63 V
0 1168 R
0 -63 V
0 -1308 R
( 300) Cshow
1.000 UL
LTb
1.000 UL
LTa
3190 1960 M
0 1231 V
stroke
LTb
3190 1960 M
0 63 V
0 1168 R
0 -63 V
0 -1308 R
( 400) Cshow
1.000 UL
LTb
1.000 UL
LTa
3817 1960 M
0 1231 V
stroke
LTb
3817 1960 M
0 63 V
0 1168 R
0 -63 V
0 -1308 R
( 500) Cshow
1.000 UL
LTb
1.000 UL
LTa
4443 1960 M
0 1231 V
stroke
LTb
4443 1960 M
0 63 V
0 1168 R
0 -63 V
0 -1308 R
( 600) Cshow
1.000 UL
LTb
1.000 UL
LTa
5069 1960 M
0 1231 V
stroke
LTb
5069 1960 M
0 63 V
0 1168 R
0 -63 V
0 -1308 R
( 700) Cshow
1.000 UL
LTb
1.000 UL
LTa
5695 1960 M
0 1231 V
stroke
LTb
5695 1960 M
0 63 V
0 1168 R
0 -63 V
0 -1308 R
( 800) Cshow
1.000 UL
LTb
1.000 UL
LTa
6321 1960 M
0 1231 V
stroke
LTb
6321 1960 M
0 63 V
0 1168 R
0 -63 V
0 -1308 R
( 900) Cshow
1.000 UL
LTb
1.000 UL
LTa
6947 1960 M
0 1231 V
stroke
LTb
6947 1960 M
0 63 V
0 1168 R
0 -63 V
0 -1308 R
( 1000) Cshow
1.000 UL
LTb
1.000 UL
LTb
686 3191 N
0 -1231 V
6261 0 V
0 1231 V
-6261 0 V
Z stroke
LCb setrgbcolor
112 2575 M
currentpoint gsave translate -270 rotate 0 0 M
(PRR: 500KB/s) Cshow
grestore
LTb
1.000 UP
1.000 UL
LTb
% Begin plot #1
1.000 UP
1.000 UL
LT0
686 2177 Pls
735 2370 Pls
784 2290 Pls
833 2493 Pls
882 2422 Pls
931 2369 Pls
980 2312 Pls
1028 2393 Pls
1077 2372 Pls
1126 2324 Pls
1175 2383 Pls
1224 2352 Pls
1273 2329 Pls
1322 2370 Pls
1371 2364 Pls
1420 2403 Pls
1469 2365 Pls
1518 2367 Pls
1566 2371 Pls
1615 2376 Pls
1664 2396 Pls
1713 2399 Pls
1762 2358 Pls
1811 2395 Pls
1860 2315 Pls
1909 2332 Pls
1958 2345 Pls
2007 2367 Pls
2056 2392 Pls
2104 2386 Pls
2153 2404 Pls
2202 2401 Pls
2251 2346 Pls
2300 2397 Pls
2349 2348 Pls
2398 2383 Pls
2447 2317 Pls
2496 2362 Pls
2545 2365 Pls
2594 2389 Pls
2643 2358 Pls
2691 2365 Pls
2740 2382 Pls
2789 2392 Pls
2838 2362 Pls
2887 2357 Pls
2936 2365 Pls
2985 2380 Pls
3034 2347 Pls
3083 2346 Pls
3132 2388 Pls
3181 2376 Pls
3230 2371 Pls
3278 2387 Pls
3327 2386 Pls
3376 2379 Pls
3425 2370 Pls
3474 2346 Pls
3523 2372 Pls
3572 2309 Pls
3621 2373 Pls
3670 2407 Pls
3719 2369 Pls
3768 2374 Pls
3817 2358 Pls
3865 2336 Pls
3914 2400 Pls
3963 2360 Pls
4012 2379 Pls
4061 2392 Pls
4110 2361 Pls
4159 2379 Pls
4208 2373 Pls
4257 2364 Pls
4306 2349 Pls
4355 2408 Pls
4403 2365 Pls
4452 2372 Pls
4501 2368 Pls
4550 2360 Pls
4599 2381 Pls
4648 2378 Pls
4697 2342 Pls
4746 2364 Pls
4795 2361 Pls
4844 2372 Pls
4893 2391 Pls
4942 2363 Pls
4990 2358 Pls
5039 2364 Pls
5088 2347 Pls
5137 2384 Pls
5186 2380 Pls
5235 2352 Pls
5284 2305 Pls
5333 2361 Pls
5382 2322 Pls
5431 2395 Pls
5480 2378 Pls
5529 2384 Pls
5577 2349 Pls
5626 2355 Pls
5675 2331 Pls
5724 2385 Pls
5773 2356 Pls
5822 2387 Pls
5871 2337 Pls
5920 2334 Pls
5969 2319 Pls
6018 2323 Pls
6067 2401 Pls
6115 2337 Pls
6164 2354 Pls
6213 2341 Pls
6262 2360 Pls
6311 2422 Pls
6360 2350 Pls
6409 2385 Pls
6458 2358 Pls
6507 2315 Pls
6556 2413 Pls
% End plot #1
1.000 UL
LTb
686 3191 N
0 -1231 V
6261 0 V
0 1231 V
-6261 0 V
Z stroke
1.000 UP
1.000 UL
LTb
1.000 UL
LTb
1.000 UL
LTa
686 448 M
6261 0 V
stroke
LTb
686 448 M
63 0 V
6198 0 R
-63 0 V
602 448 M
( 0) Rshow
1.000 UL
LTb
1.000 UL
LTa
686 661 M
6261 0 V
stroke
LTb
686 661 M
63 0 V
6198 0 R
-63 0 V
602 661 M
( 0.1) Rshow
1.000 UL
LTb
1.000 UL
LTa
686 874 M
6261 0 V
stroke
LTb
686 874 M
63 0 V
6198 0 R
-63 0 V
602 874 M
( 0.2) Rshow
1.000 UL
LTb
1.000 UL
LTa
686 1086 M
6261 0 V
stroke
LTb
686 1086 M
63 0 V
6198 0 R
-63 0 V
-6282 0 R
( 0.3) Rshow
1.000 UL
LTb
1.000 UL
LTa
686 1299 M
6261 0 V
stroke
LTb
686 1299 M
63 0 V
6198 0 R
-63 0 V
-6282 0 R
( 0.4) Rshow
1.000 UL
LTb
1.000 UL
LTa
686 1512 M
6261 0 V
stroke
LTb
686 1512 M
63 0 V
6198 0 R
-63 0 V
-6282 0 R
( 0.5) Rshow
1.000 UL
LTb
1.000 UL
LTa
686 448 M
0 1064 V
stroke
LTb
686 448 M
0 63 V
0 1001 R
0 -63 V
686 308 M
( 0) Cshow
1.000 UL
LTb
1.000 UL
LTa
1312 448 M
0 1064 V
stroke
LTb
1312 448 M
0 63 V
0 1001 R
0 -63 V
0 -1141 R
( 100) Cshow
1.000 UL
LTb
1.000 UL
LTa
1938 448 M
0 1064 V
stroke
LTb
1938 448 M
0 63 V
0 1001 R
0 -63 V
0 -1141 R
( 200) Cshow
1.000 UL
LTb
1.000 UL
LTa
2564 448 M
0 1064 V
stroke
LTb
2564 448 M
0 63 V
0 1001 R
0 -63 V
0 -1141 R
( 300) Cshow
1.000 UL
LTb
1.000 UL
LTa
3190 448 M
0 1064 V
stroke
LTb
3190 448 M
0 63 V
0 1001 R
0 -63 V
0 -1141 R
( 400) Cshow
1.000 UL
LTb
1.000 UL
LTa
3817 448 M
0 1064 V
stroke
LTb
3817 448 M
0 63 V
0 1001 R
0 -63 V
0 -1141 R
( 500) Cshow
1.000 UL
LTb
1.000 UL
LTa
4443 448 M
0 1064 V
stroke
LTb
4443 448 M
0 63 V
0 1001 R
0 -63 V
0 -1141 R
( 600) Cshow
1.000 UL
LTb
1.000 UL
LTa
5069 448 M
0 1064 V
stroke
LTb
5069 448 M
0 63 V
0 1001 R
0 -63 V
0 -1141 R
( 700) Cshow
1.000 UL
LTb
1.000 UL
LTa
5695 448 M
0 1064 V
stroke
LTb
5695 448 M
0 63 V
0 1001 R
0 -63 V
0 -1141 R
( 800) Cshow
1.000 UL
LTb
1.000 UL
LTa
6321 448 M
0 1064 V
stroke
LTb
6321 448 M
0 63 V
0 1001 R
0 -63 V
0 -1141 R
( 900) Cshow
1.000 UL
LTb
1.000 UL
LTa
6947 448 M
0 1064 V
stroke
LTb
6947 448 M
0 63 V
0 1001 R
0 -63 V
0 -1141 R
( 1000) Cshow
1.000 UL
LTb
1.000 UL
LTb
686 1512 N
686 448 L
6261 0 V
0 1064 V
-6261 0 V
Z stroke
LCb setrgbcolor
112 980 M
currentpoint gsave translate -270 rotate 0 0 M
(PRR: 1000KB/s) Cshow
grestore
LTb
LCb setrgbcolor
3816 98 M
(Backoff window \(us\)) Cshow
LTb
1.000 UP
1.000 UL
LTb
% Begin plot #1
1.000 UP
1.000 UL
LT0
686 493 Pls
735 558 Pls
784 593 Pls
833 731 Pls
882 673 Pls
931 675 Pls
979 655 Pls
1028 650 Pls
1077 641 Pls
1126 644 Pls
1175 627 Pls
1224 648 Pls
1273 607 Pls
1322 639 Pls
1371 642 Pls
1420 680 Pls
1469 664 Pls
1518 667 Pls
1566 673 Pls
1615 668 Pls
1664 659 Pls
1713 711 Pls
1762 645 Pls
1811 646 Pls
1860 600 Pls
1909 633 Pls
1958 651 Pls
2007 698 Pls
2056 668 Pls
2105 684 Pls
2153 649 Pls
2202 698 Pls
2251 657 Pls
2300 627 Pls
2349 639 Pls
2398 671 Pls
2447 630 Pls
2496 657 Pls
2545 617 Pls
2594 690 Pls
2643 645 Pls
2691 708 Pls
2740 699 Pls
2789 675 Pls
2838 652 Pls
2887 649 Pls
2936 641 Pls
2985 655 Pls
3034 635 Pls
3083 625 Pls
3132 670 Pls
3181 688 Pls
3230 666 Pls
3278 658 Pls
3327 680 Pls
3376 702 Pls
3425 637 Pls
3474 657 Pls
3523 656 Pls
3572 643 Pls
3621 653 Pls
3670 645 Pls
3719 660 Pls
3768 658 Pls
3817 661 Pls
3865 634 Pls
3914 700 Pls
3963 680 Pls
4012 650 Pls
4061 636 Pls
4110 679 Pls
4159 647 Pls
4208 656 Pls
4257 656 Pls
4306 642 Pls
4355 655 Pls
4403 671 Pls
4452 674 Pls
4501 677 Pls
4550 651 Pls
4599 653 Pls
4648 665 Pls
4697 675 Pls
4746 657 Pls
4795 635 Pls
4844 613 Pls
4893 672 Pls
4942 686 Pls
4990 687 Pls
5039 695 Pls
5088 667 Pls
5137 640 Pls
5186 676 Pls
5235 677 Pls
5284 663 Pls
5333 629 Pls
5382 625 Pls
5431 632 Pls
5480 669 Pls
5528 661 Pls
5577 684 Pls
5626 642 Pls
5675 697 Pls
5724 696 Pls
5773 643 Pls
5822 685 Pls
5871 659 Pls
5920 627 Pls
5969 640 Pls
6018 662 Pls
6067 682 Pls
6115 674 Pls
6164 664 Pls
6213 637 Pls
6262 710 Pls
6311 670 Pls
6360 677 Pls
6409 671 Pls
6458 668 Pls
6507 695 Pls
6556 624 Pls
% End plot #1
1.000 UL
LTb
686 1512 N
686 448 L
6261 0 V
0 1064 V
-6261 0 V
Z stroke
1.000 UP
1.000 UL
LTb
stroke
grestore
end
showpage
%%Trailer
%%DocumentFonts: Helvetica
%%Pages: 1
