%!PS-Adobe-3.0 EPSF-3.0
%%Creator: cairo 1.14.6 (http://cairographics.org)
%%CreationDate: Sat Oct  1 11:27:14 2016
%%Pages: 1
%%DocumentData: Clean7Bit
%%LanguageLevel: 2
%%BoundingBox: 0 -1 576 136
%%EndComments
%%BeginProlog
save
50 dict begin
/q { gsave } bind def
/Q { grestore } bind def
/cm { 6 array astore concat } bind def
/w { setlinewidth } bind def
/J { setlinecap } bind def
/j { setlinejoin } bind def
/M { setmiterlimit } bind def
/d { setdash } bind def
/m { moveto } bind def
/l { lineto } bind def
/c { curveto } bind def
/h { closepath } bind def
/re { exch dup neg 3 1 roll 5 3 roll moveto 0 rlineto
      0 exch rlineto 0 rlineto closepath } bind def
/S { stroke } bind def
/f { fill } bind def
/f* { eofill } bind def
/n { newpath } bind def
/W { clip } bind def
/W* { eoclip } bind def
/BT { } bind def
/ET { } bind def
/pdfmark where { pop globaldict /?pdfmark /exec load put }
    { globaldict begin /?pdfmark /pop load def /pdfmark
    /cleartomark load def end } ifelse
/BDC { mark 3 1 roll /BDC pdfmark } bind def
/EMC { mark /EMC pdfmark } bind def
/cairo_store_point { /cairo_point_y exch def /cairo_point_x exch def } def
/Tj { show currentpoint cairo_store_point } bind def
/TJ {
  {
    dup
    type /stringtype eq
    { show } { -0.001 mul 0 cairo_font_matrix dtransform rmoveto } ifelse
  } forall
  currentpoint cairo_store_point
} bind def
/cairo_selectfont { cairo_font_matrix aload pop pop pop 0 0 6 array astore
    cairo_font exch selectfont cairo_point_x cairo_point_y moveto } bind def
/Tf { pop /cairo_font exch def /cairo_font_matrix where
      { pop cairo_selectfont } if } bind def
/Td { matrix translate cairo_font_matrix matrix concatmatrix dup
      /cairo_font_matrix exch def dup 4 get exch 5 get cairo_store_point
      /cairo_font where { pop cairo_selectfont } if } bind def
/Tm { 2 copy 8 2 roll 6 array astore /cairo_font_matrix exch def
      cairo_store_point /cairo_font where { pop cairo_selectfont } if } bind def
/g { setgray } bind def
/rg { setrgbcolor } bind def
/d1 { setcachedevice } bind def
%%EndProlog
%%BeginSetup
%%EndSetup
%%Page: 1 1
%%BeginPageSetup
%%PageBoundingBox: 0 -1 576 136
%%EndPageSetup
q 0 -1 576 137 rectclip q
Q q
0 135.143 575.934 -135.145 re W n
q
0 135.143 576 -136 re W n
[ 1 0 0 1 0 -0.856689 ] concat
  q
0 g
0.8 w
0 J
1 j
[] 0.0 d
10 M q 1 0 0 -1 0 136 cm
77.84 45.48 m 559.301 45.48 l S Q
q 1 0 0 -1 0 136 cm
93.543 22.258 m 93.543 43.227 l S Q
93.543 92.773 m 92.645 93.676 l 93.543 91.203 l 94.445 93.676 l h
93.543 92.773 m f*
0 j
q 1 0 0 -1 0 136 cm
93.543 43.227 m 92.645 42.324 l 93.543 44.797 l 94.445 42.324 l h
93.543 43.227 m S Q
1 j
q 1 0 0 -1 0 136 cm
112.625 22.258 m 112.625 43.227 l S Q
112.625 92.773 m 111.727 93.676 l 112.625 91.203 l 113.527 93.676 l h
112.625 92.773 m f*
0 j
q 1 0 0 -1 0 136 cm
112.625 43.227 m 111.727 42.324 l 112.625 44.797 l 113.527 42.324 l h
112.625 43.227 m S Q
1 j
[ 3.2 2.4] 0 d
q 1 0 0 -1 0 136 cm
153.488 100.52 m 153.488 125.516 l S Q
0.8 g
415.477 40.094 44.07 -29.531 re f
0 g
[] 0.0 d
q 1 0 0 -1 0 136 cm
415.477 95.906 44.07 29.531 re S Q
q 1 0 0 -1 0 136 cm
408.781 71.73 m 408.781 91.766 l S Q
408.781 44.234 m 407.879 45.133 l 408.781 42.664 l 409.68 45.133 l h
408.781 44.234 m f*
0 j
q 1 0 0 -1 0 136 cm
408.781 91.766 m 407.879 90.867 l 408.781 93.336 l 409.68 90.867 l h
408.781 91.766 m S Q
0.8 g
471.004 40.094 44.07 -29.531 re f
0 g
1 j
q 1 0 0 -1 0 136 cm
471.004 95.906 44.07 29.531 re S Q
q 1 0 0 -1 0 136 cm
465.18 71.73 m 465.18 91.766 l S Q
465.18 44.234 m 464.281 45.133 l 465.18 42.66 l 466.082 45.133 l h
465.18 44.234 m f*
0 j
q 1 0 0 -1 0 136 cm
465.18 91.766 m 464.281 90.867 l 465.18 93.34 l 466.082 90.867 l h
465.18 91.766 m S Q
1 g
435.953 120.051 35.047 -29.531 re f
0 g
1 j
q 1 0 0 -1 0 136 cm
435.953 15.949 35.047 29.531 re S Q
1 g
458.859 40.094 12.094 -29.531 re f
0 g
q 1 0 0 -1 0 136 cm
458.859 95.906 12.094 29.531 re S Q
[ 3.2 2.4] 0 d
q 1 0 0 -1 0 136 cm
483.164 93.871 m 482.938 50.242 l S Q
484.262 85.762 m 482.918 89.387 l 481.617 85.75 l h
484.262 85.762 m f*
0 j
[] 0.0 d
q 1 0 0 -1 0 136 cm
484.262 50.238 m 482.918 46.613 l 481.617 50.25 l h
484.262 50.238 m S Q
1 j
[ 3.2 2.4] 0 d
q 1 0 0 -1 0 136 cm
502.5 93.871 m 502.273 50.242 l S Q
503.594 85.762 m 502.254 89.387 l 500.953 85.75 l h
503.594 85.762 m f*
0 j
[] 0.0 d
q 1 0 0 -1 0 136 cm
503.594 50.238 m 502.254 46.613 l 500.953 50.25 l h
503.594 50.238 m S Q
0.8 g
514.652 120.051 12.094 -29.531 re f
0 g
1 j
q 1 0 0 -1 0 136 cm
514.652 15.949 12.094 29.531 re S Q
[ 3.2 2.4] 0 d
q 1 0 0 -1 0 136 cm
521.582 89.352 m 521.582 46.453 l S Q
520.262 46.648 m 521.582 43.02 l 522.906 46.648 l h
520.262 46.648 m f*
0 j
[] 0.0 d
q 1 0 0 -1 0 136 cm
520.262 89.352 m 521.582 92.98 l 522.906 89.352 l h
520.262 89.352 m S Q
30.656 86.68 m 30.656 94.129 l 33.957 94.129 l 34.625 94.129 35.129 94.059
 35.469 93.918 c 35.82 93.785 36.098 93.547 36.309 93.207 c 36.516 92.871
 36.621 92.5 36.621 92.094 c 36.621 91.566 36.445 91.121 36.094 90.754 c
 35.754 90.398 35.227 90.168 34.52 90.066 c 34.777 89.941 34.973 89.816 
35.109 89.691 c 35.398 89.434 35.676 89.105 35.934 88.707 c 37.219 86.68
 l 35.984 86.68 l 34.996 88.23 l 34.711 88.68 34.473 89.023 34.281 89.254
 c 34.098 89.488 33.934 89.652 33.781 89.742 c 33.641 89.844 33.496 89.914
 33.344 89.957 c 33.227 89.973 33.047 89.98 32.797 89.98 c 31.645 89.98 
l 31.645 86.68 l h
31.645 90.844 m 33.77 90.844 l 34.219 90.844 34.57 90.891 34.82 90.98 c
 35.078 91.074 35.27 91.219 35.395 91.418 c 35.527 91.625 35.594 91.852 
35.594 92.094 c 35.594 92.441 35.465 92.73 35.207 92.957 c 34.957 93.188
 34.559 93.305 34.008 93.305 c 31.645 93.305 l h
41.922 88.418 m 42.871 88.305 l 42.719 87.746 42.441 87.312 42.031 87.004
 c 41.633 86.707 41.121 86.555 40.496 86.555 c 39.703 86.555 39.074 86.797
 38.609 87.281 c 38.148 87.773 37.922 88.457 37.922 89.332 c 37.922 90.238
 38.152 90.941 38.621 91.441 c 39.094 91.941 39.703 92.191 40.445 92.191
 c 41.172 92.191 41.758 91.949 42.207 91.457 c 42.664 90.965 42.895 90.277
 42.895 89.395 c 42.895 89.145 l 38.871 89.145 l 38.902 88.551 39.07 88.098
 39.371 87.781 c 39.672 87.465 40.047 87.305 40.496 87.305 c 40.836 87.305
 41.125 87.395 41.359 87.566 c 41.598 87.75 41.785 88.035 41.922 88.418 
c h
38.922 89.895 m 41.934 89.895 l 41.891 90.352 41.773 90.691 41.582 90.918
 c 41.289 91.27 40.914 91.441 40.457 91.441 c 40.031 91.441 39.68 91.301
 39.395 91.02 c 39.113 90.742 38.953 90.367 38.922 89.895 c h
47.676 88.656 m 48.574 88.543 l 48.484 87.918 48.234 87.43 47.824 87.082
 c 47.418 86.73 46.922 86.555 46.336 86.555 c 45.598 86.555 45 86.797 44.551
 87.281 c 44.109 87.766 43.887 88.457 43.887 89.355 c 43.887 89.938 43.984
 90.449 44.176 90.879 c 44.367 91.324 44.66 91.652 45.051 91.867 c 45.441
 92.086 45.871 92.191 46.336 92.191 c 46.922 92.191 47.398 92.043 47.773
 91.742 c 48.148 91.453 48.387 91.035 48.488 90.492 c 47.602 90.355 l 47.516
 90.715 47.367 90.984 47.148 91.168 c 46.941 91.352 46.684 91.441 46.375
 91.441 c 45.918 91.441 45.543 91.277 45.25 90.941 c 44.965 90.617 44.824
 90.098 44.824 89.379 c 44.824 88.656 44.961 88.125 45.238 87.793 c 45.512
 87.469 45.875 87.305 46.324 87.305 c 46.684 87.305 46.984 87.414 47.227
 87.629 c 47.465 87.855 47.617 88.199 47.676 88.656 c h
53.18 88.418 m 54.133 88.305 l 53.98 87.746 53.703 87.312 53.293 87.004
 c 52.895 86.707 52.383 86.555 51.758 86.555 c 50.965 86.555 50.336 86.797
 49.867 87.281 c 49.41 87.773 49.18 88.457 49.18 89.332 c 49.18 90.238 49.414
 90.941 49.883 91.441 c 50.355 91.941 50.965 92.191 51.707 92.191 c 52.43
 92.191 53.02 91.949 53.469 91.457 c 53.926 90.965 54.156 90.277 54.156 
89.395 c 54.156 89.145 l 50.133 89.145 l 50.164 88.551 50.332 88.098 50.633
 87.781 c 50.93 87.465 51.305 87.305 51.758 87.305 c 52.098 87.305 52.387
 87.395 52.617 87.566 c 52.859 87.75 53.047 88.035 53.18 88.418 c h
50.18 89.895 m 53.195 89.895 l 53.152 90.352 53.035 90.691 52.844 90.918
 c 52.551 91.27 52.176 91.441 51.719 91.441 c 51.293 91.441 50.941 91.301
 50.656 91.02 c 50.371 90.742 50.215 90.367 50.18 89.895 c h
55.422 93.066 m 55.422 94.129 l 56.336 94.129 l 56.336 93.066 l h
55.422 86.68 m 55.422 92.066 l 56.336 92.066 l 56.336 86.68 l h
59.293 86.68 m 57.242 92.066 l 58.207 92.066 l 59.355 88.844 l 59.48 88.492
 59.598 88.129 59.707 87.754 c 59.789 88.039 59.902 88.379 60.043 88.781
 c 61.242 92.066 l 62.18 92.066 l 60.145 86.68 l h
66.812 88.418 m 67.762 88.305 l 67.613 87.746 67.332 87.312 66.926 87.004
 c 66.523 86.707 66.012 86.555 65.387 86.555 c 64.594 86.555 63.965 86.797
 63.5 87.281 c 63.039 87.773 62.812 88.457 62.812 89.332 c 62.812 90.238
 63.043 90.941 63.512 91.441 c 63.988 91.941 64.594 92.191 65.336 92.191
 c 66.062 92.191 66.648 91.949 67.098 91.457 c 67.559 90.965 67.785 90.277
 67.785 89.395 c 67.785 89.145 l 63.762 89.145 l 63.793 88.551 63.961 88.098
 64.262 87.781 c 64.562 87.465 64.938 87.305 65.387 87.305 c 65.727 87.305
 66.016 87.395 66.25 87.566 c 66.492 87.75 66.68 88.035 66.812 88.418 c 
h
63.812 89.895 m 66.824 89.895 l 66.781 90.352 66.664 90.691 66.473 90.918
 c 66.184 91.27 65.809 91.441 65.348 91.441 c 64.926 91.441 64.57 91.301
 64.285 91.02 c 64.004 90.742 63.844 90.367 63.812 89.895 c h
69.043 86.68 m 69.043 92.066 l 69.867 92.066 l 69.867 91.254 l 70.074 91.641
 70.266 91.891 70.441 92.004 c 70.625 92.129 70.82 92.191 71.027 92.191 
c 71.336 92.191 71.648 92.098 71.965 91.906 c 71.652 91.055 l 71.43 91.188
 71.207 91.254 70.992 91.254 c 70.793 91.254 70.609 91.191 70.441 91.066
 c 70.281 90.953 70.172 90.785 70.105 90.566 c 70.004 90.242 69.953 89.891
 69.953 89.504 c 69.953 86.68 l h
69.043 86.68 m f
20.707 5.543 m 20.707 12.105 l 18.254 12.105 l 18.254 12.996 l 24.156 12.996
 l 24.156 12.105 l 21.691 12.105 l 21.691 5.543 l h
25.195 5.543 m 25.195 10.934 l 26.02 10.934 l 26.02 10.121 l 26.227 10.504
 26.418 10.754 26.594 10.871 c 26.777 10.996 26.973 11.059 27.18 11.059 
c 27.488 11.059 27.801 10.961 28.117 10.77 c 27.805 9.918 l 27.582 10.055
 27.359 10.121 27.145 10.121 c 26.945 10.121 26.762 10.059 26.594 9.934 
c 26.434 9.816 26.324 9.648 26.258 9.434 c 26.156 9.105 26.105 8.754 26.105
 8.371 c 26.105 5.543 l h
32.27 6.207 m 31.938 5.926 31.609 5.719 31.293 5.594 c 30.984 5.477 30.652
 5.418 30.293 5.418 c 29.695 5.418 29.234 5.566 28.918 5.855 c 28.602 6.148
 28.445 6.52 28.445 6.969 c 28.445 7.227 28.504 7.465 28.621 7.684 c 28.746
 7.906 28.902 8.086 29.094 8.219 c 29.293 8.352 29.516 8.453 29.758 8.52
 c 29.934 8.562 30.203 8.605 30.57 8.656 c 31.305 8.742 31.844 8.844 32.195
 8.969 c 32.203 9.094 32.207 9.176 32.207 9.207 c 32.207 9.582 32.121 9.844
 31.945 9.996 c 31.711 10.203 31.367 10.309 30.906 10.309 c 30.473 10.309
 30.152 10.23 29.945 10.082 c 29.746 9.934 29.594 9.664 29.496 9.281 c 28.605
 9.395 l 28.684 9.777 28.812 10.086 28.996 10.32 c 29.188 10.562 29.457 
10.746 29.809 10.871 c 30.164 10.996 30.574 11.059 31.031 11.059 c 31.5 
11.059 31.875 11.004 32.156 10.895 c 32.449 10.785 32.66 10.648 32.793 10.48
 c 32.93 10.324 33.023 10.121 33.082 9.871 c 33.105 9.711 33.121 9.43 33.121
 9.02 c 33.121 7.809 l 33.121 6.957 33.141 6.418 33.184 6.195 c 33.223 5.969
 33.297 5.754 33.406 5.543 c 32.457 5.543 l 32.367 5.738 32.305 5.957 32.27
 6.207 c h
32.195 8.258 m 31.859 8.117 31.367 8 30.707 7.906 c 30.332 7.848 30.066
 7.785 29.906 7.719 c 29.75 7.652 29.629 7.555 29.543 7.418 c 29.461 7.293
 29.418 7.152 29.418 6.996 c 29.418 6.754 29.512 6.551 29.695 6.383 c 29.879
 6.223 30.148 6.145 30.508 6.145 c 30.855 6.145 31.168 6.219 31.445 6.371
 c 31.719 6.527 31.922 6.742 32.059 7.008 c 32.148 7.207 32.195 7.512 32.195
 7.918 c h
34.688 5.543 m 34.688 10.934 l 35.512 10.934 l 35.512 10.168 l 35.902 10.762
 36.473 11.059 37.223 11.059 c 37.551 11.059 37.844 11 38.113 10.883 c 38.387
 10.766 38.59 10.613 38.723 10.418 c 38.867 10.238 38.961 10.012 39.012 
9.746 c 39.047 9.578 39.062 9.281 39.062 8.855 c 39.062 5.543 l 38.148 5.543
 l 38.148 8.82 l 38.148 9.195 38.113 9.473 38.035 9.656 c 37.969 9.84 37.844
 9.988 37.66 10.094 c 37.488 10.211 37.277 10.27 37.035 10.27 c 36.645 10.27
 36.309 10.145 36.023 9.895 c 35.742 9.652 35.598 9.188 35.598 8.496 c 35.598
 5.543 l h
40.254 7.156 m 41.156 7.293 l 41.203 6.938 41.348 6.656 41.578 6.457 c 
41.812 6.266 42.137 6.168 42.555 6.168 c 42.973 6.168 43.281 6.254 43.48
 6.418 c 43.688 6.594 43.793 6.801 43.793 7.031 c 43.793 7.242 43.699 7.402
 43.516 7.52 c 43.391 7.602 43.078 7.707 42.578 7.832 c 41.914 8 41.449 
8.145 41.191 8.27 c 40.934 8.395 40.738 8.566 40.605 8.781 c 40.473 9 40.406
 9.242 40.406 9.508 c 40.406 9.75 40.457 9.969 40.566 10.168 c 40.676 10.379
 40.824 10.551 41.016 10.684 c 41.16 10.789 41.352 10.879 41.594 10.945 
c 41.844 11.02 42.109 11.059 42.391 11.059 c 42.809 11.059 43.176 10.996
 43.492 10.871 c 43.816 10.754 44.055 10.59 44.203 10.383 c 44.363 10.176
 44.473 9.895 44.531 9.543 c 43.629 9.418 l 43.586 9.703 43.473 9.918 43.281
 10.07 c 43.086 10.227 42.812 10.309 42.453 10.309 c 42.039 10.309 41.738
 10.238 41.555 10.094 c 41.371 9.961 41.281 9.801 41.281 9.605 c 41.281 
9.492 41.316 9.387 41.391 9.293 c 41.469 9.195 41.582 9.113 41.742 9.043
 c 41.832 9.012 42.105 8.938 42.555 8.82 c 43.203 8.645 43.656 8.504 43.906
 8.395 c 44.164 8.285 44.363 8.125 44.504 7.906 c 44.656 7.699 44.73 7.441
 44.73 7.133 c 44.73 6.824 44.637 6.535 44.453 6.27 c 44.281 6.004 44.023
 5.793 43.691 5.645 c 43.359 5.496 42.98 5.418 42.555 5.418 c 41.855 5.418
 41.32 5.566 40.953 5.855 c 40.586 6.148 40.355 6.582 40.254 7.156 c h
45.949 5.543 m 45.949 10.934 l 46.762 10.934 l 46.762 10.184 l 46.938 10.449
 47.16 10.66 47.438 10.82 c 47.719 10.977 48.039 11.059 48.398 11.059 c 
48.797 11.059 49.125 10.973 49.375 10.809 c 49.633 10.641 49.816 10.41 49.922
 10.121 c 50.348 10.746 50.902 11.059 51.586 11.059 c 52.117 11.059 52.527
 10.906 52.812 10.605 c 53.102 10.316 53.25 9.863 53.25 9.246 c 53.25 5.543
 l 52.348 5.543 l 52.348 8.945 l 52.348 9.312 52.32 9.574 52.262 9.73 c 
52.203 9.891 52.094 10.02 51.938 10.121 c 51.777 10.219 51.594 10.27 51.387
 10.27 c 51.004 10.27 50.688 10.141 50.438 9.883 c 50.188 9.633 50.062 9.23
 50.062 8.684 c 50.062 5.543 l 49.148 5.543 l 49.148 9.043 l 49.148 9.453
 49.074 9.758 48.922 9.957 c 48.773 10.164 48.531 10.27 48.199 10.27 c 47.941
 10.27 47.703 10.199 47.484 10.059 c 47.27 9.926 47.109 9.727 47.012 9.469
 c 46.91 9.211 46.859 8.836 46.859 8.344 c 46.859 5.543 l h
54.832 11.934 m 54.832 12.996 l 55.742 12.996 l 55.742 11.934 l h
54.832 5.543 m 54.832 10.934 l 55.742 10.934 l 55.742 5.543 l h
59.199 6.355 m 59.324 5.559 l 59.066 5.5 58.836 5.469 58.637 5.469 c 58.305
 5.469 58.047 5.523 57.863 5.633 c 57.68 5.742 57.551 5.879 57.473 6.043
 c 57.398 6.219 57.363 6.578 57.363 7.121 c 57.363 10.23 l 56.699 10.23 
l 56.699 10.934 l 57.363 10.934 l 57.363 12.27 l 58.273 12.82 l 58.273 10.934
 l 59.199 10.934 l 59.199 10.23 l 58.273 10.23 l 58.273 7.07 l 58.273 6.812
 58.289 6.645 58.324 6.57 c 58.359 6.496 58.406 6.438 58.473 6.395 c 58.551
 6.352 58.652 6.332 58.785 6.332 c 58.895 6.332 59.031 6.34 59.199 6.355
 c h
62.16 6.355 m 62.285 5.559 l 62.027 5.5 61.801 5.469 61.598 5.469 c 61.266
 5.469 61.008 5.523 60.824 5.633 c 60.641 5.742 60.512 5.879 60.438 6.043
 c 60.363 6.219 60.324 6.578 60.324 7.121 c 60.324 10.23 l 59.66 10.23 l
 59.66 10.934 l 60.324 10.934 l 60.324 12.27 l 61.238 12.82 l 61.238 10.934
 l 62.16 10.934 l 62.16 10.23 l 61.238 10.23 l 61.238 7.07 l 61.238 6.812
 61.254 6.645 61.285 6.57 c 61.32 6.496 61.371 6.438 61.438 6.395 c 61.512
 6.352 61.617 6.332 61.75 6.332 c 61.855 6.332 61.996 6.34 62.16 6.355 c
 h
66.812 7.281 m 67.762 7.168 l 67.613 6.613 67.332 6.18 66.926 5.871 c 66.523
 5.57 66.012 5.418 65.387 5.418 c 64.594 5.418 63.965 5.66 63.5 6.145 c 
63.039 6.637 62.812 7.32 62.812 8.195 c 62.812 9.102 63.043 9.809 63.512
 10.309 c 63.988 10.809 64.594 11.059 65.336 11.059 c 66.062 11.059 66.648
 10.812 67.098 10.32 c 67.559 9.828 67.785 9.141 67.785 8.258 c 67.785 8.008
 l 63.762 8.008 l 63.793 7.414 63.961 6.961 64.262 6.645 c 64.562 6.328 
64.938 6.168 65.387 6.168 c 65.727 6.168 66.016 6.258 66.25 6.434 c 66.492
 6.617 66.68 6.898 66.812 7.281 c h
63.812 8.758 m 66.824 8.758 l 66.781 9.215 66.664 9.559 66.473 9.781 c 
66.184 10.133 65.809 10.309 65.348 10.309 c 64.926 10.309 64.57 10.164 64.285
 9.883 c 64.004 9.605 63.844 9.23 63.812 8.758 c h
69.043 5.543 m 69.043 10.934 l 69.867 10.934 l 69.867 10.121 l 70.074 10.504
 70.266 10.754 70.441 10.871 c 70.625 10.996 70.82 11.059 71.027 11.059 
c 71.336 11.059 71.648 10.961 71.965 10.77 c 71.652 9.918 l 71.43 10.055
 71.207 10.121 70.992 10.121 c 70.793 10.121 70.609 10.059 70.441 9.934 
c 70.281 9.816 70.172 9.648 70.105 9.434 c 70.004 9.105 69.953 8.754 69.953
 8.371 c 69.953 5.543 l h
69.043 5.543 m f
490.309 77.504 m 490.309 84.379 l 492.684 84.379 l 493.215 84.379 493.625
 84.348 493.906 84.281 c 494.301 84.188 494.633 84.027 494.906 83.793 c 
495.273 83.484 495.543 83.09 495.719 82.605 c 495.902 82.129 495.996 81.59
 495.996 80.98 c 495.996 80.457 495.934 79.992 495.809 79.594 c 495.691 
79.191 495.535 78.859 495.344 78.594 c 495.152 78.324 494.941 78.117 494.707
 77.969 c 494.48 77.816 494.211 77.699 493.895 77.617 c 493.578 77.543 493.211
 77.504 492.793 77.504 c h
491.219 78.316 m 492.684 78.316 l 493.141 78.316 493.5 78.359 493.758 78.441
 c 494.016 78.527 494.219 78.648 494.371 78.805 c 494.586 79.012 494.754
 79.301 494.871 79.668 c 494.996 80.035 495.059 80.477 495.059 80.992 c 
495.059 81.711 494.938 82.258 494.695 82.645 c 494.461 83.035 494.18 83.297
 493.844 83.43 c 493.594 83.523 493.203 83.566 492.668 83.566 c 491.219 
83.566 l h
491.219 78.316 m f
489.82 66.305 m 492.461 73.18 l 493.434 73.18 l 496.246 66.305 l 495.223
 66.305 l 494.41 68.395 l 491.547 68.395 l 490.785 66.305 l h
491.809 69.129 m 494.133 69.129 l 493.422 71.031 l 493.195 71.605 493.035
 72.082 492.934 72.457 c 492.844 72.012 492.719 71.574 492.559 71.145 c 
h
491.809 69.129 m f
492.59 55.105 m 492.59 61.168 l 490.328 61.168 l 490.328 61.98 l 495.777
 61.98 l 495.777 61.168 l 493.504 61.168 l 493.504 55.105 l h
492.59 55.105 m f
489.82 43.906 m 492.461 50.781 l 493.434 50.781 l 496.246 43.906 l 495.223
 43.906 l 494.41 45.992 l 491.547 45.992 l 490.785 43.906 l h
491.809 46.73 m 494.133 46.73 l 493.422 48.629 l 493.195 49.207 493.035
 49.68 492.934 50.055 c 492.844 49.613 492.719 49.176 492.559 48.742 c h
491.809 46.73 m f
525.207 74.137 m 527.844 81.012 l 528.82 81.012 l 531.633 74.137 l 530.605
 74.137 l 529.793 76.223 l 526.934 76.223 l 526.168 74.137 l h
527.195 76.961 m 529.52 76.961 l 528.809 78.859 l 528.582 79.434 528.418
 79.91 528.32 80.285 c 528.227 79.844 528.102 79.406 527.945 78.973 c h
527.195 76.961 m f
530.605 65.348 m 531.504 65.109 l 531.312 64.367 530.973 63.801 530.48 
63.41 c 529.988 63.02 529.383 62.824 528.668 62.824 c 527.926 62.824 527.32
 62.973 526.855 63.273 c 526.387 63.574 526.035 64.004 525.793 64.574 c 
525.551 65.148 525.43 65.766 525.43 66.422 c 525.43 67.141 525.566 67.766
 525.844 68.297 c 526.117 68.832 526.504 69.234 527.004 69.512 c 527.512
 69.785 528.07 69.922 528.68 69.922 c 529.363 69.922 529.938 69.746 530.406
 69.398 c 530.879 69.047 531.207 68.555 531.391 67.922 c 530.492 67.711 
l 530.332 68.211 530.102 68.574 529.793 68.797 c 529.492 69.031 529.113 
69.148 528.656 69.148 c 528.129 69.148 527.688 69.02 527.328 68.762 c 526.98
 68.512 526.73 68.172 526.578 67.746 c 526.438 67.324 526.367 66.879 526.367
 66.422 c 526.367 65.84 526.449 65.332 526.617 64.898 c 526.793 64.465 527.059
 64.141 527.418 63.922 c 527.773 63.707 528.168 63.598 528.594 63.598 c 
529.102 63.598 529.531 63.742 529.879 64.035 c 530.238 64.328 530.48 64.766
 530.605 65.348 c h
530.605 65.348 m f
525.918 51.734 m 525.918 58.609 l 526.832 58.609 l 526.832 55.199 l 530.246
 58.609 l 531.48 58.609 l 528.594 55.824 l 531.605 51.734 l 530.406 51.734
 l 527.957 55.211 l 526.832 54.121 l 526.832 51.734 l h
525.918 51.734 m f
0.8 g
359.422 40.094 44.066 -29.531 re f
0 g
1 j
q 1 0 0 -1 0 136 cm
359.422 95.906 44.066 29.531 re S Q
1 g
403.066 40.094 12.422 -29.531 re f
0 g
q 1 0 0 -1 0 136 cm
403.066 95.906 12.422 29.531 re S Q
1 g
122.961 25.328 m 122.961 30.449 127.109 34.598 132.223 34.598 c 134.68 
34.598 137.035 33.621 138.77 31.883 c 140.508 30.145 141.484 27.785 141.484
 25.328 c 141.484 20.207 137.336 16.055 132.223 16.055 c 127.109 16.055 
122.961 20.207 122.961 25.328 c h
122.961 25.328 m f
0 g
1.6 w
q 1 0 0 -1 0 136 cm
122.961 110.672 m 122.961 105.551 127.109 101.402 132.223 101.402 c 134.68
 101.402 137.035 102.379 138.77 104.117 c 140.508 105.855 141.484 108.215
 141.484 110.672 c 141.484 115.793 137.336 119.945 132.223 119.945 c 127.109
 119.945 122.961 115.793 122.961 110.672 c h
122.961 110.672 m S Q
133.191 21.711 m 132.352 21.711 l 132.352 27.086 l 132.145 26.895 131.875
 26.699 131.539 26.5 c 131.215 26.309 130.926 26.164 130.664 26.074 c 130.664
 26.887 l 131.133 27.109 131.539 27.379 131.891 27.688 c 132.25 28.004 132.504
 28.312 132.652 28.609 c 133.191 28.609 l h
133.191 21.711 m f
1 g
383.598 105.285 m 383.598 110.406 387.742 114.559 392.855 114.559 c 395.312
 114.559 397.668 113.582 399.402 111.84 c 401.141 110.102 402.117 107.746
 402.117 105.285 c 402.117 100.164 397.969 96.012 392.855 96.012 c 387.742
 96.012 383.598 100.164 383.598 105.285 c h
383.598 105.285 m f
0 g
q 1 0 0 -1 0 136 cm
383.598 30.715 m 383.598 25.594 387.742 21.441 392.855 21.441 c 395.312
 21.441 397.668 22.418 399.402 24.16 c 401.141 25.898 402.117 28.254 402.117
 30.715 c 402.117 35.836 397.969 39.988 392.855 39.988 c 387.742 39.988 
383.598 35.836 383.598 30.715 c h
383.598 30.715 m S Q
395.086 102.48 m 395.086 101.668 l 390.535 101.668 l 390.535 101.867 390.57
 102.066 390.637 102.258 c 390.754 102.566 390.938 102.867 391.188 103.168
 c 391.445 103.469 391.816 103.816 392.301 104.207 c 393.051 104.824 393.555
 105.312 393.812 105.668 c 394.078 106.027 394.211 106.363 394.211 106.68
 c 394.211 107.016 394.09 107.293 393.848 107.52 c 393.609 107.754 393.297
 107.867 392.91 107.867 c 392.504 107.867 392.18 107.75 391.938 107.508 
c 391.695 107.266 391.57 106.926 391.562 106.492 c 390.699 106.582 l 390.758
 107.23 390.977 107.723 391.363 108.055 c 391.754 108.398 392.277 108.57
 392.938 108.57 c 393.594 108.57 394.117 108.387 394.5 108.02 c 394.883 
107.652 395.074 107.199 395.074 106.656 c 395.074 106.383 395.016 106.109
 394.898 105.844 c 394.789 105.586 394.602 105.305 394.336 105.008 c 394.078
 104.715 393.648 104.316 393.051 103.805 c 392.539 103.383 392.211 103.09
 392.062 102.93 c 391.922 102.781 391.805 102.633 391.711 102.48 c h
395.086 102.48 m f
1 g
531.773 29.699 m 531.773 34.82 535.918 38.973 541.031 38.973 c 543.488 
38.973 545.844 37.996 547.578 36.258 c 549.316 34.52 550.293 32.16 550.293
 29.699 c 550.293 24.578 546.145 20.43 541.031 20.43 c 535.918 20.43 531.773
 24.578 531.773 29.699 c h
531.773 29.699 m f
0 g
q 1 0 0 -1 0 136 cm
531.773 106.301 m 531.773 101.18 535.918 97.027 541.031 97.027 c 543.488
 97.027 545.844 98.004 547.578 99.742 c 549.316 101.48 550.293 103.84 550.293
 106.301 c 550.293 111.422 546.145 115.57 541.031 115.57 c 535.918 115.57
 531.773 111.422 531.773 106.301 c h
531.773 106.301 m S Q
538.824 27.898 m 539.676 28.012 l 539.766 27.535 539.93 27.188 540.164 
26.973 c 540.395 26.766 540.68 26.66 541.012 26.66 c 541.414 26.66 541.75
 26.797 542.023 27.074 c 542.301 27.348 542.438 27.688 542.438 28.098 c 
542.438 28.48 542.309 28.797 542.051 29.047 c 541.801 29.305 541.48 29.434
 541.086 29.434 c 540.93 29.434 540.73 29.402 540.488 29.336 c 540.586 30.086
 l 540.645 30.078 540.691 30.074 540.727 30.074 c 541.082 30.074 541.402
 30.164 541.688 30.348 c 541.98 30.539 542.125 30.832 542.125 31.223 c 542.125
 31.531 542.02 31.785 541.812 31.984 c 541.605 32.191 541.332 32.297 541
 32.297 c 540.676 32.297 540.398 32.191 540.176 31.984 c 539.957 31.777 
539.82 31.469 539.762 31.059 c 538.914 31.211 l 539.012 31.77 539.246 32.203
 539.613 32.512 c 539.98 32.828 540.434 32.984 540.977 32.984 c 541.352 
32.984 541.695 32.902 542.012 32.734 c 542.328 32.578 542.57 32.359 542.738
 32.086 c 542.902 31.809 542.988 31.516 542.988 31.199 c 542.988 30.906 
542.91 30.637 542.75 30.387 c 542.59 30.145 542.359 29.953 542.051 29.809
 c 542.449 29.719 542.762 29.523 542.988 29.223 c 543.211 28.93 543.324 
28.559 543.324 28.109 c 543.324 27.512 543.105 27 542.664 26.586 c 542.23
 26.168 541.68 25.961 541.012 25.961 c 540.414 25.961 539.914 26.141 539.512
 26.496 c 539.113 26.863 538.883 27.332 538.824 27.898 c h
538.824 27.898 m f
0.8 w
q 1 0 0 -1 0 136 cm
76.32 125.516 m 559.27 125.516 l S Q
150.648 52.332 m 150.648 58.395 l 148.387 58.395 l 148.387 59.207 l 153.836
 59.207 l 153.836 58.395 l 151.562 58.395 l 151.562 52.332 l h
154.102 52.332 m 155.914 54.922 l 154.238 57.309 l 155.289 57.309 l 156.051
 56.145 l 156.191 55.922 156.309 55.734 156.402 55.582 c 156.535 55.793 
156.66 55.977 156.777 56.133 c 157.613 57.309 l 158.625 57.309 l 156.902
 54.973 l 158.75 52.332 l 157.727 52.332 l 156.703 53.883 l 156.426 54.297
 l 155.113 52.332 l h
154.102 52.332 m f
136.367 41.133 m 136.367 48.008 l 139.418 48.008 l 140.031 48.008 140.5
 47.945 140.816 47.82 c 141.133 47.695 141.387 47.477 141.578 47.16 c 141.77
 46.852 141.867 46.508 141.867 46.133 c 141.867 45.641 141.707 45.23 141.391
 44.895 c 141.074 44.562 140.586 44.352 139.93 44.258 c 140.172 44.141 140.355
 44.031 140.48 43.922 c 140.746 43.68 140.996 43.375 141.23 43.008 c 142.43
 41.133 l 141.277 41.133 l 140.379 42.559 l 140.113 42.977 139.891 43.293
 139.715 43.508 c 139.551 43.727 139.395 43.875 139.254 43.957 c 139.121
 44.051 138.984 44.117 138.84 44.16 c 138.742 44.176 138.574 44.184 138.34
 44.184 c 137.277 44.184 l 137.277 41.133 l h
137.277 44.973 m 139.242 44.973 l 139.648 44.973 139.969 45.012 140.203
 45.098 c 140.445 45.188 140.625 45.324 140.742 45.508 c 140.867 45.699 
140.93 45.91 140.93 46.133 c 140.93 46.457 140.809 46.727 140.566 46.934
 c 140.332 47.141 139.961 47.246 139.453 47.246 c 137.277 47.246 l h
146.586 42.734 m 147.461 42.633 l 147.328 42.125 147.074 41.73 146.699 
41.445 c 146.324 41.164 145.848 41.02 145.273 41.02 c 144.551 41.02 143.969
 41.246 143.535 41.695 c 143.113 42.145 142.898 42.773 142.898 43.582 c 
142.898 44.418 143.117 45.062 143.551 45.52 c 143.98 45.988 144.539 46.223
 145.223 46.223 c 145.891 46.223 146.434 45.996 146.848 45.547 c 147.273
 45.098 147.488 44.457 147.488 43.633 c 147.488 43.41 l 143.773 43.41 l 
143.809 42.859 143.961 42.438 144.238 42.145 c 144.512 41.863 144.855 41.723
 145.273 41.723 c 145.582 41.723 145.844 41.801 146.062 41.957 c 146.285
 42.125 146.461 42.383 146.586 42.734 c h
143.824 44.098 m 146.598 44.098 l 146.566 44.52 146.461 44.836 146.285 
45.047 c 146.012 45.371 145.66 45.535 145.238 45.535 c 144.844 45.535 144.516
 45.406 144.25 45.145 c 143.992 44.887 143.848 44.539 143.824 44.098 c h
151.699 39.223 m 151.699 41.66 l 151.566 41.477 151.379 41.32 151.137 41.195
 c 150.906 41.078 150.656 41.02 150.387 41.02 c 149.797 41.02 149.289 41.254
 148.863 41.723 c 148.438 42.195 148.227 42.848 148.227 43.672 c 148.227
 44.172 148.312 44.617 148.488 45.008 c 148.664 45.41 148.914 45.707 149.238
 45.91 c 149.57 46.117 149.934 46.223 150.324 46.223 c 150.941 46.223 151.426
 45.961 151.777 45.445 c 151.777 46.109 l 152.539 46.109 l 152.539 39.223
 l h
149.09 43.633 m 149.09 42.992 149.223 42.512 149.488 42.195 c 149.762 41.879
 150.09 41.723 150.465 41.723 c 150.82 41.723 151.129 41.871 151.387 42.172
 c 151.645 42.48 151.777 42.941 151.777 43.559 c 151.777 44.227 151.637 
44.727 151.363 45.059 c 151.098 45.391 150.777 45.559 150.402 45.559 c 150.043
 45.559 149.734 45.398 149.477 45.082 c 149.219 44.773 149.09 44.293 149.09
 43.633 c h
157.129 41.133 m 157.129 41.871 l 156.734 41.305 156.207 41.02 155.539 
41.02 c 155.246 41.02 154.973 41.074 154.715 41.184 c 154.465 41.301 154.277
 41.441 154.152 41.609 c 154.027 41.785 153.941 41.996 153.891 42.246 c 
153.855 42.406 153.84 42.668 153.84 43.035 c 153.84 46.109 l 154.691 46.109
 l 154.691 43.348 l 154.691 42.914 154.707 42.617 154.738 42.457 c 154.789
 42.242 154.898 42.066 155.066 41.934 c 155.238 41.809 155.457 41.746 155.715
 41.746 c 155.965 41.746 156.199 41.809 156.414 41.934 c 156.641 42.066 
156.797 42.246 156.891 42.473 c 156.988 42.695 157.039 43.02 157.039 43.445
 c 157.039 46.109 l 157.879 46.109 l 157.879 41.133 l h
162.605 42.734 m 163.48 42.633 l 163.344 42.125 163.09 41.73 162.715 41.445
 c 162.34 41.164 161.867 41.02 161.293 41.02 c 160.566 41.02 159.988 41.246
 159.555 41.695 c 159.129 42.145 158.918 42.773 158.918 43.582 c 158.918
 44.418 159.133 45.062 159.566 45.52 c 160 45.988 160.559 46.223 161.242
 46.223 c 161.906 46.223 162.449 45.996 162.867 45.547 c 163.293 45.098 
163.504 44.457 163.504 43.633 c 163.504 43.41 l 159.793 43.41 l 159.824 
42.859 159.98 42.438 160.254 42.145 c 160.527 41.863 160.875 41.723 161.293
 41.723 c 161.598 41.723 161.863 41.801 162.078 41.957 c 162.305 42.125 
162.48 42.383 162.605 42.734 c h
159.84 44.098 m 162.617 44.098 l 162.582 44.52 162.48 44.836 162.305 45.047
 c 162.027 45.371 161.68 45.535 161.254 45.535 c 160.863 45.535 160.531 
45.406 160.266 45.145 c 160.008 44.887 159.867 44.539 159.84 44.098 c h
164.207 42.621 m 165.031 42.746 l 165.082 42.414 165.211 42.16 165.418 
41.984 c 165.633 41.809 165.938 41.723 166.332 41.723 c 166.715 41.723 166.996
 41.797 167.18 41.945 c 167.371 42.105 167.469 42.293 167.469 42.508 c 167.469
 42.699 167.383 42.852 167.219 42.957 c 167.102 43.035 166.812 43.129 166.355
 43.246 c 165.738 43.406 165.309 43.539 165.066 43.645 c 164.836 43.762 
164.656 43.922 164.531 44.121 c 164.406 44.32 164.344 44.547 164.344 44.797
 c 164.344 45.012 164.395 45.219 164.492 45.41 c 164.594 45.602 164.73 45.758
 164.906 45.883 c 165.039 45.977 165.219 46.055 165.441 46.121 c 165.668
 46.188 165.914 46.223 166.18 46.223 c 166.562 46.223 166.902 46.164 167.191
 46.047 c 167.492 45.938 167.715 45.789 167.855 45.598 c 167.996 45.406 
168.094 45.148 168.145 44.832 c 167.316 44.723 l 167.285 44.973 167.176 
45.168 166.992 45.309 c 166.816 45.457 166.562 45.535 166.23 45.535 c 165.848
 45.535 165.57 45.469 165.406 45.332 c 165.238 45.207 165.156 45.059 165.156
 44.883 c 165.156 44.773 165.188 44.68 165.254 44.598 c 165.332 44.504 165.438
 44.43 165.582 44.371 c 165.664 44.336 165.914 44.266 166.332 44.16 c 166.93
 43.992 167.348 43.859 167.582 43.758 c 167.812 43.66 167.996 43.512 168.129
 43.32 c 168.262 43.129 168.332 42.887 168.332 42.598 c 168.332 42.312 168.246
 42.047 168.082 41.797 c 167.922 41.555 167.688 41.363 167.379 41.223 c 
167.07 41.086 166.723 41.02 166.332 41.02 c 165.68 41.02 165.184 41.156 
164.844 41.422 c 164.508 41.695 164.297 42.098 164.207 42.621 c h
171.18 41.883 m 171.305 41.145 l 171.062 41.098 170.852 41.07 170.668 41.07
 c 170.359 41.07 170.121 41.117 169.957 41.207 c 169.789 41.309 169.668 
41.438 169.594 41.598 c 169.527 41.754 169.492 42.086 169.492 42.598 c 169.492
 45.457 l 168.879 45.457 l 168.879 46.109 l 169.492 46.109 l 169.492 47.348
 l 170.332 47.848 l 170.332 46.109 l 171.18 46.109 l 171.18 45.457 l 170.332
 45.457 l 170.332 42.547 l 170.332 42.305 170.344 42.148 170.367 42.082 
c 170.402 42.016 170.449 41.961 170.52 41.922 c 170.586 41.879 170.68 41.859
 170.805 41.859 c 170.906 41.859 171.031 41.867 171.18 41.883 c h
171.18 41.883 m f
[ 3.2 2.4] 0 d
q 1 0 0 -1 0 136 cm
166.965 111.352 m 239.48 111.352 l S Q
0 j
[] 0.0 d
q 1 0 0 -1 0 136 cm
166.965 110.031 m 163.336 111.352 l 166.965 112.672 l h
166.965 110.031 m S Q
q 1 0 0 -1 0 136 cm
239.48 112.672 m 243.113 111.352 l 239.48 110.031 l h
239.48 112.672 m S Q
1 j
q 1 0 0 -1 0 136 cm
243.91 103 m 243.91 118.797 l S Q
q 1 0 0 -1 0 136 cm
162.734 103 m 162.734 118.797 l S Q
183.691 30.938 m 183.691 37.812 l 186.293 37.812 l 186.742 37.812 187.09
 37.793 187.328 37.75 c 187.672 37.695 187.953 37.586 188.18 37.426 c 188.414
 37.27 188.598 37.047 188.73 36.766 c 188.871 36.48 188.941 36.168 188.941
 35.828 c 188.941 35.242 188.754 34.746 188.379 34.34 c 188.012 33.938 187.344
 33.738 186.367 33.738 c 184.605 33.738 l 184.605 30.938 l h
184.605 34.539 m 186.379 34.539 l 186.973 34.539 187.387 34.648 187.629
 34.863 c 187.879 35.09 188.004 35.402 188.004 35.801 c 188.004 36.086 187.93
 36.328 187.781 36.527 c 187.637 36.734 187.449 36.871 187.219 36.938 c 
187.059 36.98 186.777 37 186.367 37 c 184.605 37 l h
190.059 30.938 m 190.059 37.812 l 190.969 37.812 l 190.969 31.75 l 194.359
 31.75 l 194.359 30.938 l h
198.102 30.938 m 198.102 37.812 l 200.477 37.812 l 201.012 37.812 201.418
 37.781 201.703 37.715 c 202.094 37.621 202.426 37.461 202.703 37.227 c 
203.07 36.918 203.34 36.523 203.516 36.039 c 203.699 35.562 203.789 35.023
 203.789 34.414 c 203.789 33.891 203.727 33.426 203.602 33.027 c 203.484
 32.625 203.332 32.293 203.141 32.027 c 202.949 31.762 202.734 31.551 202.5
 31.402 c 202.277 31.25 202.008 31.137 201.688 31.051 c 201.371 30.977 201.008
 30.938 200.59 30.938 c h
199.016 31.75 m 200.477 31.75 l 200.934 31.75 201.293 31.793 201.551 31.875
 c 201.809 31.961 202.016 32.082 202.164 32.238 c 202.383 32.449 202.547
 32.734 202.664 33.102 c 202.789 33.469 202.852 33.91 202.852 34.426 c 202.852
 35.145 202.73 35.695 202.488 36.078 c 202.258 36.469 201.973 36.73 201.641
 36.863 c 201.391 36.957 200.996 37 200.465 37 c 199.016 37 l h
208.336 32.539 m 209.211 32.438 l 209.078 31.93 208.82 31.535 208.445 31.25
 c 208.07 30.969 207.598 30.828 207.023 30.828 c 206.297 30.828 205.719 
31.051 205.285 31.5 c 204.859 31.953 204.648 32.582 204.648 33.391 c 204.648
 34.223 204.863 34.867 205.297 35.328 c 205.73 35.793 206.289 36.027 206.973
 36.027 c 207.641 36.027 208.18 35.801 208.598 35.352 c 209.023 34.902 209.234
 34.266 209.234 33.438 c 209.234 33.215 l 205.523 33.215 l 205.555 32.664
 205.711 32.242 205.984 31.953 c 206.258 31.668 206.605 31.527 207.023 31.527
 c 207.332 31.527 207.594 31.605 207.809 31.766 c 208.035 31.93 208.211 
32.188 208.336 32.539 c h
205.57 33.902 m 208.348 33.902 l 208.312 34.328 208.211 34.645 208.035 
34.852 c 207.758 35.176 207.41 35.34 206.984 35.34 c 206.594 35.34 206.266
 35.211 205.996 34.953 c 205.738 34.695 205.598 34.344 205.57 33.902 c h
210.25 30.938 m 210.25 37.812 l 211.098 37.812 l 211.098 30.938 l h
215.656 31.551 m 215.34 31.285 215.035 31.098 214.742 30.988 c 214.461 
30.883 214.152 30.828 213.82 30.828 c 213.27 30.828 212.848 30.961 212.555
 31.227 c 212.266 31.492 212.117 31.836 212.117 32.25 c 212.117 32.492 212.172
 32.715 212.281 32.914 c 212.391 33.121 212.535 33.285 212.719 33.402 c 
212.902 33.527 213.105 33.617 213.332 33.676 c 213.488 33.727 213.738 33.773
 214.082 33.812 c 214.758 33.891 215.258 33.984 215.582 34.102 c 215.582
 34.312 l 215.582 34.664 215.504 34.91 215.344 35.051 c 215.129 35.234 214.805
 35.328 214.383 35.328 c 213.988 35.328 213.699 35.258 213.508 35.113 c 
213.316 34.98 213.172 34.738 213.082 34.391 c 212.258 34.5 l 212.332 34.852
 212.457 35.137 212.633 35.352 c 212.805 35.57 213.055 35.734 213.383 35.852
 c 213.707 35.969 214.082 36.027 214.508 36.027 c 214.93 36.027 215.277 
35.977 215.543 35.875 c 215.812 35.777 216.008 35.652 216.133 35.5 c 216.258
 35.352 216.344 35.16 216.395 34.926 c 216.418 34.785 216.43 34.527 216.43
 34.152 c 216.43 33.027 l 216.43 32.242 216.449 31.746 216.48 31.539 c 216.523
 31.332 216.598 31.133 216.707 30.938 c 215.82 30.938 l 215.734 31.113 215.68
 31.32 215.656 31.551 c h
215.582 33.438 m 215.273 33.312 214.816 33.207 214.207 33.113 c 213.855
 33.062 213.609 33.008 213.469 32.938 c 213.328 32.883 213.215 32.793 213.133
 32.676 c 213.055 32.559 213.02 32.426 213.02 32.277 c 213.02 32.051 213.102
 31.863 213.27 31.715 c 213.445 31.562 213.695 31.488 214.02 31.488 c 214.344
 31.488 214.633 31.559 214.883 31.703 c 215.141 31.844 215.328 32.039 215.445
 32.289 c 215.535 32.48 215.582 32.762 215.582 33.125 c h
217.707 29.027 m 217.609 29.812 l 217.793 29.766 217.953 29.738 218.094
 29.738 c 218.277 29.738 218.426 29.773 218.531 29.84 c 218.648 29.898 218.746
 29.98 218.82 30.09 c 218.871 30.18 218.957 30.395 219.082 30.727 c 219.09
 30.77 219.117 30.836 219.156 30.926 c 217.258 35.914 l 218.172 35.914 l
 219.207 33.039 l 219.34 32.672 219.461 32.285 219.57 31.875 c 219.672 32.27
 219.789 32.648 219.922 33.016 c 220.984 35.914 l 221.82 35.914 l 219.934
 30.852 l 219.727 30.309 219.566 29.934 219.457 29.727 c 219.309 29.445 
219.133 29.238 218.934 29.113 c 218.742 28.98 218.512 28.914 218.246 28.914
 c 218.086 28.914 217.906 28.953 217.707 29.027 c h
217.707 29.027 m f
q 1 0 0 -1 0 136 cm
409.613 22.258 m 409.613 43.227 l S Q
409.613 92.773 m 408.711 93.676 l 409.613 91.203 l 410.512 93.676 l h
409.613 92.773 m f*
0 j
q 1 0 0 -1 0 136 cm
409.613 43.227 m 408.711 42.324 l 409.613 44.797 l 410.512 42.324 l h
409.613 43.227 m S Q
1 j
q 1 0 0 -1 0 136 cm
428.695 22.258 m 428.695 43.227 l S Q
428.695 92.773 m 427.793 93.676 l 428.695 91.203 l 429.594 93.676 l h
428.695 92.773 m f*
0 j
q 1 0 0 -1 0 136 cm
428.695 43.227 m 427.793 42.324 l 428.695 44.797 l 429.594 42.324 l h
428.695 43.227 m S Q
0.8 g
471 120.051 44.07 -29.531 re f
0 g
1 j
q 1 0 0 -1 0 136 cm
471 15.949 44.07 29.531 re S Q
q 1 0 0 -1 0 136 cm
331.664 101.805 m 331.664 122.773 l S Q
331.664 13.227 m 330.766 14.129 l 331.664 11.656 l 332.562 14.129 l h
331.664 13.227 m f*
0 j
q 1 0 0 -1 0 136 cm
331.664 122.773 m 330.766 121.871 l 331.664 124.344 l 332.562 121.871 l
 h
331.664 122.773 m S Q
1 j
q 1 0 0 -1 0 136 cm
350.746 101.805 m 350.746 122.773 l S Q
350.746 13.227 m 349.848 14.129 l 350.746 11.656 l 351.645 14.129 l h
350.746 13.227 m f*
0 j
q 1 0 0 -1 0 136 cm
350.746 122.773 m 349.848 121.871 l 350.746 124.344 l 351.645 121.871 l
 h
350.746 122.773 m S Q
1 j
q 1 0 0 -1 0 136 cm
312.582 101.16 m 312.582 122.129 l S Q
312.582 13.871 m 311.68 14.77 l 312.582 12.297 l 313.48 14.77 l h
312.582 13.871 m f*
0 j
q 1 0 0 -1 0 136 cm
312.582 122.129 m 311.68 121.23 l 312.582 123.703 l 313.48 121.23 l h
312.582 122.129 m S Q
1 j
q 1 0 0 -1 0 136 cm
293.41 101.16 m 293.41 122.129 l S Q
293.41 13.871 m 292.512 14.77 l 293.41 12.297 l 294.309 14.77 l h
293.41 13.871 m f*
0 j
q 1 0 0 -1 0 136 cm
293.41 122.129 m 292.512 121.23 l 293.41 123.703 l 294.309 121.23 l h
293.41 122.129 m S Q
1 j
q 1 0 0 -1 0 136 cm
274.328 101.16 m 274.328 122.129 l S Q
274.328 13.871 m 273.43 14.77 l 274.328 12.297 l 275.227 14.77 l h
274.328 13.871 m f*
0 j
q 1 0 0 -1 0 136 cm
274.328 122.129 m 273.43 121.23 l 274.328 123.703 l 275.227 121.23 l h
274.328 122.129 m S Q
1 j
q 1 0 0 -1 0 136 cm
255.246 101.16 m 255.246 122.129 l S Q
255.246 13.871 m 254.348 14.77 l 255.246 12.297 l 256.145 14.77 l h
255.246 13.871 m f*
0 j
q 1 0 0 -1 0 136 cm
255.246 122.129 m 254.348 121.23 l 255.246 123.703 l 256.145 121.23 l h
255.246 122.129 m S Q
1 j
q 1 0 0 -1 0 136 cm
8.051 67.25 m 8.051 88.219 l S Q
8.051 47.781 m 7.148 48.68 l 8.051 46.207 l 8.949 48.68 l h
8.051 47.781 m f*
0 j
q 1 0 0 -1 0 136 cm
8.051 88.219 m 7.148 87.32 l 8.051 89.793 l 8.949 87.32 l h
8.051 88.219 m S Q
18.078 55.973 m 18.914 55.758 l 18.742 55.078 18.422 54.551 17.965 54.184
 c 17.516 53.828 16.961 53.648 16.305 53.648 c 15.621 53.648 15.066 53.785
 14.641 54.059 c 14.215 54.344 13.891 54.746 13.664 55.273 c 13.449 55.797
 13.34 56.359 13.34 56.961 c 13.34 57.609 13.465 58.18 13.715 58.672 c 13.965
 59.164 14.32 59.535 14.777 59.785 c 15.246 60.043 15.758 60.172 16.316 
60.172 c 16.949 60.172 17.477 60.008 17.902 59.684 c 18.336 59.367 18.637
 58.918 18.805 58.336 c 17.977 58.133 l 17.836 58.594 17.625 58.926 17.34
 59.133 c 17.066 59.344 16.719 59.445 16.305 59.445 c 15.812 59.445 15.402
 59.332 15.078 59.098 c 14.754 58.871 14.523 58.562 14.391 58.172 c 14.266
 57.781 14.203 57.375 14.203 56.961 c 14.203 56.426 14.277 55.961 14.43 
55.559 c 14.586 55.16 14.828 54.859 15.152 54.66 c 15.484 54.461 15.844 
54.359 16.227 54.359 c 16.695 54.359 17.09 54.492 17.414 54.758 c 17.742
 55.035 17.961 55.438 18.078 55.973 c h
24.234 55.973 m 25.07 55.758 l 24.898 55.078 24.582 54.551 24.121 54.184
 c 23.672 53.828 23.117 53.648 22.461 53.648 c 21.777 53.648 21.223 53.785
 20.797 54.059 c 20.371 54.344 20.047 54.746 19.82 55.273 c 19.605 55.797
 19.496 56.359 19.496 56.961 c 19.496 57.609 19.621 58.18 19.871 58.672 
c 20.121 59.164 20.477 59.535 20.934 59.785 c 21.402 60.043 21.914 60.172
 22.473 60.172 c 23.105 60.172 23.633 60.008 24.059 59.684 c 24.492 59.367
 24.793 58.918 24.961 58.336 c 24.133 58.133 l 23.992 58.594 23.781 58.926
 23.496 59.133 c 23.223 59.344 22.875 59.445 22.461 59.445 c 21.969 59.445
 21.559 59.332 21.234 59.098 c 20.91 58.871 20.68 58.562 20.547 58.172 c
 20.422 57.781 20.359 57.375 20.359 56.961 c 20.359 56.426 20.434 55.961
 20.586 55.559 c 20.742 55.16 20.984 54.859 21.309 54.66 c 21.645 54.461
 22 54.359 22.383 54.359 c 22.852 54.359 23.246 54.492 23.57 54.758 c 23.898
 55.035 24.117 55.438 24.234 55.973 c h
25.203 53.758 m 27.629 60.059 l 28.516 60.059 l 31.102 53.758 l 30.152 
53.758 l 29.414 55.672 l 26.777 55.672 l 26.09 53.758 l h
27.016 56.348 m 29.152 56.348 l 28.504 58.098 l 28.305 58.621 28.152 59.055
 28.055 59.398 c 27.969 58.996 27.859 58.598 27.715 58.195 c h
36.832 55.434 m 37.582 55.336 l 37.508 54.809 37.297 54.398 36.945 54.098
 c 36.605 53.805 36.188 53.66 35.695 53.66 c 35.07 53.66 34.566 53.863 34.184
 54.273 c 33.809 54.68 33.621 55.266 33.621 56.023 c 33.621 56.516 33.699
 56.941 33.859 57.309 c 34.023 57.684 34.273 57.965 34.609 58.148 c 34.941
 58.332 35.305 58.422 35.695 58.422 c 36.188 58.422 36.59 58.297 36.906 
58.047 c 37.227 57.797 37.43 57.441 37.52 56.984 c 36.758 56.871 l 36.691
 57.172 36.566 57.398 36.383 57.547 c 36.199 57.707 35.98 57.785 35.719 
57.785 c 35.336 57.785 35.02 57.645 34.77 57.359 c 34.527 57.086 34.406 
56.648 34.406 56.047 c 34.406 55.43 34.523 54.984 34.758 54.711 c 34.992
 54.434 35.301 54.297 35.684 54.297 c 35.984 54.297 36.234 54.391 36.434
 54.57 c 36.641 54.754 36.773 55.043 36.832 55.434 c h
38.109 53.758 m 38.109 60.059 l 38.883 60.059 l 38.883 57.797 l 39.25 58.215
 39.707 58.422 40.258 58.422 c 40.59 58.422 40.883 58.355 41.133 58.223 
c 41.383 58.09 41.562 57.906 41.672 57.672 c 41.777 57.438 41.832 57.098
 41.832 56.648 c 41.832 53.758 l 41.059 53.758 l 41.059 56.648 l 41.059 
57.039 40.977 57.32 40.809 57.496 c 40.641 57.672 40.402 57.758 40.094 57.758
 c 39.863 57.758 39.645 57.703 39.445 57.586 c 39.246 57.469 39.102 57.305
 39.008 57.098 c 38.926 56.898 38.883 56.617 38.883 56.258 c 38.883 53.758
 l h
45.973 55.234 m 46.773 55.133 l 46.648 54.668 46.414 54.305 46.074 54.047
 c 45.734 53.789 45.301 53.66 44.773 53.66 c 44.109 53.66 43.578 53.863 
43.188 54.273 c 42.797 54.68 42.598 55.254 42.598 55.996 c 42.598 56.773
 42.797 57.367 43.188 57.785 c 43.586 58.211 44.098 58.422 44.723 58.422
 c 45.34 58.422 45.84 58.215 46.223 57.797 c 46.609 57.391 46.801 56.805
 46.801 56.047 c 46.801 55.848 l 43.398 55.848 l 43.426 55.348 43.562 54.965
 43.812 54.695 c 44.07 54.43 44.391 54.297 44.773 54.297 c 45.059 54.297
 45.301 54.367 45.5 54.508 c 45.699 54.66 45.859 54.902 45.973 55.234 c 
h
43.438 56.484 m 45.988 56.484 l 45.953 56.867 45.859 57.156 45.699 57.348
 c 45.449 57.641 45.129 57.785 44.738 57.785 c 44.379 57.785 44.078 57.664
 43.836 57.422 c 43.594 57.188 43.461 56.875 43.438 56.484 c h
50.578 55.434 m 51.328 55.336 l 51.254 54.809 51.039 54.398 50.691 54.098
 c 50.348 53.805 49.934 53.66 49.441 53.66 c 48.816 53.66 48.312 53.863 
47.93 54.273 c 47.555 54.68 47.367 55.266 47.367 56.023 c 47.367 56.516 
47.445 56.941 47.602 57.309 c 47.77 57.684 48.02 57.965 48.352 58.148 c 
48.688 58.332 49.047 58.422 49.441 58.422 c 49.934 58.422 50.336 58.297 
50.652 58.047 c 50.969 57.797 51.172 57.441 51.266 56.984 c 50.504 56.871
 l 50.438 57.172 50.312 57.398 50.129 57.547 c 49.945 57.707 49.723 57.785
 49.465 57.785 c 49.082 57.785 48.766 57.645 48.516 57.359 c 48.273 57.086
 48.152 56.648 48.152 56.047 c 48.152 55.43 48.27 54.984 48.504 54.711 c
 48.734 54.434 49.043 54.297 49.43 54.297 c 49.727 54.297 49.977 54.391 
50.18 54.57 c 50.387 54.754 50.52 55.043 50.578 55.434 c h
51.867 53.758 m 51.867 60.059 l 52.641 60.059 l 52.641 56.473 l 54.465 
58.32 l 55.465 58.32 l 53.727 56.633 l 55.641 53.758 l 54.691 53.758 l 53.18
 56.098 l 52.641 55.57 l 52.641 53.758 l h
51.867 53.758 m f
1 g
119.469 105.285 m 119.469 110.406 123.613 114.559 128.727 114.559 c 131.184
 114.559 133.539 113.582 135.277 111.84 c 137.012 110.102 137.988 107.746
 137.988 105.285 c 137.988 100.164 133.844 96.012 128.727 96.012 c 123.613
 96.012 119.469 100.164 119.469 105.285 c h
119.469 105.285 m f
0 g
1.6 w
1 j
q 1 0 0 -1 0 136 cm
119.469 30.715 m 119.469 25.594 123.613 21.441 128.727 21.441 c 131.184
 21.441 133.539 22.418 135.277 24.16 c 137.012 25.898 137.988 28.254 137.988
 30.715 c 137.988 35.836 133.844 39.988 128.727 39.988 c 123.613 39.988 
119.469 35.836 119.469 30.715 c h
119.469 30.715 m S Q
130.957 102.48 m 130.957 101.668 l 126.41 101.668 l 126.41 101.867 126.441
 102.066 126.508 102.258 c 126.625 102.566 126.809 102.867 127.059 103.168
 c 127.316 103.469 127.688 103.816 128.172 104.207 c 128.922 104.824 129.426
 105.312 129.684 105.668 c 129.949 106.027 130.082 106.363 130.082 106.68
 c 130.082 107.016 129.961 107.293 129.723 107.52 c 129.48 107.754 129.168
 107.867 128.785 107.867 c 128.375 107.867 128.051 107.75 127.809 107.508
 c 127.566 107.266 127.441 106.926 127.434 106.492 c 126.57 106.582 l 126.629
 107.23 126.852 107.723 127.234 108.055 c 127.625 108.398 128.148 108.57
 128.809 108.57 c 129.469 108.57 129.988 108.387 130.371 108.02 c 130.754
 107.652 130.945 107.199 130.945 106.656 c 130.945 106.383 130.887 106.109
 130.77 105.844 c 130.664 105.586 130.477 105.305 130.207 105.008 c 129.949
 104.715 129.52 104.316 128.922 103.805 c 128.414 103.383 128.082 103.09
 127.934 102.93 c 127.793 102.781 127.676 102.633 127.582 102.48 c h
130.957 102.48 m f
0.8 g
515.125 40.094 12.094 -29.531 re f
0 g
0.8 w
q 1 0 0 -1 0 136 cm
515.125 95.906 12.094 29.531 re S Q
  Q
Q
Q Q
showpage
%%Trailer
end restore
%%EOF
