%!PS-Adobe-3.0 EPSF-3.0
%%Creator: cairo 1.14.6 (http://cairographics.org)
%%CreationDate: Fri Sep 30 20:24:13 2016
%%Pages: 1
%%DocumentData: Clean7Bit
%%LanguageLevel: 2
%%BoundingBox: 0 -1 772 150
%%EndComments
%%BeginProlog
save
50 dict begin
/q { gsave } bind def
/Q { grestore } bind def
/cm { 6 array astore concat } bind def
/w { setlinewidth } bind def
/J { setlinecap } bind def
/j { setlinejoin } bind def
/M { setmiterlimit } bind def
/d { setdash } bind def
/m { moveto } bind def
/l { lineto } bind def
/c { curveto } bind def
/h { closepath } bind def
/re { exch dup neg 3 1 roll 5 3 roll moveto 0 rlineto
      0 exch rlineto 0 rlineto closepath } bind def
/S { stroke } bind def
/f { fill } bind def
/f* { eofill } bind def
/n { newpath } bind def
/W { clip } bind def
/W* { eoclip } bind def
/BT { } bind def
/ET { } bind def
/pdfmark where { pop globaldict /?pdfmark /exec load put }
    { globaldict begin /?pdfmark /pop load def /pdfmark
    /cleartomark load def end } ifelse
/BDC { mark 3 1 roll /BDC pdfmark } bind def
/EMC { mark /EMC pdfmark } bind def
/cairo_store_point { /cairo_point_y exch def /cairo_point_x exch def } def
/Tj { show currentpoint cairo_store_point } bind def
/TJ {
  {
    dup
    type /stringtype eq
    { show } { -0.001 mul 0 cairo_font_matrix dtransform rmoveto } ifelse
  } forall
  currentpoint cairo_store_point
} bind def
/cairo_selectfont { cairo_font_matrix aload pop pop pop 0 0 6 array astore
    cairo_font exch selectfont cairo_point_x cairo_point_y moveto } bind def
/Tf { pop /cairo_font exch def /cairo_font_matrix where
      { pop cairo_selectfont } if } bind def
/Td { matrix translate cairo_font_matrix matrix concatmatrix dup
      /cairo_font_matrix exch def dup 4 get exch 5 get cairo_store_point
      /cairo_font where { pop cairo_selectfont } if } bind def
/Tm { 2 copy 8 2 roll 6 array astore /cairo_font_matrix exch def
      cairo_store_point /cairo_font where { pop cairo_selectfont } if } bind def
/g { setgray } bind def
/rg { setrgbcolor } bind def
/d1 { setcachedevice } bind def
%%EndProlog
%%BeginSetup
%%EndSetup
%%Page: 1 1
%%BeginPageSetup
%%PageBoundingBox: 0 -1 772 150
%%EndPageSetup
q 0 -1 772 151 rectclip q
Q q
0 149.201 772 -149.199 re W n
q
0 149.201 772 -150 re W n
[ 1 0 0 1 0 -0.79895 ] concat
  q
0.8 g
121.625 69.734 538.355 -52.281 re f
0 g
0.8 w
0 J
1 j
[] 0.0 d
10 M q 1 0 0 -1 0 150 cm
121.625 80.266 538.355 52.281 re S Q
329.633 41.871 m 331.07 41.508 l 330.77 40.324 330.23 39.422 329.445 38.797
 c 328.664 38.18 327.703 37.871 326.57 37.871 c 325.395 37.871 324.441 38.109
 323.707 38.582 c 322.977 39.066 322.418 39.758 322.035 40.656 c 321.652
 41.566 321.457 42.543 321.457 43.582 c 321.457 44.715 321.672 45.703 322.098
 46.547 c 322.531 47.387 323.145 48.023 323.945 48.457 c 324.746 48.898 
325.625 49.121 326.582 49.121 c 327.676 49.121 328.594 48.84 329.332 48.281
 c 330.074 47.734 330.594 46.957 330.883 45.957 c 329.473 45.621 l 329.223
 46.41 328.855 46.988 328.371 47.344 c 327.887 47.711 327.285 47.895 326.559
 47.895 c 325.727 47.895 325.027 47.695 324.457 47.297 c 323.902 46.895 
323.504 46.355 323.27 45.672 c 323.047 44.996 322.934 44.301 322.934 43.582
 c 322.934 42.656 323.066 41.848 323.332 41.156 c 323.609 40.473 324.031
 39.961 324.598 39.621 c 325.172 39.277 325.789 39.109 326.445 39.109 c 
327.254 39.109 327.938 39.336 328.496 39.797 c 329.055 40.262 329.434 40.953
 329.633 41.871 c h
332.477 38.059 m 332.477 48.934 l 333.812 48.934 l 333.812 45.031 l 334.438
 45.758 335.227 46.121 336.176 46.121 c 336.758 46.121 337.262 46.004 337.688
 45.77 c 338.121 45.547 338.43 45.23 338.613 44.82 c 338.805 44.41 338.898
 43.824 338.898 43.059 c 338.898 38.059 l 337.562 38.059 l 337.562 43.059
 l 337.562 43.723 337.418 44.207 337.125 44.508 c 336.832 44.816 336.426
 44.969 335.898 44.969 c 335.5 44.969 335.125 44.867 334.773 44.656 c 334.434
 44.457 334.188 44.18 334.039 43.82 c 333.887 43.469 333.812 42.988 333.812
 42.371 c 333.812 38.059 l h
345.926 39.031 m 345.426 38.609 344.945 38.309 344.488 38.133 c 344.031
 37.965 343.539 37.883 343.012 37.883 c 342.156 37.883 341.492 38.09 341.023
 38.508 c 340.559 38.934 340.324 39.473 340.324 40.133 c 340.324 40.523 
340.414 40.879 340.586 41.195 c 340.762 41.512 340.992 41.766 341.273 41.957
 c 341.559 42.148 341.879 42.297 342.238 42.395 c 342.504 42.469 342.898
 42.535 343.426 42.594 c 344.508 42.73 345.305 42.883 345.812 43.059 c 345.812
 43.406 l 345.812 43.949 345.688 44.332 345.438 44.559 c 345.098 44.859 
344.586 45.008 343.914 45.008 c 343.289 45.008 342.824 44.898 342.523 44.684
 c 342.227 44.465 342.004 44.074 341.863 43.508 c 340.551 43.695 l 340.676
 44.254 340.871 44.703 341.137 45.047 c 341.414 45.387 341.805 45.648 342.312
 45.832 c 342.828 46.023 343.43 46.121 344.113 46.121 c 344.789 46.121 345.332
 46.043 345.75 45.883 c 346.168 45.723 346.477 45.523 346.676 45.281 c 346.875
 45.043 347.012 44.738 347.086 44.371 c 347.137 44.145 347.164 43.738 347.164
 43.145 c 347.164 41.359 l 347.164 40.117 347.188 39.328 347.238 38.996 
c 347.297 38.672 347.414 38.359 347.586 38.059 c 346.188 38.059 l 346.047
 38.332 345.957 38.656 345.926 39.031 c h
345.812 42.008 m 345.328 41.816 344.602 41.648 343.625 41.508 c 343.074
 41.434 342.688 41.344 342.461 41.246 c 342.238 41.145 342.062 41 341.938
 40.809 c 341.812 40.617 341.75 40.402 341.75 40.172 c 341.75 39.812 341.883
 39.512 342.148 39.27 c 342.426 39.035 342.82 38.922 343.336 38.922 c 343.855
 38.922 344.312 39.031 344.711 39.258 c 345.113 39.492 345.41 39.801 345.602
 40.184 c 345.742 40.492 345.812 40.938 345.812 41.52 c h
349.074 38.059 m 349.074 45.945 l 350.277 45.945 l 350.277 44.82 l 350.859
 45.688 351.695 46.121 352.789 46.121 c 353.262 46.121 353.699 46.031 354.102
 45.859 c 354.5 45.691 354.797 45.465 354.988 45.184 c 355.188 44.906 355.332
 44.582 355.414 44.207 c 355.465 43.957 355.488 43.523 355.488 42.906 c 
355.488 38.059 l 354.152 38.059 l 354.152 42.859 l 354.152 43.398 354.098
 43.805 353.988 44.07 c 353.887 44.344 353.707 44.562 353.438 44.719 c 353.172
 44.879 352.859 44.957 352.5 44.957 c 351.934 44.957 351.441 44.777 351.027
 44.422 c 350.617 44.062 350.414 43.375 350.414 42.359 c 350.414 38.059 
l h
357.375 38.059 m 357.375 45.945 l 358.578 45.945 l 358.578 44.82 l 359.16
 45.688 359.996 46.121 361.09 46.121 c 361.562 46.121 362 46.031 362.402
 45.859 c 362.801 45.691 363.098 45.465 363.289 45.184 c 363.488 44.906 
363.629 44.582 363.715 44.207 c 363.766 43.957 363.789 43.523 363.789 42.906
 c 363.789 38.059 l 362.453 38.059 l 362.453 42.859 l 362.453 43.398 362.398
 43.805 362.289 44.07 c 362.188 44.344 362.004 44.562 361.738 44.719 c 361.473
 44.879 361.16 44.957 360.801 44.957 c 360.234 44.957 359.742 44.777 359.328
 44.422 c 358.918 44.062 358.715 43.375 358.715 42.359 c 358.715 38.059 
l h
371.078 40.594 m 372.453 40.422 l 372.234 39.621 371.832 38.996 371.238
 38.547 c 370.656 38.105 369.906 37.883 368.988 37.883 c 367.84 37.883 366.926
 38.238 366.254 38.945 c 365.578 39.652 365.238 40.648 365.238 41.934 c 
365.238 43.258 365.578 44.285 366.254 45.02 c 366.934 45.754 367.824 46.121
 368.914 46.121 c 369.973 46.121 370.836 45.762 371.504 45.047 c 372.168
 44.328 372.504 43.316 372.504 42.008 c 372.504 41.934 372.496 41.816 372.488
 41.656 c 366.613 41.656 l 366.664 40.793 366.91 40.129 367.352 39.672 c
 367.793 39.211 368.344 38.984 369.004 38.984 c 369.484 38.984 369.898 39.109
 370.238 39.359 c 370.59 39.617 370.867 40.027 371.078 40.594 c h
366.691 42.758 m 371.09 42.758 l 371.031 43.418 370.863 43.91 370.59 44.246
 c 370.164 44.762 369.609 45.02 368.926 45.02 c 368.32 45.02 367.801 44.812
 367.379 44.395 c 366.961 43.988 366.73 43.441 366.691 42.758 c h
373.953 38.059 m 373.953 48.934 l 375.289 48.934 l 375.289 38.059 l h
381.551 38.059 m 381.551 48.934 l 385.641 48.934 l 386.465 48.934 387.129
 48.824 387.629 48.609 c 388.137 48.391 388.531 48.055 388.816 47.594 c 
389.098 47.137 389.238 46.656 389.238 46.156 c 389.238 45.691 389.113 45.25
 388.863 44.832 c 388.613 44.426 388.23 44.094 387.715 43.844 c 388.375 
43.652 388.879 43.324 389.227 42.859 c 389.586 42.391 389.766 41.84 389.766
 41.207 c 389.766 40.699 389.656 40.223 389.441 39.781 c 389.23 39.348 388.969
 39.012 388.652 38.77 c 388.336 38.535 387.938 38.359 387.453 38.234 c 386.977
 38.117 386.395 38.059 385.703 38.059 c h
382.988 44.371 m 385.34 44.371 l 385.98 44.371 386.441 44.41 386.715 44.496
 c 387.082 44.605 387.355 44.781 387.539 45.031 c 387.73 45.281 387.828 
45.598 387.828 45.984 c 387.828 46.34 387.738 46.656 387.566 46.934 c 387.391
 47.207 387.141 47.395 386.816 47.496 c 386.5 47.605 385.949 47.656 385.164
 47.656 c 382.988 47.656 l h
382.988 39.344 m 385.703 39.344 l 386.168 39.344 386.496 39.363 386.676
 39.395 c 387.012 39.453 387.289 39.551 387.516 39.684 c 387.738 39.824 
387.922 40.027 388.066 40.297 c 388.207 40.562 388.277 40.867 388.277 41.207
 c 388.277 41.617 388.172 41.969 387.965 42.27 c 387.758 42.57 387.469 42.777
 387.102 42.895 c 386.734 43.02 386.207 43.082 385.516 43.082 c 382.988 
43.082 l h
396.559 38.059 m 396.559 39.219 l 395.949 38.328 395.117 37.883 394.059
 37.883 c 393.598 37.883 393.164 37.969 392.758 38.145 c 392.359 38.328 
392.059 38.555 391.859 38.82 c 391.664 39.086 391.527 39.418 391.445 39.809
 c 391.395 40.074 391.371 40.492 391.371 41.059 c 391.371 45.945 l 392.707
 45.945 l 392.707 41.57 l 392.707 40.871 392.734 40.398 392.781 40.156 c
 392.867 39.809 393.047 39.531 393.32 39.332 c 393.594 39.133 393.934 39.031
 394.332 39.031 c 394.734 39.031 395.109 39.133 395.457 39.332 c 395.809
 39.543 396.055 39.82 396.195 40.172 c 396.344 40.527 396.422 41.047 396.422
 41.719 c 396.422 45.945 l 397.758 45.945 l 397.758 38.059 l h
399.156 40.406 m 400.484 40.621 l 400.559 40.086 400.762 39.68 401.094 
39.395 c 401.438 39.121 401.914 38.984 402.52 38.984 c 403.137 38.984 403.59
 39.109 403.883 39.359 c 404.184 39.609 404.332 39.898 404.332 40.234 c 
404.332 40.531 404.203 40.77 403.945 40.945 c 403.762 41.062 403.309 41.211
 402.582 41.395 c 401.602 41.645 400.918 41.859 400.531 42.031 c 400.156
 42.215 399.871 42.465 399.672 42.781 c 399.48 43.109 399.383 43.461 399.383
 43.844 c 399.383 44.195 399.461 44.52 399.621 44.82 c 399.789 45.121 400.008
 45.371 400.281 45.57 c 400.492 45.719 400.773 45.848 401.133 45.957 c 401.492
 46.066 401.875 46.121 402.281 46.121 c 402.906 46.121 403.453 46.027 403.922
 45.844 c 404.387 45.672 404.73 45.43 404.945 45.121 c 405.172 44.82 405.324
 44.418 405.406 43.906 c 404.109 43.734 l 404.051 44.133 403.875 44.445 
403.582 44.672 c 403.301 44.902 402.898 45.02 402.383 45.02 c 401.766 45.02
 401.328 44.918 401.07 44.707 c 400.812 44.508 400.684 44.273 400.684 44.008
 c 400.684 43.832 400.738 43.676 400.844 43.531 c 400.953 43.391 401.125
 43.273 401.359 43.184 c 401.492 43.133 401.883 43.016 402.531 42.832 c 
403.477 42.582 404.133 42.379 404.508 42.219 c 404.883 42.062 405.176 41.828
 405.383 41.52 c 405.602 41.211 405.707 40.828 405.707 40.371 c 405.707 
39.93 405.578 39.508 405.32 39.109 c 405.062 38.715 404.688 38.41 404.195
 38.195 c 403.703 37.988 403.148 37.883 402.531 37.883 c 401.508 37.883 
400.727 38.094 400.184 38.52 c 399.648 38.945 399.309 39.574 399.156 40.406
 c h
407.094 35.02 m 406.957 36.27 l 407.25 36.195 407.504 36.156 407.719 36.156
 c 408.012 36.156 408.246 36.207 408.422 36.309 c 408.605 36.406 408.754
 36.547 408.871 36.719 c 408.953 36.855 409.086 37.188 409.27 37.719 c 409.297
 37.797 409.336 37.902 409.395 38.047 c 406.406 45.945 l 407.844 45.945 
l 409.484 41.371 l 409.699 40.797 409.891 40.188 410.059 39.547 c 410.207
 40.16 410.391 40.762 410.609 41.344 c 412.281 45.945 l 413.621 45.945 l
 410.621 37.922 l 410.305 37.055 410.055 36.457 409.871 36.133 c 409.637
 35.691 409.367 35.371 409.059 35.172 c 408.75 34.961 408.383 34.859 407.957
 34.859 c 407.699 34.859 407.414 34.91 407.094 35.02 c h
418.941 38.059 m 418.941 48.934 l 423.043 48.934 l 423.766 48.934 424.32
 48.898 424.703 48.832 c 425.238 48.742 425.684 48.57 426.043 48.32 c 426.402
 48.07 426.688 47.719 426.906 47.27 c 427.129 46.82 427.242 46.328 427.242
 45.797 c 427.242 44.871 426.945 44.086 426.355 43.445 c 425.77 42.805 424.707
 42.484 423.168 42.484 c 420.379 42.484 l 420.379 38.059 l h
420.379 43.77 m 423.191 43.77 l 424.125 43.77 424.785 43.941 425.168 44.281
 c 425.559 44.633 425.754 45.121 425.754 45.746 c 425.754 46.203 425.637
 46.594 425.406 46.922 c 425.18 47.246 424.879 47.457 424.504 47.559 c 424.262
 47.625 423.816 47.656 423.168 47.656 c 420.379 47.656 l h
434.121 40.594 m 435.496 40.422 l 435.281 39.621 434.875 38.996 434.285
 38.547 c 433.703 38.105 432.953 37.883 432.035 37.883 c 430.883 37.883 
429.973 38.238 429.297 38.945 c 428.621 39.652 428.285 40.648 428.285 41.934
 c 428.285 43.258 428.621 44.285 429.297 45.02 c 429.98 45.754 430.867 46.121
 431.961 46.121 c 433.02 46.121 433.879 45.762 434.547 45.047 c 435.215 
44.328 435.547 43.316 435.547 42.008 c 435.547 41.934 435.543 41.816 435.535
 41.656 c 429.66 41.656 l 429.711 40.793 429.957 40.129 430.398 39.672 c
 430.84 39.211 431.391 38.984 432.047 38.984 c 432.531 38.984 432.941 39.109
 433.285 39.359 c 433.633 39.617 433.914 40.027 434.121 40.594 c h
429.734 42.758 m 434.133 42.758 l 434.078 43.418 433.91 43.91 433.633 44.246
 c 433.211 44.762 432.656 45.02 431.973 45.02 c 431.363 45.02 430.848 44.812
 430.422 44.395 c 430.004 43.988 429.777 43.441 429.734 42.758 c h
437.012 38.059 m 437.012 45.945 l 438.211 45.945 l 438.211 44.746 l 438.52
 45.305 438.801 45.672 439.059 45.844 c 439.32 46.027 439.605 46.121 439.922
 46.121 c 440.371 46.121 440.832 45.973 441.297 45.684 c 440.836 44.445 
l 440.512 44.637 440.18 44.734 439.848 44.734 c 439.555 44.734 439.293 44.645
 439.059 44.469 c 438.836 44.297 438.672 44.055 438.574 43.746 c 438.422
 43.27 438.348 42.75 438.348 42.184 c 438.348 38.059 l h
442.004 47.406 m 442.004 48.934 l 443.344 48.934 l 443.344 47.406 l h
442.004 38.059 m 442.004 45.945 l 443.344 45.945 l 443.344 38.059 l h
444.809 41.996 m 444.809 43.453 445.219 44.535 446.035 45.246 c 446.707
 45.828 447.535 46.121 448.508 46.121 c 449.594 46.121 450.477 45.762 451.16
 45.047 c 451.852 44.336 452.195 43.359 452.195 42.109 c 452.195 41.09 452.043
 40.293 451.734 39.707 c 451.434 39.133 450.992 38.684 450.41 38.359 c 449.832
 38.043 449.199 37.883 448.508 37.883 c 447.41 37.883 446.516 38.238 445.832
 38.945 c 445.148 39.652 444.809 40.672 444.809 41.996 c h
446.184 41.996 m 446.184 40.988 446.406 40.234 446.848 39.734 c 447.289
 39.234 447.844 38.984 448.508 38.984 c 449.176 38.984 449.727 39.234 450.16
 39.734 c 450.602 40.242 450.82 41.012 450.82 42.047 c 450.82 43.02 450.602
 43.758 450.16 44.258 c 449.719 44.758 449.168 45.008 448.508 45.008 c 447.844
 45.008 447.289 44.758 446.848 44.258 c 446.406 43.758 446.184 43.004 446.184
 41.996 c h
458.723 38.059 m 458.723 39.059 l 458.223 38.273 457.488 37.883 456.523
 37.883 c 455.898 37.883 455.316 38.055 454.785 38.395 c 454.258 38.746 
453.852 39.23 453.559 39.844 c 453.277 40.469 453.133 41.188 453.133 41.996
 c 453.133 42.777 453.262 43.492 453.523 44.133 c 453.789 44.773 454.18 
45.266 454.695 45.609 c 455.223 45.949 455.809 46.121 456.461 46.121 c 456.934
 46.121 457.355 46.02 457.723 45.82 c 458.098 45.621 458.402 45.359 458.633
 45.031 c 458.633 48.934 l 459.961 48.934 l 459.961 38.059 l h
454.496 41.996 m 454.496 40.988 454.711 40.234 455.133 39.734 c 455.566
 39.234 456.07 38.984 456.648 38.984 c 457.23 38.984 457.727 39.219 458.133
 39.695 c 458.543 40.172 458.746 40.898 458.746 41.883 c 458.746 42.957 
458.539 43.746 458.121 44.246 c 457.707 44.754 457.191 45.008 456.586 45.008
 c 455.992 45.008 455.496 44.766 455.098 44.281 c 454.695 43.801 454.496
 43.035 454.496 41.996 c h
454.496 41.996 m f
q 1 0 0 -1 0 150 cm
4.801 132.543 m 754.383 132.543 l S Q
0.270588 0.505882 0.556863 rg
q 1 0 0 -1 0 150 cm
270.25 42.746 m 270.25 75.465 l S Q
268.926 74.535 m 270.25 70.906 l 271.57 74.535 l h
268.926 74.535 m f*
0 j
q 1 0 0 -1 0 150 cm
268.926 75.465 m 270.25 79.094 l 271.57 75.465 l h
268.926 75.465 m S Q
1 j
q 1 0 0 -1 0 150 cm
276.312 42.746 m 276.312 75.465 l S Q
274.992 74.535 m 276.312 70.906 l 277.633 74.535 l h
274.992 74.535 m f*
0 j
q 1 0 0 -1 0 150 cm
274.992 75.465 m 276.312 79.094 l 277.633 75.465 l h
274.992 75.465 m S Q
1 j
q 1 0 0 -1 0 150 cm
282.375 42.746 m 282.375 75.465 l S Q
281.055 74.535 m 282.375 70.906 l 283.699 74.535 l h
281.055 74.535 m f*
0 j
q 1 0 0 -1 0 150 cm
281.055 75.465 m 282.375 79.094 l 283.699 75.465 l h
281.055 75.465 m S Q
1 j
q 1 0 0 -1 0 150 cm
288.441 42.746 m 288.441 75.465 l S Q
287.121 74.535 m 288.441 70.906 l 289.762 74.535 l h
287.121 74.535 m f*
0 j
q 1 0 0 -1 0 150 cm
287.121 75.465 m 288.441 79.094 l 289.762 75.465 l h
287.121 75.465 m S Q
1 j
q 1 0 0 -1 0 150 cm
294.504 42.746 m 294.504 75.465 l S Q
293.184 74.535 m 294.504 70.906 l 295.828 74.535 l h
293.184 74.535 m f*
0 j
q 1 0 0 -1 0 150 cm
293.184 75.465 m 294.504 79.094 l 295.828 75.465 l h
293.184 75.465 m S Q
1 j
q 1 0 0 -1 0 150 cm
300.57 42.746 m 300.57 75.465 l S Q
299.246 74.535 m 300.57 70.906 l 301.891 74.535 l h
299.246 74.535 m f*
0 j
q 1 0 0 -1 0 150 cm
299.246 75.465 m 300.57 79.094 l 301.891 75.465 l h
299.246 75.465 m S Q
1 j
q 1 0 0 -1 0 150 cm
306.633 42.746 m 306.633 75.465 l S Q
305.312 74.535 m 306.633 70.906 l 307.953 74.535 l h
305.312 74.535 m f*
0 j
q 1 0 0 -1 0 150 cm
305.312 75.465 m 306.633 79.094 l 307.953 75.465 l h
305.312 75.465 m S Q
1 j
q 1 0 0 -1 0 150 cm
312.695 42.746 m 312.695 75.465 l S Q
311.375 74.535 m 312.695 70.906 l 314.02 74.535 l h
311.375 74.535 m f*
0 j
q 1 0 0 -1 0 150 cm
311.375 75.465 m 312.695 79.094 l 314.02 75.465 l h
311.375 75.465 m S Q
1 j
q 1 0 0 -1 0 150 cm
47.324 42.746 m 47.375 127.27 l S Q
46.051 22.73 m 47.375 19.102 l 48.695 22.73 l h
46.051 22.73 m f*
0 j
q 1 0 0 -1 0 150 cm
46.051 127.27 m 47.375 130.898 l 48.695 127.27 l h
46.051 127.27 m S Q
1 j
q 1 0 0 -1 0 150 cm
639.848 42.746 m 639.848 75.465 l S Q
638.527 74.535 m 639.848 70.906 l 641.172 74.535 l h
638.527 74.535 m f*
0 j
q 1 0 0 -1 0 150 cm
638.527 75.465 m 639.848 79.094 l 641.172 75.465 l h
638.527 75.465 m S Q
1 j
q 1 0 0 -1 0 150 cm
645.914 42.746 m 645.914 75.465 l S Q
644.59 74.535 m 645.914 70.906 l 647.234 74.535 l h
644.59 74.535 m f*
0 j
q 1 0 0 -1 0 150 cm
644.59 75.465 m 645.914 79.094 l 647.234 75.465 l h
644.59 75.465 m S Q
1 j
q 1 0 0 -1 0 150 cm
651.977 42.746 m 651.977 75.465 l S Q
650.656 74.535 m 651.977 70.906 l 653.297 74.535 l h
650.656 74.535 m f*
0 j
q 1 0 0 -1 0 150 cm
650.656 75.465 m 651.977 79.094 l 653.297 75.465 l h
650.656 75.465 m S Q
1 j
q 1 0 0 -1 0 150 cm
658.039 42.746 m 658.039 75.465 l S Q
656.719 74.535 m 658.039 70.906 l 659.363 74.535 l h
656.719 74.535 m f*
0 j
q 1 0 0 -1 0 150 cm
656.719 75.465 m 658.039 79.094 l 659.363 75.465 l h
656.719 75.465 m S Q
1 j
q 1 0 0 -1 0 150 cm
664.105 42.746 m 664.105 127.52 l S Q
662.785 22.48 m 664.105 18.848 l 665.426 22.48 l h
662.785 22.48 m f*
0 j
q 1 0 0 -1 0 150 cm
662.785 127.52 m 664.105 131.152 l 665.426 127.52 l h
662.785 127.52 m S Q
1 g
32.383 130.234 m 32.383 138.5 39.086 145.199 47.352 145.199 c 51.32 145.199
 55.129 143.625 57.934 140.816 c 60.742 138.008 62.316 134.203 62.316 130.234
 c 62.316 121.969 55.617 115.266 47.352 115.266 c 39.086 115.266 32.383 
121.969 32.383 130.234 c h
32.383 130.234 m f
0 g
1.6 w
1 j
q 1 0 0 -1 0 150 cm
32.383 19.766 m 32.383 11.5 39.086 4.801 47.352 4.801 c 51.32 4.801 55.129
 6.375 57.934 9.184 c 60.742 11.992 62.316 15.797 62.316 19.766 c 62.316
 28.031 55.617 34.734 47.352 34.734 c 39.086 34.734 32.383 28.031 32.383
 19.766 c h
32.383 19.766 m S Q
48.262 126.395 m 47.348 126.395 l 47.348 132.219 l 47.125 132.008 46.832
 131.797 46.473 131.582 c 46.125 131.371 45.809 131.219 45.523 131.117 c
 45.523 132.004 l 46.031 132.238 46.477 132.527 46.859 132.867 c 47.246 
133.211 47.516 133.543 47.672 133.867 c 48.262 133.867 l h
48.262 126.395 m f
1 g
256.574 130.234 m 256.574 138.5 263.273 145.199 271.539 145.199 c 275.508
 145.199 279.316 143.625 282.125 140.816 c 284.93 138.008 286.508 134.203
 286.508 130.234 c 286.508 121.969 279.805 115.266 271.539 115.266 c 263.273
 115.266 256.574 121.969 256.574 130.234 c h
256.574 130.234 m f
0 g
q 1 0 0 -1 0 150 cm
256.574 19.766 m 256.574 11.5 263.273 4.801 271.539 4.801 c 275.508 4.801
 279.316 6.375 282.125 9.184 c 284.93 11.992 286.508 15.797 286.508 19.766
 c 286.508 28.031 279.805 34.734 271.539 34.734 c 263.273 34.734 256.574
 28.031 256.574 19.766 c h
256.574 19.766 m S Q
273.812 127.27 m 273.812 126.395 l 268.887 126.395 l 268.879 126.609 268.918
 126.82 269 127.031 c 269.125 127.363 269.324 127.691 269.602 128.02 c 269.875
 128.344 270.273 128.719 270.801 129.145 c 271.609 129.809 272.156 130.336
 272.438 130.719 c 272.723 131.109 272.863 131.477 272.863 131.816 c 272.863
 132.184 272.734 132.488 272.477 132.73 c 272.219 132.98 271.879 133.105
 271.461 133.105 c 271.02 133.105 270.668 132.973 270.398 132.707 c 270.141
 132.445 270.008 132.086 270 131.617 c 269.062 131.719 l 269.129 132.418
 269.371 132.953 269.789 133.316 c 270.203 133.684 270.766 133.867 271.477
 133.867 c 272.191 133.867 272.758 133.668 273.176 133.27 c 273.594 132.875
 273.801 132.391 273.801 131.805 c 273.801 131.504 273.738 131.211 273.613
 130.918 c 273.496 130.633 273.297 130.332 273.012 130.004 c 272.73 129.688
 272.258 129.254 271.602 128.707 c 271.051 128.246 270.695 127.934 270.539
 127.77 c 270.387 127.602 270.262 127.434 270.164 127.27 c h
273.812 127.27 m f
1 g
294.508 130.234 m 294.508 138.5 301.207 145.199 309.473 145.199 c 313.445
 145.199 317.25 143.625 320.059 140.816 c 322.863 138.008 324.441 134.203
 324.441 130.234 c 324.441 121.969 317.738 115.266 309.473 115.266 c 301.207
 115.266 294.508 121.969 294.508 130.234 c h
294.508 130.234 m f
0 g
q 1 0 0 -1 0 150 cm
294.508 19.766 m 294.508 11.5 301.207 4.801 309.473 4.801 c 313.445 4.801
 317.25 6.375 320.059 9.184 c 322.863 11.992 324.441 15.797 324.441 19.766
 c 324.441 28.031 317.738 34.734 309.473 34.734 c 301.207 34.734 294.508
 28.031 294.508 19.766 c h
294.508 19.766 m S Q
306.945 128.355 m 307.859 128.48 l 307.969 127.965 308.148 127.59 308.398
 127.355 c 308.648 127.129 308.953 127.02 309.32 127.02 c 309.746 127.02
 310.105 127.164 310.398 127.457 c 310.695 127.754 310.848 128.125 310.848
 128.566 c 310.848 128.992 310.711 129.34 310.434 129.605 c 310.168 129.879
 309.82 130.02 309.398 130.02 c 309.223 130.02 309.004 129.984 308.746 129.918
 c 308.848 130.719 l 308.914 130.711 308.965 130.707 308.996 130.707 c 309.387
 130.707 309.738 130.805 310.047 131.004 c 310.363 131.215 310.523 131.531
 310.523 131.957 c 310.523 132.289 310.406 132.562 310.172 132.781 c 309.945
 133.004 309.656 133.117 309.297 133.117 c 308.938 133.117 308.641 133.004
 308.41 132.781 c 308.176 132.555 308.023 132.223 307.945 131.781 c 307.035
 131.941 l 307.152 132.551 307.406 133.023 307.797 133.355 c 308.195 133.695
 308.688 133.867 309.273 133.867 c 309.68 133.867 310.055 133.781 310.398
 133.605 c 310.738 133.43 311 133.191 311.184 132.895 c 311.367 132.594 
311.461 132.273 311.461 131.93 c 311.461 131.613 311.371 131.32 311.195 
131.055 c 311.023 130.789 310.766 130.582 310.434 130.43 c 310.867 130.32
 311.203 130.109 311.445 129.793 c 311.695 129.477 311.82 129.078 311.82
 128.594 c 311.82 127.941 311.586 127.391 311.109 126.93 c 310.633 126.48
 310.035 126.254 309.309 126.254 c 308.66 126.254 308.117 126.453 307.684
 126.844 c 307.25 127.234 307.004 127.738 306.945 128.355 c h
306.945 128.355 m f
1 g
634.172 130.234 m 634.172 138.5 640.871 145.199 649.137 145.199 c 653.109
 145.199 656.914 143.625 659.723 140.816 c 662.527 138.008 664.105 134.203
 664.105 130.234 c 664.105 121.969 657.402 115.266 649.137 115.266 c 640.871
 115.266 634.172 121.969 634.172 130.234 c h
634.172 130.234 m f
0 g
q 1 0 0 -1 0 150 cm
634.172 19.766 m 634.172 11.5 640.871 4.801 649.137 4.801 c 653.109 4.801
 656.914 6.375 659.723 9.184 c 662.527 11.992 664.105 15.797 664.105 19.766
 c 664.105 28.031 657.402 34.734 649.137 34.734 c 640.871 34.734 634.172
 28.031 634.172 19.766 c h
634.172 19.766 m S Q
649.535 126.395 m 649.535 128.18 l 646.309 128.18 l 646.309 129.02 l 649.699
 133.844 l 650.449 133.844 l 650.449 129.02 l 651.461 129.02 l 651.461 128.18
 l 650.449 128.18 l 650.449 126.395 l h
649.535 129.02 m 649.535 132.367 l 647.199 129.02 l h
649.535 129.02 m f
  Q
Q
Q Q
showpage
%%Trailer
end restore
%%EOF
